term_ID,description,frequency,plot_X,plot_Y,plot_size,log10 p-value,uniqueness,dispensability,representative,eliminated
GO:0005783,"endoplasmic reticulum",4.228%,-5.053,-0.893,2.670,-10.1629,0.550,0.000,5783,0
GO:0031012,"extracellular matrix",1.874%, 2.021, 5.359,2.318,-1.6123,0.595,0.000,31012,0
GO:0044421,"extracellular region part",6.645%,null,null,2.866,-1.7297,0.606,0.618,31012,1
GO:0042600,"chorion",0.353%, 5.191,-2.315,1.602,-1.4806,0.630,0.035,42600,0
GO:0043231,"intracellular membrane-bounded organelle",36.955%,-4.626,-3.190,3.611,-1.9176,0.578,0.276,43231,0
GO:0044444,"cytoplasmic part",25.068%,-4.992, 1.890,3.442,-1.3575,0.648,0.294,44444,0
GO:0030312,"external encapsulating structure",0.389%, 4.689,-4.296,1.643,-1.3447,0.630,0.321,30312,0
GO:0043227,"membrane-bounded organelle",38.982%,-3.983,-5.653,3.634,-1.9018,0.671,0.445,43227,0
