OG0002508
OG0002509
OG0002510
OG0002511
OG0002512
OG0002513
OG0002514
OG0002515
OG0002516
OG0002517
OG0002518
OG0002519
OG0002520
OG0002522
OG0002523
OG0002524
OG0002525
OG0002526
OG0002527
OG0002528
OG0002529
OG0002530
OG0002531
OG0002532
OG0002534
OG0002535
OG0002536
OG0002537
OG0002538
OG0002539
OG0002540
OG0002541
OG0002542
OG0002543
OG0002544
OG0002545
OG0002546
OG0002547
OG0002548
OG0002549
OG0002550
OG0002551
OG0002554
OG0002555
OG0002556
OG0002557
OG0002558
OG0002559
OG0002560
OG0002561
OG0002562
OG0002563
OG0002564
OG0002565
OG0002566
OG0002567
OG0002568
OG0002569
OG0002570
OG0002571
OG0002572
OG0002573
OG0002574
OG0002575
OG0002576
OG0002577
OG0002578
OG0002579
OG0002580
OG0002581
OG0002582
OG0002583
OG0002584
OG0002585
OG0002586
OG0002587
OG0002588
OG0002589
OG0002590
OG0002591
OG0002592
OG0002593
OG0002594
OG0002595
OG0002596
OG0002597
OG0002598
OG0002600
OG0002601
OG0002602
OG0002603
OG0002604
OG0002605
OG0002606
OG0002607
OG0002608
OG0002609
OG0002610
OG0002611
OG0002612
OG0002613
OG0002614
OG0002616
OG0002617
OG0002618
OG0002619
OG0002620
OG0002621
OG0002622
OG0002623
OG0002624
OG0002625
OG0002626
OG0002627
OG0002628
OG0002629
OG0002631
OG0002632
OG0002633
OG0002634
OG0002636
OG0002638
OG0002639
OG0002640
OG0002641
OG0002642
OG0002643
OG0002645
OG0002646
OG0002647
OG0002648
OG0002649
OG0002650
OG0002651
OG0002652
OG0002653
OG0002654
OG0002655
OG0002656
OG0002657
OG0002658
OG0002659
OG0002660
OG0002661
OG0002662
OG0002663
OG0002665
OG0002667
OG0002668
OG0002669
OG0002670
OG0002671
OG0002672
OG0002673
OG0002674
OG0002675
OG0002676
OG0002677
OG0002678
OG0002679
OG0002680
OG0002681
OG0002682
OG0002683
OG0002684
OG0002685
OG0002686
OG0002687
OG0002688
OG0002689
OG0002690
OG0002691
OG0002692
OG0002693
OG0002694
OG0002695
OG0002696
OG0002697
OG0002699
OG0002700
OG0002701
OG0002702
OG0002703
OG0002704
OG0002705
OG0002706
OG0002708
OG0002709
OG0002712
OG0002713
OG0002714
OG0002715
OG0002716
OG0002717
OG0002718
OG0002719
OG0002720
OG0002721
OG0002722
OG0002723
OG0002724
OG0002725
OG0002726
OG0002727
OG0002728
OG0002729
OG0002730
OG0002731
OG0002732
OG0002734
OG0002735
OG0002737
OG0002738
OG0002739
OG0002740
OG0002741
OG0002742
OG0002743
OG0002744
OG0002745
OG0002746
OG0002747
OG0002748
OG0002749
OG0002750
OG0002751
OG0002752
OG0002753
OG0002754
OG0002755
OG0002756
OG0002757
OG0002758
OG0002760
OG0002761
OG0002762
OG0002763
OG0002764
OG0002766
OG0002767
OG0002768
OG0002769
OG0002770
OG0002771
OG0002773
OG0002774
OG0002777
OG0002778
OG0002779
OG0002780
OG0002781
OG0002782
OG0002783
OG0002785
OG0002786
OG0002787
OG0002788
OG0002789
OG0002790
OG0002791
OG0002792
OG0002793
OG0002794
OG0002795
OG0002796
OG0002797
OG0002798
OG0002799
OG0002801
OG0002802
OG0002803
OG0002804
OG0002805
OG0002806
OG0002807
OG0002808
OG0002809
OG0002810
OG0002811
OG0002813
OG0002814
OG0002815
OG0002816
OG0002817
OG0002818
OG0002820
OG0002821
OG0002822
OG0002823
OG0002824
OG0002825
OG0002826
OG0002827
OG0002828
OG0002829
OG0002832
OG0002833
OG0002834
OG0002835
OG0002836
OG0002837
OG0002838
OG0002839
OG0002840
OG0002841
OG0002842
OG0002843
OG0002844
OG0002845
OG0002846
OG0002847
OG0002848
OG0002849
OG0002850
OG0002851
OG0002852
OG0002853
OG0002854
OG0002855
OG0002856
OG0002857
OG0002858
OG0002859
OG0002860
OG0002861
OG0002862
OG0002863
OG0002864
OG0002865
OG0002866
OG0002867
OG0002868
OG0002869
OG0002870
OG0002871
OG0002872
OG0002873
OG0002874
OG0002875
OG0002876
OG0002877
OG0002878
OG0002881
OG0002882
OG0002883
OG0002884
OG0002885
OG0002886
OG0002887
OG0002888
OG0002889
OG0002890
OG0002891
OG0002892
OG0002893
OG0002894
OG0002895
OG0002896
OG0002897
OG0002898
OG0002899
OG0002900
OG0002901
OG0002902
OG0002903
OG0002904
OG0002905
OG0002906
OG0002907
OG0002908
OG0002910
OG0002911
OG0002913
OG0002914
OG0002915
OG0002916
OG0002917
OG0002918
OG0002919
OG0002920
OG0002921
OG0002922
OG0002923
OG0002924
OG0002925
OG0002927
OG0002928
OG0002930
OG0002931
OG0002932
OG0002933
OG0002934
OG0002935
OG0002936
OG0002937
OG0002938
OG0002939
OG0002940
OG0002942
OG0002943
OG0002944
OG0002945
OG0002947
OG0002948
OG0002949
OG0002950
OG0002951
OG0002952
OG0002953
OG0002954
OG0002955
OG0002956
OG0002957
OG0002958
OG0002960
OG0002961
OG0002962
OG0002963
OG0002964
OG0002965
OG0002966
OG0002967
OG0002968
OG0002969
OG0002970
OG0002971
OG0002972
OG0002973
OG0002974
OG0002975
OG0002976
OG0002977
OG0002978
OG0002980
OG0002981
OG0002982
OG0002983
OG0002984
OG0002985
OG0002986
OG0002987
OG0002988
OG0002989
OG0002990
OG0002991
OG0002992
OG0002993
OG0002994
OG0002995
OG0002996
OG0002997
OG0002998
OG0002999
OG0003000
OG0003002
OG0003003
OG0003004
OG0003005
OG0003007
OG0003008
OG0003009
OG0003010
OG0003011
OG0003012
OG0003013
OG0003014
OG0003015
OG0003016
OG0003017
OG0003018
OG0003019
OG0003020
OG0003021
OG0003022
OG0003023
OG0003024
OG0003025
OG0003026
OG0003027
OG0003028
OG0003029
OG0003030
OG0003032
OG0003033
OG0003034
OG0003035
OG0003036
OG0003037
OG0003038
OG0003040
OG0003041
OG0003042
OG0003043
OG0003045
OG0003046
OG0003047
OG0003048
OG0003050
OG0003051
OG0003052
OG0003053
OG0003054
OG0003056
OG0003057
OG0003058
OG0003059
OG0003060
OG0003061
OG0003062
OG0003063
OG0003064
OG0003065
OG0003066
OG0003067
OG0003068
OG0003070
OG0003071
OG0003072
OG0003073
OG0003074
OG0003075
OG0003076
OG0003077
OG0003078
OG0003079
OG0003080
OG0003081
OG0003082
OG0003083
OG0003084
OG0003085
OG0003086
OG0003087
OG0003088
OG0003089
OG0003090
OG0003091
OG0003092
OG0003093
OG0003094
OG0003095
OG0003096
OG0003097
OG0003098
OG0003099
OG0003100
OG0003101
OG0003102
OG0003103
OG0003104
OG0003105
OG0003106
OG0003107
OG0003108
OG0003109
OG0003110
OG0003111
OG0003112
OG0003113
OG0003114
OG0003116
OG0003117
OG0003118
OG0003119
OG0003120
OG0003121
OG0003122
OG0003123
OG0003124
OG0003125
OG0003126
OG0003127
OG0003128
OG0003129
OG0003131
OG0003132
OG0003134
OG0003135
OG0003137
OG0003138
OG0003139
OG0003141
OG0003142
OG0003144
OG0003146
OG0003147
OG0003148
OG0003149
OG0003150
OG0003151
OG0003152
OG0003153
OG0003154
OG0003155
OG0003156
OG0003157
OG0003158
OG0003159
OG0003160
OG0003161
OG0003162
OG0003163
OG0003164
OG0003165
OG0003166
OG0003167
OG0003168
OG0003169
OG0003170
OG0003171
OG0003172
OG0003173
OG0003174
OG0003176
OG0003178
OG0003179
OG0003180
OG0003181
OG0003182
OG0003183
OG0003184
OG0003186
OG0003187
OG0003188
OG0003189
OG0003190
OG0003192
OG0003193
OG0003194
OG0003195
OG0003196
OG0003197
OG0003198
OG0003199
OG0003200
OG0003201
OG0003203
OG0003204
OG0003205
OG0003206
OG0003207
OG0003208
OG0003209
OG0003210
OG0003211
OG0003213
OG0003214
OG0003216
OG0003217
OG0003218
OG0003220
OG0003221
OG0003222
OG0003223
OG0003224
OG0003225
OG0003226
OG0003227
OG0003228
OG0003229
OG0003230
OG0003232
OG0003233
OG0003234
OG0003235
OG0003236
OG0003237
OG0003239
OG0003240
OG0003241
OG0003242
OG0003243
OG0003244
OG0003245
OG0003246
OG0003247
OG0003248
OG0003249
OG0003250
OG0003251
OG0003252
OG0003253
OG0003254
OG0003255
OG0003256
OG0003257
OG0003258
OG0003259
OG0003260
OG0003261
OG0003262
OG0003264
OG0003265
OG0003266
OG0003267
OG0003269
OG0003270
OG0003271
OG0003272
OG0003273
OG0003274
OG0003275
OG0003276
OG0003277
OG0003278
OG0003279
OG0003280
OG0003281
OG0003282
OG0003283
OG0003284
OG0003285
OG0003286
OG0003287
OG0003290
OG0003291
OG0003292
OG0003293
OG0003294
OG0003295
OG0003296
OG0003297
OG0003299
OG0003300
OG0003301
OG0003302
OG0003303
OG0003305
OG0003306
OG0003307
OG0003308
OG0003309
OG0003310
OG0003311
OG0003312
OG0003313
OG0003314
OG0003315
OG0003316
OG0003317
OG0003319
OG0003320
OG0003321
OG0003322
OG0003323
OG0003324
OG0003325
OG0003326
OG0003327
OG0003328
OG0003329
OG0003330
OG0003332
OG0003333
OG0003334
OG0003335
OG0003336
OG0003337
OG0003338
OG0003339
OG0003340
OG0003341
OG0003342
OG0003343
OG0003344
OG0003345
OG0003346
OG0003347
OG0003348
OG0003349
OG0003350
OG0003351
OG0003352
OG0003353
OG0003354
OG0003355
OG0003356
OG0003357
OG0003358
OG0003359
OG0003360
OG0003361
OG0003362
OG0003364
OG0003365
OG0003366
OG0003367
OG0003368
OG0003369
OG0003370
OG0003371
OG0003372
OG0003373
OG0003374
OG0003375
OG0003376
OG0003377
OG0003378
OG0003379
OG0003380
OG0003381
OG0003382
OG0003383
OG0003384
OG0003385
OG0003386
OG0003387
OG0003388
OG0003389
OG0003390
OG0003391
OG0003392
OG0003393
OG0003394
OG0003395
OG0003396
OG0003397
OG0003398
OG0003399
OG0003400
OG0003401
OG0003402
OG0003403
OG0003404
OG0003405
OG0003406
OG0003407
OG0003408
OG0003409
OG0003410
OG0003411
OG0003412
OG0003413
OG0003414
OG0003415
OG0003416
OG0003417
OG0003418
OG0003419
OG0003421
OG0003422
OG0003423
OG0003424
OG0003425
OG0003426
OG0003427
OG0003428
OG0003429
OG0003430
OG0003431
OG0003432
OG0003433
OG0003434
OG0003435
OG0003436
OG0003437
OG0003438
OG0003439
OG0003440
OG0003441
OG0003442
OG0003443
OG0003444
OG0003445
OG0003446
OG0003447
OG0003448
OG0003449
OG0003450
OG0003451
OG0003452
OG0003453
OG0003454
OG0003455
OG0003456
OG0003457
OG0003458
OG0003459
OG0003460
OG0003461
OG0003462
OG0003463
OG0003464
OG0003465
OG0003466
OG0003467
OG0003468
OG0003469
OG0003470
OG0003471
OG0003472
OG0003473
OG0003474
OG0003475
OG0003476
OG0003478
OG0003479
OG0003480
OG0003481
OG0003482
OG0003483
OG0003484
OG0003485
OG0003486
OG0003487
OG0003488
OG0003489
OG0003490
OG0003491
OG0003492
OG0003493
OG0003494
OG0003495
OG0003496
OG0003497
OG0003498
OG0003499
OG0003500
OG0003501
OG0003503
OG0003504
OG0003505
OG0003506
OG0003507
OG0003508
OG0003509
OG0003510
OG0003511
OG0003512
OG0003513
OG0003515
OG0003517
OG0003518
OG0003520
OG0003521
OG0003522
OG0003523
OG0003524
OG0003526
OG0003527
OG0003528
OG0003529
OG0003530
OG0003531
OG0003532
OG0003533
OG0003534
OG0003535
OG0003536
OG0003537
OG0003538
OG0003539
OG0003540
OG0003541
OG0003542
OG0003543
OG0003544
OG0003545
OG0003546
OG0003547
OG0003548
OG0003549
OG0003550
OG0003551
OG0003552
OG0003553
OG0003554
OG0003555
OG0003556
OG0003557
OG0003558
OG0003559
OG0003560
OG0003561
OG0003562
OG0003563
OG0003564
OG0003565
OG0003566
OG0003567
OG0003568
OG0003569
OG0003570
OG0003571
OG0003572
OG0003573
OG0003574
OG0003575
OG0003576
OG0003577
OG0003578
OG0003579
OG0003580
OG0003581
OG0003582
OG0003583
OG0003584
OG0003585
OG0003586
OG0003587
OG0003588
OG0003589
OG0003590
OG0003591
OG0003592
OG0003593
OG0003594
OG0003595
OG0003596
OG0003597
OG0003598
OG0003599
OG0003600
OG0003601
OG0003602
OG0003603
OG0003604
OG0003605
OG0003606
OG0003607
OG0003608
OG0003609
OG0003610
OG0003611
OG0003612
OG0003613
OG0003614
OG0003615
OG0003616
OG0003617
OG0003618
OG0003619
OG0003620
OG0003621
OG0003622
OG0003623
OG0003624
OG0003625
OG0003626
OG0003627
OG0003628
OG0003629
OG0003630
OG0003631
OG0003632
OG0003633
OG0003634
OG0003635
OG0003636
OG0003637
OG0003638
OG0003639
OG0003640
OG0003641
OG0003642
OG0003643
OG0003644
OG0003645
OG0003646
OG0003647
OG0003648
OG0003649
OG0003650
OG0003651
OG0003652
OG0003653
OG0003654
OG0003655
OG0003656
OG0003657
OG0003658
OG0003659
OG0003660
OG0003661
OG0003662
OG0003663
OG0003664
OG0003665
OG0003666
OG0003667
OG0003668
OG0003669
OG0003670
OG0003671
OG0003672
OG0003673
OG0003674
OG0003675
OG0003676
OG0003677
OG0003678
OG0003679
OG0003680
OG0003681
OG0003682
OG0003683
OG0003684
OG0003685
OG0003686
OG0003687
OG0003688
OG0003689
OG0003690
OG0003691
OG0003692
OG0003693
OG0003694
OG0003695
OG0003696
OG0003697
OG0003698
OG0003699
OG0003700
OG0003701
OG0003702
OG0003703
OG0003704
OG0003705
OG0003706
OG0003707
OG0003708
OG0003709
OG0003710
OG0003711
OG0003712
OG0003713
OG0003714
OG0003715
OG0003716
OG0003717
OG0003718
OG0003719
OG0003720
OG0003721
OG0003722
OG0003723
OG0003724
OG0003725
OG0003726
OG0003727
OG0003728
OG0003729
OG0003730
OG0003731
OG0003732
OG0003733
OG0003734
OG0003735
OG0003736
OG0003737
OG0003738
OG0003739
OG0003740
OG0003741
OG0003742
OG0003743
OG0003744
OG0003745
OG0003746
OG0003747
OG0003748
OG0003749
OG0003750
OG0003751
OG0003752
OG0003753
OG0003754
OG0003755
OG0003756
OG0003757
OG0003758
OG0003759
OG0003760
OG0003761
OG0003762
OG0003763
OG0003764
OG0003765
OG0003767
OG0003768
OG0003769
OG0003770
OG0003771
OG0003772
OG0003773
OG0003774
OG0003775
OG0003776
OG0003777
OG0003778
OG0003779
OG0003780
OG0003781
OG0003782
OG0003783
OG0003784
OG0003785
OG0003786
OG0003787
OG0003788
OG0003789
OG0003790
OG0003791
OG0003792
OG0003793
OG0003794
OG0003795
OG0003796
OG0003797
OG0003798
OG0003799
OG0003800
OG0003801
OG0003802
OG0003803
OG0003804
OG0003805
OG0003806
OG0003807
OG0003808
OG0003809
OG0003810
OG0003811
OG0003812
OG0003813
OG0003814
OG0003815
OG0003816
OG0003817
OG0003818
OG0003819
OG0003820
OG0003821
OG0003822
OG0003823
OG0003824
OG0003825
OG0003826
OG0003827
OG0003828
OG0003829
OG0003830
OG0003831
OG0003832
OG0003833
OG0003834
OG0003835
OG0003836
OG0003837
OG0003838
OG0003839
OG0003840
OG0003841
OG0003842
OG0003843
OG0003844
OG0003845
OG0003846
OG0003847
OG0003848
OG0003849
OG0003850
OG0003851
OG0003852
OG0003853
OG0003854
OG0003855
OG0003856
OG0003857
OG0003858
OG0003859
OG0003860
OG0003861
OG0003862
OG0003863
OG0003864
OG0003865
OG0003866
OG0003867
OG0003868
OG0003869
OG0003870
OG0003871
OG0003872
OG0003873
OG0003874
OG0003875
OG0003876
OG0003877
OG0003878
OG0003879
OG0003880
OG0003881
OG0003882
OG0003883
OG0003885
OG0003886
OG0003887
OG0003888
OG0003889
OG0003890
OG0003891
OG0003892
OG0003893
OG0003894
OG0003895
OG0003896
OG0003897
OG0003898
OG0003899
OG0003900
OG0003901
OG0003902
OG0003903
OG0003904
OG0003905
OG0003906
OG0003907
OG0003908
OG0003909
OG0003910
OG0003911
OG0003912
OG0003913
OG0003914
OG0003915
OG0003916
OG0003917
OG0003918
OG0003919
OG0003920
OG0003921
OG0003922
OG0003923
OG0003924
OG0003925
OG0003926
OG0003927
OG0003928
OG0003929
OG0003930
OG0003931
OG0003932
OG0003933
OG0003934
OG0003935
OG0003936
OG0003937
OG0003938
OG0003939
OG0003940
OG0003941
OG0003942
OG0003943
OG0003944
OG0003945
OG0003946
OG0003947
OG0003948
OG0003949
OG0003950
OG0003951
OG0003952
OG0003953
OG0003954
OG0003955
OG0003956
OG0003957
OG0003958
OG0003959
OG0003960
OG0003961
OG0003962
OG0003963
OG0003964
OG0003965
OG0003966
OG0003967
OG0003968
OG0003969
OG0003970
OG0003971
OG0003972
OG0003973
OG0003974
OG0003975
OG0003976
OG0003977
OG0003978
OG0003979
OG0003980
OG0003981
OG0003982
OG0003983
OG0003984
OG0003985
OG0003986
OG0003987
OG0003988
OG0003989
OG0003990
OG0003991
OG0003992
OG0003993
OG0003994
OG0003995
OG0003996
OG0003997
OG0003998
OG0003999
OG0004000
OG0004001
OG0004002
OG0004003
OG0004004
OG0004005
OG0004006
OG0004007
OG0004008
OG0004009
OG0004010
OG0004011
OG0004012
OG0004013
OG0004014
OG0004015
OG0004016
OG0004017
OG0004018
OG0004019
OG0004020
OG0004021
OG0004022
OG0004023
OG0004024
OG0004025
OG0004026
OG0004027
OG0004028
OG0004029
OG0004030
OG0004031
OG0004032
OG0004033
OG0004034
OG0004035
OG0004036
OG0004037
OG0004038
OG0004039
OG0004040
OG0004041
OG0004042
OG0004043
OG0004044
OG0004045
OG0004046
OG0004047
OG0004048
OG0004049
OG0004050
OG0004051
OG0004052
OG0004053
OG0004054
OG0004055
OG0004056
OG0004057
OG0004058
OG0004059
OG0004060
OG0004061
OG0004062
OG0004063
OG0004064
OG0004065
OG0004066
OG0004067
OG0004068
OG0004069
OG0004070
OG0004071
OG0004072
OG0004073
OG0004074
OG0004075
OG0004076
OG0004077
OG0004078
OG0004079
OG0004080
OG0004081
OG0004082
OG0004083
OG0004084
OG0004085
OG0004086
OG0004087
OG0004088
OG0004089
OG0004090
OG0004091
OG0004092
OG0004093
OG0004094
OG0004095
OG0004096
OG0004097
OG0004098
OG0004099
OG0004100
OG0004101
OG0004102
OG0004103
OG0004104
OG0004105
OG0004106
OG0004107
OG0004108
OG0004109
OG0004110
OG0004111
OG0004112
OG0004113
OG0004115
OG0004116
OG0004117
OG0004118
OG0004119
OG0004120
OG0004121
OG0004122
OG0004123
OG0004124
OG0004125
OG0004126
OG0004127
OG0004128
OG0004129
OG0004130
OG0004131
OG0004132
OG0004133
OG0004134
OG0004135
OG0004136
OG0004137
OG0004139
OG0004140
OG0004141
OG0004142
OG0004143
OG0004144
OG0004145
OG0004146
OG0004147
OG0004148
OG0004149
OG0004150
OG0004151
OG0004152
OG0004153
OG0004154
OG0004155
OG0004156
OG0004157
OG0004158
OG0004159
OG0004160
OG0004161
OG0004162
OG0004163
OG0004164
OG0004165
OG0004166
OG0004167
OG0004168
OG0004169
OG0004170
OG0004171
OG0004172
OG0004173
OG0004174
OG0004175
OG0004176
OG0004177
OG0004178
OG0004179
OG0004180
OG0004181
OG0004182
OG0004183
OG0004184
OG0004185
OG0004186
OG0004187
OG0004188
OG0004189
OG0004190
OG0004191
OG0004192
OG0004193
OG0004194
OG0004195
OG0004196
OG0004197
OG0004198
OG0004199
OG0004200
OG0004201
OG0004202
OG0004203
OG0004204
OG0004205
OG0004206
OG0004207
OG0004208
OG0004209
OG0004210
OG0004211
OG0004212
OG0004213
OG0004214
OG0004215
OG0004216
OG0004217
OG0004218
OG0004219
OG0004220
OG0004221
OG0004222
OG0004223
OG0004225
OG0004226
OG0004227
OG0004228
OG0004229
OG0004230
OG0004231
OG0004232
OG0004233
OG0004234
OG0004235
OG0004236
OG0004237
OG0004238
OG0004239
OG0004240
OG0004241
OG0004242
OG0004243
OG0004244
OG0004245
OG0004246
OG0004247
OG0004248
OG0004249
OG0004250
OG0004251
OG0004252
OG0004253
OG0004254
OG0004255
OG0004256
OG0004257
OG0004258
OG0004259
OG0004260
OG0004261
OG0004262
OG0004263
OG0004264
OG0004265
OG0004266
OG0004267
OG0004268
OG0004269
OG0004270
OG0004271
OG0004272
OG0004273
OG0004274
OG0004275
OG0004276
OG0004277
OG0004278
OG0004279
OG0004280
OG0004281
OG0004282
OG0004283
OG0004284
OG0004285
OG0004286
OG0004287
OG0004288
OG0004289
OG0004290
OG0004291
OG0004292
OG0004293
OG0004294
OG0004295
OG0004296
OG0004297
OG0004298
OG0004299
OG0004300
OG0004301
OG0004302
OG0004303
OG0004304
OG0004305
OG0004306
OG0004307
OG0004308
OG0004309
OG0004310
OG0004311
OG0004312
OG0004313
OG0004314
OG0004315
OG0004316
OG0004317
OG0004318
OG0004319
OG0004320
OG0004321
OG0004322
OG0004323
OG0004324
OG0004325
OG0004326
OG0004327
OG0004328
OG0004329
OG0004330
OG0004331
OG0004332
OG0004333
OG0004334
OG0004335
OG0004336
OG0004337
OG0004338
OG0004339
OG0004340
OG0004341
OG0004342
OG0004343
OG0004345
OG0004346
OG0004347
OG0004348
OG0004349
OG0004350
OG0004351
OG0004352
OG0004353
OG0004354
OG0004355
OG0004356
OG0004357
OG0004358
OG0004359
OG0004360
OG0004361
OG0004362
OG0004363
OG0004364
OG0004365
OG0004366
OG0004367
OG0004368
OG0004369
OG0004370
OG0004371
OG0004372
OG0004373
OG0004374
OG0004375
OG0004376
OG0004377
OG0004378
OG0004379
OG0004380
OG0004381
OG0004382
OG0004383
OG0004384
OG0004385
OG0004386
OG0004387
OG0004388
OG0004389
OG0004390
OG0004391
OG0004392
OG0004393
OG0004394
OG0004395
OG0004396
OG0004397
OG0004398
OG0004399
OG0004400
OG0004401
OG0004402
OG0004403
OG0004404
OG0004405
OG0004406
OG0004407
OG0004408
OG0004409
OG0004410
OG0004411
OG0004412
OG0004413
OG0004414
OG0004415
OG0004416
OG0004417
OG0004418
OG0004419
OG0004420
OG0004421
OG0004422
OG0004423
OG0004424
OG0004425
OG0004426
OG0004427
OG0004428
OG0004429
OG0004430
OG0004431
OG0004432
OG0004433
OG0004434
OG0004435
OG0004436
OG0004437
OG0004438
OG0004439
OG0004440
OG0004441
OG0004442
OG0004443
OG0004444
OG0004445
OG0004446
OG0004447
OG0004448
OG0004449
OG0004450
OG0004451
OG0004452
OG0004453
OG0004454
OG0004455
OG0004456
OG0004457
OG0004458
OG0004459
OG0004460
OG0004461
OG0004462
OG0004463
OG0004464
OG0004465
OG0004466
OG0004467
OG0004468
OG0004469
OG0004470
OG0004471
OG0004472
OG0004473
OG0004474
OG0004475
OG0004476
OG0004477
OG0004478
OG0004480
OG0004481
OG0004482
OG0004483
OG0004484
OG0004485
OG0004486
OG0004487
OG0004488
OG0004489
OG0004490
OG0004491
OG0004492
OG0004493
OG0004494
OG0004495
OG0004496
OG0004497
OG0004498
OG0004499
OG0004500
OG0004501
OG0004502
OG0004503
OG0004504
OG0004505
OG0004506
OG0004507
OG0004508
OG0004509
OG0004510
OG0004511
OG0004512
OG0004513
OG0004514
OG0004515
OG0004516
OG0004517
OG0004518
OG0004519
OG0004520
OG0004521
OG0004522
OG0004523
OG0004524
OG0004525
OG0004526
OG0004527
OG0004528
OG0004529
OG0004530
OG0004531
OG0004532
OG0004533
OG0004534
OG0004535
OG0004536
OG0004537
OG0004538
OG0004539
OG0004540
OG0004541
OG0004542
OG0004543
OG0004544
OG0004545
OG0004546
OG0004547
OG0004548
OG0004549
OG0004550
OG0004551
OG0004552
OG0004553
OG0004554
OG0004555
OG0004556
OG0004557
OG0004558
OG0004559
OG0004560
OG0004561
OG0004562
OG0004563
OG0004564
OG0004565
OG0004566
OG0004567
OG0004568
OG0004569
OG0004570
OG0004571
OG0004572
OG0004573
OG0004574
OG0004575
OG0004576
OG0004577
OG0004578
OG0004579
OG0004580
OG0004581
OG0004582
OG0004583
OG0004584
OG0004585
OG0004586
OG0004588
OG0004589
OG0004590
OG0004591
OG0004592
OG0004593
OG0004594
OG0004595
OG0004596
OG0004597
OG0004598
OG0004599
OG0004600
OG0004601
OG0004603
OG0004604
OG0004605
OG0004606
OG0004607
OG0004608
OG0004609
OG0004610
OG0004611
OG0004612
OG0004613
OG0004614
OG0004615
OG0004616
OG0004617
OG0004618
OG0004619
OG0004620
OG0004621
OG0004622
OG0004623
OG0004624
OG0004625
OG0004626
OG0004627
OG0004628
OG0004629
OG0004630
OG0004631
OG0004632
OG0004633
OG0004634
OG0004635
OG0004636
OG0004637
OG0004639
OG0004640
OG0004641
OG0004642
OG0004643
OG0004644
OG0004645
OG0004647
OG0004648
OG0004649
OG0004650
OG0004651
OG0004652
OG0004653
OG0004654
OG0004655
OG0004656
OG0004657
OG0004658
OG0004659
OG0004660
OG0004661
OG0004662
OG0004663
OG0004664
OG0004665
OG0004666
OG0004667
OG0004668
OG0004669
OG0004670
OG0004671
OG0004672
OG0004673
OG0004674
OG0004675
OG0004676
OG0004677
OG0004678
OG0004679
OG0004680
OG0004682
OG0004683
OG0004684
OG0004685
OG0004686
OG0004687
OG0004688
OG0004689
OG0004690
OG0004691
OG0004692
OG0004693
OG0004694
OG0004695
OG0004696
OG0004697
OG0004698
OG0004699
OG0004700
OG0004701
OG0004702
OG0004703
OG0004704
OG0004705
OG0004707
OG0004708
OG0004709
OG0004710
OG0004711
OG0004712
OG0004713
OG0004714
OG0004715
OG0004716
OG0004717
OG0004719
OG0004720
OG0004721
OG0004722
OG0004723
OG0004724
OG0004725
OG0004726
OG0004727
OG0004728
OG0004729
OG0004730
OG0004731
OG0004732
OG0004733
OG0004734
OG0004735
OG0004736
OG0004737
OG0004738
OG0004739
OG0004740
OG0004741
OG0004742
OG0004743
OG0004744
OG0004745
OG0004746
OG0004747
OG0004748
OG0004749
OG0004750
OG0004751
OG0004752
OG0004753
OG0004754
OG0004755
OG0004756
OG0004757
OG0004758
OG0004759
OG0004760
OG0004761
OG0004762
OG0004763
OG0004764
OG0004765
OG0004766
OG0004767
OG0004768
OG0004769
OG0004770
OG0004771
OG0004772
OG0004773
OG0004774
OG0004775
OG0004776
OG0004777
OG0004778
OG0004779
OG0004780
OG0004781
OG0004782
OG0004783
OG0004784
OG0004785
OG0004786
OG0004787
OG0004788
OG0004789
OG0004790
OG0004791
OG0004792
OG0004794
OG0004795
OG0004796
OG0004797
OG0004798
OG0004799
OG0004800
OG0004801
OG0004802
OG0004803
OG0004804
OG0004805
OG0004806
OG0004807
OG0004808
OG0004809
OG0004810
OG0004811
OG0004812
OG0004813
OG0004814
OG0004815
OG0004816
OG0004817
OG0004818
OG0004819
OG0004820
OG0004821
OG0004822
OG0004823
OG0004824
OG0004825
OG0004826
OG0004827
OG0004828
OG0004829
OG0004830
OG0004831
OG0004832
OG0004833
OG0004834
OG0004836
OG0004837
OG0004838
OG0004839
OG0004841
OG0004842
OG0004843
OG0004844
OG0004845
OG0004846
OG0004847
OG0004848
OG0004849
OG0004850
OG0004851
OG0004852
OG0004853
OG0004854
OG0004855
OG0004856
OG0004857
OG0004858
OG0004859
OG0004860
OG0004861
OG0004862
OG0004863
OG0004864
OG0004865
OG0004866
OG0004867
OG0004868
OG0004869
OG0004870
OG0004871
OG0004872
OG0004873
OG0004874
OG0004875
OG0004876
OG0004877
OG0004878
OG0004879
OG0004880
OG0004881
OG0004882
OG0004883
OG0004884
OG0004885
OG0004886
OG0004887
OG0004889
OG0004890
OG0004891
OG0004892
OG0004893
OG0004894
OG0004895
OG0004896
OG0004897
OG0004898
OG0004899
OG0004900
OG0004902
OG0004903
OG0004904
OG0004905
OG0004906
OG0004907
OG0004908
OG0004909
OG0004910
OG0004911
OG0004912
OG0004913
OG0004914
OG0004915
OG0004916
OG0004917
OG0004918
OG0004919
OG0004920
OG0004921
OG0004922
OG0004923
OG0004924
OG0004925
OG0004926
OG0004927
OG0004928
OG0004929
OG0004930
OG0004931
OG0004932
OG0004933
OG0004934
OG0004935
OG0004936
OG0004937
OG0004938
OG0004939
OG0004940
OG0004941
OG0004942
OG0004943
OG0004944
OG0004945
OG0004946
OG0004947
OG0004948
OG0004949
OG0004950
OG0004951
OG0004952
OG0004953
OG0004954
OG0004955
OG0004956
OG0004957
OG0004958
OG0004959
OG0004960
OG0004961
OG0004962
OG0004963
OG0004964
OG0004965
OG0004966
OG0004967
OG0004968
OG0004969
OG0004970
OG0004971
OG0004972
OG0004973
OG0004974
OG0004975
OG0004976
OG0004977
OG0004978
OG0004979
OG0004980
OG0004981
OG0004982
OG0004983
OG0004984
OG0004985
OG0004986
OG0004987
OG0004988
OG0004989
OG0004990
OG0004991
OG0004992
OG0004993
OG0004994
OG0004995
OG0004996
OG0004997
OG0004998
OG0004999
OG0005000
OG0005001
OG0005002
OG0005003
OG0005004
OG0005005
OG0005006
OG0005007
OG0005008
OG0005009
OG0005010
OG0005011
OG0005012
OG0005013
OG0005014
OG0005015
OG0005016
OG0005017
OG0005018
OG0005019
OG0005020
OG0005021
OG0005022
OG0005023
OG0005024
OG0005025
OG0005026
OG0005027
OG0005028
OG0005029
OG0005030
OG0005031
OG0005032
OG0005033
OG0005034
OG0005035
OG0005036
OG0005037
OG0005038
OG0005039
OG0005040
OG0005041
OG0005042
OG0005043
OG0005044
OG0005045
OG0005046
OG0005047
OG0005048
OG0005049
OG0005050
OG0005052
OG0005053
OG0005054
OG0005055
OG0005056
OG0005057
OG0005058
OG0005059
OG0005060
OG0005061
OG0005062
OG0005063
OG0005064
OG0005065
OG0005066
OG0005067
OG0005068
OG0005069
OG0005070
OG0005071
OG0005072
OG0005073
OG0005074
OG0005075
OG0005076
OG0005077
OG0005078
OG0005079
OG0005080
OG0005081
OG0005082
OG0005083
OG0005084
OG0005085
OG0005086
OG0005087
OG0005088
OG0005089
OG0005090
OG0005091
OG0005092
OG0005093
OG0005094
OG0005095
OG0005096
OG0005097
OG0005098
OG0005099
OG0005100
OG0005101
OG0005102
OG0005103
OG0005104
OG0005105
OG0005106
OG0005107
OG0005108
OG0005109
OG0005110
OG0005111
OG0005112
OG0005113
OG0005114
OG0005115
OG0005116
OG0005117
OG0005118
OG0005119
OG0005120
OG0005121
OG0005122
OG0005123
OG0005124
OG0005125
OG0005126
OG0005127
OG0005128
OG0005129
OG0005130
OG0005131
OG0005133
OG0005134
OG0005135
OG0005136
OG0005137
OG0005138
OG0005139
OG0005140
OG0005141
OG0005142
OG0005143
OG0005144
OG0005145
OG0005146
OG0005147
OG0005148
OG0005150
OG0005151
OG0005152
OG0005153
OG0005154
OG0005155
OG0005156
OG0005157
OG0005158
OG0005159
OG0005160
OG0005161
OG0005162
OG0005163
OG0005164
OG0005165
OG0005166
OG0005167
OG0005168
OG0005169
OG0005170
OG0005171
OG0005172
OG0005173
OG0005174
OG0005175
OG0005176
OG0005177
OG0005178
OG0005179
OG0005180
OG0005181
OG0005182
OG0005183
OG0005184
OG0005185
OG0005186
OG0005187
OG0005188
OG0005189
OG0005190
OG0005191
OG0005192
OG0005193
OG0005194
OG0005195
OG0005196
OG0005197
OG0005198
OG0005199
OG0005200
OG0005201
OG0005202
OG0005203
OG0005204
OG0005205
OG0005206
OG0005207
OG0005208
OG0005209
OG0005210
OG0005211
OG0005212
OG0005213
OG0005214
OG0005215
OG0005216
OG0005217
OG0005218
OG0005219
OG0005220
OG0005221
OG0005222
OG0005223
OG0005224
OG0005225
OG0005226
OG0005227
OG0005228
OG0005229
OG0005230
OG0005231
OG0005232
OG0005233
OG0005234
OG0005235
OG0005236
OG0005238
OG0005239
OG0005240
OG0005241
OG0005242
OG0005243
OG0005244
OG0005245
OG0005246
OG0005247
OG0005248
OG0005249
OG0005250
OG0005251
OG0005252
OG0005253
OG0005254
OG0005255
OG0005256
OG0005257
OG0005258
OG0005259
OG0005260
OG0005261
OG0005262
OG0005263
OG0005264
OG0005265
OG0005266
OG0005267
OG0005268
OG0005269
OG0005270
OG0005271
OG0005272
OG0005274
OG0005275
OG0005276
OG0005277
OG0005278
OG0005279
OG0005280
OG0005281
OG0005282
OG0005283
OG0005284
OG0005285
OG0005286
OG0005287
OG0005288
OG0005289
OG0005290
OG0005291
OG0005292
OG0005293
OG0005294
OG0005295
OG0005296
OG0005297
OG0005298
OG0005299
OG0005300
OG0005301
OG0005302
OG0005303
OG0005304
OG0005305
OG0005306
OG0005307
OG0005308
OG0005309
OG0005310
OG0005311
OG0005312
OG0005313
OG0005314
OG0005315
OG0005316
OG0005317
OG0005318
OG0005319
OG0005320
OG0005321
OG0005322
OG0005323
OG0005324
OG0005325
OG0005326
OG0005327
OG0005328
OG0005329
OG0005330
OG0005331
OG0005332
OG0005333
OG0005334
OG0005335
OG0005336
OG0005337
OG0005338
OG0005339
OG0005340
OG0005341
OG0005342
OG0005343
OG0005344
OG0005345
OG0005346
OG0005347
OG0005348
OG0005349
OG0005350
OG0005351
OG0005352
OG0005353
OG0005354
OG0005355
OG0005356
OG0005357
OG0005358
OG0005359
OG0005360
OG0005361
OG0005362
OG0005363
OG0005364
OG0005365
OG0005366
OG0005367
OG0005368
OG0005369
OG0005370
OG0005371
OG0005372
OG0005373
OG0005374
OG0005375
OG0005376
OG0005377
OG0005378
OG0005379
OG0005380
OG0005381
OG0005382
OG0005383
OG0005385
OG0005386
OG0005387
OG0005388
OG0005389
OG0005390
OG0005391
OG0005392
OG0005393
OG0005394
OG0005395
OG0005396
OG0005397
OG0005398
OG0005399
OG0005400
OG0005401
OG0005402
OG0005403
OG0005404
OG0005405
OG0005406
OG0005407
OG0005408
OG0005409
OG0005410
OG0005411
OG0005412
OG0005413
OG0005414
OG0005415
OG0005416
OG0005417
OG0005418
OG0005419
OG0005420
OG0005421
OG0005422
OG0005423
OG0005424
OG0005425
OG0005426
OG0005427
OG0005428
OG0005429
OG0005430
OG0005431
OG0005432
OG0005433
OG0005434
OG0005435
OG0005436
OG0005437
OG0005438
OG0005439
OG0005440
OG0005441
OG0005442
OG0005443
OG0005444
OG0005445
OG0005446
OG0005447
OG0005448
OG0005449
OG0005450
OG0005451
OG0005452
OG0005453
OG0005454
OG0005455
OG0005456
OG0005457
OG0005458
OG0005459
OG0005460
OG0005461
OG0005462
OG0005463
OG0005464
OG0005465
OG0005466
OG0005467
OG0005468
OG0005469
OG0005470
OG0005471
OG0005472
OG0005473
OG0005474
OG0005475
OG0005476
OG0005477
OG0005478
OG0005479
OG0005480
OG0005481
OG0005482
OG0005483
OG0005484
OG0005485
OG0005486
OG0005487
OG0005488
OG0005489
OG0005490
OG0005491
OG0005492
OG0005493
OG0005494
OG0005495
OG0005496
OG0005497
OG0005498
OG0005499
OG0005500
OG0005501
OG0005502
OG0005503
OG0005504
OG0005505
OG0005506
OG0005507
OG0005508
OG0005509
OG0005510
OG0005511
OG0005512
OG0005513
OG0005514
OG0005515
OG0005516
OG0005517
OG0005518
OG0005519
OG0005520
OG0005521
OG0005522
OG0005523
OG0005524
OG0005525
OG0005526
OG0005527
OG0005528
OG0005529
OG0005530
OG0005531
OG0005532
OG0005533
OG0005534
OG0005535
OG0005536
OG0005537
OG0005538
OG0005539
OG0005540
OG0005541
OG0005542
OG0005543
OG0005544
OG0005545
OG0005546
OG0005547
OG0005548
OG0005549
OG0005550
OG0005551
OG0005552
OG0005553
OG0005554
OG0005555
OG0005556
OG0005557
OG0005558
OG0005559
OG0005560
OG0005561
OG0005562
OG0005563
OG0005564
OG0005565
OG0005566
OG0005567
OG0005568
OG0005569
OG0005570
OG0005571
OG0005572
OG0005573
OG0005574
OG0005575
OG0005577
OG0005578
OG0005579
OG0005580
OG0005581
OG0005582
OG0005583
OG0005584
OG0005585
OG0005586
OG0005587
OG0005588
OG0005589
OG0005590
OG0005591
OG0005592
OG0005593
OG0005594
OG0005595
OG0005596
OG0005597
OG0005598
OG0005599
OG0005600
OG0005601
OG0005602
OG0005603
OG0005604
OG0005605
OG0005606
OG0005607
OG0005608
OG0005609
OG0005610
OG0005611
OG0005612
OG0005613
OG0005614
OG0005615
OG0005616
OG0005617
OG0005618
OG0005619
OG0005620
OG0005621
OG0005622
OG0005623
OG0005624
OG0005625
OG0005626
OG0005627
OG0005628
OG0005629
OG0005630
OG0005631
OG0005632
OG0005633
OG0005634
OG0005635
OG0005636
OG0005637
OG0005638
OG0005639
OG0005640
OG0005641
OG0005642
OG0005643
OG0005644
OG0005645
OG0005646
OG0005647
OG0005648
OG0005649
OG0005650
OG0005651
OG0005652
OG0005653
OG0005654
OG0005655
OG0005656
OG0005657
OG0005658
OG0005659
OG0005660
OG0005661
OG0005662
OG0005663
OG0005664
OG0005665
OG0005666
OG0005667
OG0005668
OG0005669
OG0005670
OG0005671
OG0005672
OG0005674
OG0005675
OG0005676
OG0005677
OG0005678
OG0005679
OG0005680
OG0005681
OG0005682
OG0005683
OG0005684
OG0005685
OG0005686
OG0005687
OG0005688
OG0005689
OG0005690
OG0005691
OG0005692
OG0005693
OG0005694
OG0005695
OG0005696
OG0005697
OG0005698
OG0005699
OG0005700
OG0005701
OG0005702
OG0005703
OG0005704
OG0005705
OG0005706
OG0005707
OG0005708
OG0005709
OG0005710
OG0005711
OG0005712
OG0005713
OG0005714
OG0005715
OG0005716
OG0005717
OG0005718
OG0005719
OG0005720
OG0005721
OG0005722
OG0005723
OG0005724
OG0005725
OG0005726
OG0005727
OG0005728
OG0005729
OG0005730
OG0005731
OG0005732
OG0005733
OG0005735
OG0005736
OG0005737
OG0005738
OG0005739
OG0005740
OG0005741
OG0005742
OG0005743
OG0005744
OG0005745
OG0005746
OG0005747
OG0005748
OG0005749
OG0005750
OG0005751
OG0005752
OG0005753
OG0005754
OG0005755
OG0005756
OG0005757
OG0005758
OG0005759
OG0005760
OG0005761
OG0005762
OG0005763
OG0005764
OG0005765
OG0005766
OG0005767
OG0005768
OG0005769
OG0005770
OG0005771
OG0005773
OG0005774
OG0005775
OG0005776
OG0005777
OG0005778
OG0005779
OG0005780
OG0005781
OG0005782
OG0005783
OG0005784
OG0005785
OG0005786
OG0005787
OG0005788
OG0005789
OG0005790
OG0005791
OG0005792
OG0005793
OG0005794
OG0005795
OG0005796
OG0005797
OG0005798
OG0005800
OG0005801
OG0005802
OG0005803
OG0005804
OG0005805
OG0005806
OG0005807
OG0005808
OG0005809
OG0005810
OG0005811
OG0005812
OG0005813
OG0005814
OG0005815
OG0005816
OG0005817
OG0005818
OG0005819
OG0005820
OG0005821
OG0005822
OG0005823
OG0005824
OG0005825
OG0005826
OG0005827
OG0005828
OG0005829
OG0005830
OG0005831
OG0005832
OG0005833
OG0005834
OG0005835
OG0005836
OG0005837
OG0005838
OG0005839
OG0005840
OG0005841
OG0005842
OG0005843
OG0005844
OG0005845
OG0005846
OG0005847
OG0005848
OG0005849
OG0005850
OG0005851
OG0005852
OG0005853
OG0005854
OG0005855
OG0005856
OG0005857
OG0005858
OG0005859
OG0005860
OG0005861
OG0005862
OG0005863
OG0005864
OG0005865
OG0005866
OG0005867
OG0005868
OG0005869
OG0005870
OG0005871
OG0005872
OG0005873
OG0005874
OG0005875
OG0005876
OG0005877
OG0005878
OG0005879
OG0005880
OG0005881
OG0005882
OG0005883
OG0005884
OG0005885
OG0005886
OG0005887
OG0005888
OG0005889
OG0005890
OG0005891
OG0005892
OG0005893
OG0005894
OG0005895
OG0005896
OG0005897
OG0005898
OG0005899
OG0005900
OG0005901
OG0005902
OG0005903
OG0005904
OG0005905
OG0005906
OG0005907
OG0005908
OG0005909
OG0005910
OG0005911
OG0005912
OG0005913
OG0005914
OG0005915
OG0005916
OG0005917
OG0005918
OG0005919
OG0005920
OG0005921
OG0005922
OG0005923
OG0005924
OG0005925
OG0005926
OG0005927
OG0005928
OG0005929
OG0005930
OG0005931
OG0005932
OG0005933
OG0005934
OG0005935
OG0005936
OG0005937
OG0005938
OG0005939
OG0005940
OG0005941
OG0005942
OG0005943
OG0005944
OG0005945
OG0005946
OG0005947
OG0005948
OG0005949
OG0005950
OG0005951
OG0005952
OG0005953
OG0005954
OG0005955
OG0005956
OG0005957
OG0005958
OG0005959
OG0005960
OG0005961
OG0005962
OG0005963
OG0005964
OG0005965
OG0005967
OG0005968
OG0005969
OG0005970
OG0005971
OG0005972
OG0005973
OG0005974
OG0005975
OG0005976
OG0005977
OG0005978
OG0005979
OG0005980
OG0005981
OG0005982
OG0005983
OG0005984
OG0005985
OG0005986
OG0005987
OG0005988
OG0005989
OG0005990
OG0005991
OG0005992
OG0005993
OG0005994
OG0005995
OG0005996
OG0005997
OG0005998
OG0005999
OG0006000
OG0006001
OG0006002
OG0006003
OG0006004
OG0006005
OG0006006
OG0006007
OG0006008
OG0006009
OG0006010
OG0006011
OG0006012
OG0006013
OG0006014
OG0006015
OG0006016
OG0006017
OG0006018
OG0006019
OG0006020
OG0006022
OG0006023
OG0006024
OG0006025
OG0006026
OG0006027
OG0006028
OG0006029
OG0006030
OG0006031
OG0006032
OG0006033
OG0006034
OG0006035
OG0006036
OG0006037
OG0006038
OG0006039
OG0006040
OG0006041
OG0006042
OG0006043
OG0006044
OG0006045
OG0006046
OG0006047
OG0006048
OG0006049
OG0006050
OG0006051
OG0006052
OG0006053
OG0006054
OG0006055
OG0006056
OG0006057
OG0006058
OG0006059
OG0006060
OG0006061
OG0006062
OG0006063
OG0006064
OG0006065
OG0006066
OG0006067
OG0006068
OG0006069
OG0006070
OG0006071
OG0006072
OG0006073
OG0006074
OG0006075
OG0006076
OG0006077
OG0006078
OG0006079
OG0006080
OG0006081
OG0006082
OG0006083
OG0006084
OG0006085
OG0006086
OG0006087
OG0006088
OG0006089
OG0006090
OG0006091
OG0006092
OG0006093
OG0006094
OG0006095
OG0006096
OG0006097
OG0006098
OG0006099
OG0006100
OG0006101
OG0006102
OG0006103
OG0006104
OG0006105
OG0006106
OG0006107
OG0006108
OG0006109
OG0006110
OG0006111
OG0006112
OG0006113
OG0006114
OG0006115
OG0006116
OG0006117
OG0006118
OG0006119
OG0006120
OG0006121
OG0006122
OG0006123
OG0006124
OG0006125
OG0006126
OG0006127
OG0006128
OG0006129
OG0006130
OG0006131
OG0006132
OG0006133
OG0006134
OG0006135
OG0006136
OG0006137
OG0006138
OG0006139
OG0006140
OG0006141
OG0006142
OG0006143
OG0006144
OG0006145
OG0006146
OG0006147
OG0006148
OG0006149
OG0006150
OG0006151
OG0006152
OG0006153
OG0006154
OG0006155
OG0006157
OG0006158
OG0006159
OG0006160
OG0006161
OG0006162
OG0006163
OG0006164
OG0006165
OG0006166
OG0006168
OG0006169
OG0006170
OG0006171
OG0006172
OG0006173
OG0006174
OG0006175
OG0006176
OG0006177
OG0006178
OG0006179
OG0006180
OG0006181
OG0006182
OG0006183
OG0006184
OG0006185
OG0006186
OG0006187
OG0006188
OG0006189
OG0006190
OG0006191
OG0006192
OG0006193
OG0006194
OG0006195
OG0006196
OG0006197
OG0006198
OG0006199
OG0006200
OG0006201
OG0006202
OG0006203
OG0006204
OG0006205
OG0006206
OG0006207
OG0006208
OG0006209
OG0006210
OG0006211
OG0006212
OG0006213
OG0006214
OG0006215
OG0006216
OG0006217
OG0006218
OG0006219
OG0006220
OG0006221
OG0006222
OG0006223
OG0006224
OG0006225
OG0006226
OG0006227
OG0006228
OG0006229
OG0006230
OG0006231
OG0006232
OG0006233
OG0006234
OG0006235
OG0006236
OG0006237
OG0006238
OG0006239
OG0006240
OG0006241
OG0006242
OG0006243
OG0006244
OG0006245
OG0006246
OG0006247
OG0006248
OG0006249
OG0006250
OG0006251
OG0006252
OG0006253
OG0006254
OG0006255
OG0006256
OG0006257
OG0006258
OG0006259
OG0006260
OG0006261
OG0006262
OG0006263
OG0006264
OG0006265
OG0006266
OG0006267
OG0006268
OG0006269
OG0006270
OG0006271
OG0006272
OG0006273
OG0006274
OG0006275
OG0006276
OG0006277
OG0006278
OG0006279
OG0006280
OG0006281
OG0006282
OG0006283
OG0006284
OG0006285
OG0006286
OG0006287
OG0006288
OG0006289
OG0006290
OG0006291
OG0006292
OG0006293
OG0006294
OG0006295
OG0006296
OG0006297
OG0006298
OG0006299
OG0006300
OG0006302
OG0006303
OG0006304
OG0006305
OG0006306
OG0006307
OG0006308
OG0006309
OG0006310
OG0006311
OG0006312
OG0006313
OG0006314
OG0006315
OG0006316
OG0006317
OG0006318
OG0006319
OG0006320
OG0006321
OG0006322
OG0006323
OG0006324
OG0006325
OG0006326
OG0006327
OG0006328
OG0006329
OG0006330
OG0006331
OG0006332
OG0006333
OG0006334
OG0006335
OG0006337
OG0006338
OG0006339
OG0006340
OG0006341
OG0006342
OG0006343
OG0006344
OG0006345
OG0006346
OG0006347
OG0006348
OG0006349
OG0006350
OG0006351
OG0006352
OG0006353
OG0006354
OG0006355
OG0006356
OG0006357
OG0006358
OG0006359
OG0006360
OG0006361
OG0006362
OG0006363
OG0006364
OG0006365
OG0006366
OG0006367
OG0006368
OG0006369
OG0006370
OG0006371
OG0006372
OG0006373
OG0006374
OG0006375
OG0006376
OG0006377
OG0006378
OG0006379
OG0006380
OG0006381
OG0006382
OG0006383
OG0006384
OG0006385
OG0006386
OG0006387
OG0006388
OG0006389
OG0006390
OG0006391
OG0006392
OG0006393
OG0006394
OG0006395
OG0006396
OG0006397
OG0006398
OG0006399
OG0006400
OG0006401
OG0006402
OG0006403
OG0006404
OG0006405
OG0006406
OG0006407
OG0006408
OG0006409
OG0006410
OG0006411
OG0006412
OG0006413
OG0006414
OG0006415
OG0006416
OG0006417
OG0006418
OG0006419
OG0006420
OG0006421
OG0006422
OG0006423
OG0006424
OG0006425
OG0006426
OG0006427
OG0006428
OG0006429
OG0006430
OG0006431
OG0006432
OG0006433
OG0006434
OG0006435
OG0006436
OG0006437
OG0006438
OG0006439
OG0006440
OG0006441
OG0006442
OG0006443
OG0006444
OG0006446
OG0006447
OG0006448
OG0006449
OG0006450
OG0006451
OG0006452
OG0006453
OG0006454
OG0006455
OG0006456
OG0006457
OG0006458
OG0006459
OG0006460
OG0006461
OG0006462
OG0006463
OG0006464
OG0006465
OG0006466
OG0006467
OG0006468
OG0006469
OG0006470
OG0006471
OG0006472
OG0006473
OG0006474
OG0006475
OG0006476
OG0006477
OG0006478
OG0006479
OG0006480
OG0006481
OG0006482
OG0006483
OG0006484
OG0006485
OG0006486
OG0006487
OG0006488
OG0006489
OG0006490
OG0006491
OG0006492
OG0006493
OG0006494
OG0006495
OG0006496
OG0006497
OG0006498
OG0006499
OG0006500
OG0006501
OG0006502
OG0006503
OG0006504
OG0006505
OG0006506
OG0006507
OG0006508
OG0006509
OG0006510
OG0006511
OG0006512
OG0006513
OG0006514
OG0006515
OG0006516
OG0006517
OG0006518
OG0006519
OG0006520
OG0006521
OG0006522
OG0006523
OG0006524
OG0006525
OG0006526
OG0006527
OG0006528
OG0006529
OG0006530
OG0006531
OG0006532
OG0006533
OG0006534
OG0006535
OG0006536
OG0006537
OG0006538
OG0006539
OG0006540
OG0006541
OG0006542
OG0006543
OG0006544
OG0006545
OG0006546
OG0006547
OG0006548
OG0006549
OG0006550
OG0006551
OG0006552
OG0006553
OG0006554
OG0006555
OG0006556
OG0006557
OG0006558
OG0006559
OG0006560
OG0006561
OG0006562
OG0006563
OG0006565
OG0006566
OG0006567
OG0006568
OG0006569
OG0006570
OG0006571
OG0006572
OG0006573
OG0006574
OG0006575
OG0006576
OG0006577
OG0006578
OG0006579
OG0006580
OG0006581
OG0006582
OG0006583
OG0006584
OG0006585
OG0006586
OG0006587
OG0006588
OG0006589
OG0006590
OG0006591
OG0006592
OG0006593
OG0006594
OG0006595
OG0006596
OG0006597
OG0006598
OG0006599
OG0006600
OG0006601
OG0006602
OG0006603
OG0006604
OG0006605
OG0006606
OG0006607
OG0006608
OG0006609
OG0006610
OG0006611
OG0006612
OG0006613
OG0006614
OG0006615
OG0006616
OG0006617
OG0006618
OG0006619
OG0006620
OG0006621
OG0006622
OG0006623
OG0006624
OG0006625
OG0006626
OG0006627
OG0006628
OG0006629
OG0006630
OG0006631
OG0006632
OG0006633
OG0006634
OG0006635
OG0006636
OG0006637
OG0006638
OG0006639
OG0006640
OG0006641
OG0006642
OG0006643
OG0006644
OG0006645
OG0006646
OG0006647
OG0006648
OG0006649
OG0006650
OG0006651
OG0006652
OG0006653
OG0006654
OG0006655
OG0006656
OG0006657
OG0006658
OG0006659
OG0006660
OG0006661
OG0006662
OG0006663
OG0006664
OG0006665
OG0006666
OG0006667
OG0006668
OG0006669
OG0006670
OG0006671
OG0006672
OG0006673
OG0006674
OG0006675
OG0006676
OG0006677
OG0006679
OG0006680
OG0006681
OG0006682
OG0006683
OG0006684
OG0006685
OG0006686
OG0006687
OG0006688
OG0006689
OG0006690
OG0006691
OG0006692
OG0006693
OG0006694
OG0006695
OG0006696
OG0006697
OG0006698
OG0006699
OG0006700
OG0006701
OG0006702
OG0006703
OG0006704
OG0006705
OG0006706
OG0006707
OG0006708
OG0006709
OG0006710
OG0006711
OG0006712
OG0006713
OG0006714
OG0006715
OG0006716
OG0006717
OG0006718
OG0006719
OG0006720
OG0006721
OG0006722
OG0006723
OG0006724
OG0006725
OG0006726
OG0006727
OG0006728
OG0006729
OG0006730
OG0006731
OG0006732
OG0006733
OG0006734
OG0006735
OG0006736
OG0006737
OG0006738
OG0006739
OG0006740
OG0006741
OG0006742
OG0006743
OG0006744
OG0006745
OG0006747
OG0006748
OG0006749
OG0006750
OG0006751
OG0006752
OG0006753
OG0006754
OG0006755
OG0006756
OG0006757
OG0006758
OG0006759
OG0006760
OG0006761
OG0006762
OG0006763
OG0006764
OG0006765
OG0006766
OG0006767
OG0006768
OG0006769
OG0006770
OG0006771
OG0006772
OG0006773
OG0006774
OG0006775
OG0006776
OG0006777
OG0006778
OG0006779
OG0006780
OG0006781
OG0006782
OG0006783
OG0006784
OG0006785
OG0006786
OG0006787
OG0006788
OG0006789
OG0006790
OG0006791
OG0006792
OG0006793
OG0006794
OG0006795
OG0006796
OG0006797
OG0006798
OG0006799
OG0006800
OG0006801
OG0006802
OG0006803
OG0006804
OG0006805
OG0006806
OG0006807
OG0006808
OG0006809
OG0006810
OG0006811
OG0006812
OG0006813
OG0006814
OG0006815
OG0006816
OG0006817
OG0006818
OG0006819
OG0006820
OG0006821
OG0006822
OG0006823
OG0006824
OG0006825
OG0006826
OG0006827
OG0006828
OG0006829
OG0006830
OG0006831
OG0006832
OG0006833
OG0006834
OG0006835
OG0006836
OG0006837
OG0006838
OG0006839
OG0006840
OG0006841
OG0006842
OG0006843
OG0006844
OG0006845
OG0006846
OG0006847
OG0006848
OG0006849
OG0006850
OG0006851
OG0006852
OG0006853
OG0006854
OG0006855
OG0006856
OG0006857
OG0006858
OG0006859
OG0006860
OG0006861
OG0006862
OG0006863
OG0006864
OG0006865
OG0006867
OG0006868
OG0006869
OG0006870
OG0006871
OG0006872
OG0006873
OG0006874
OG0006875
OG0006876
OG0006877
OG0006878
OG0006880
OG0006881
OG0006882
OG0006884
OG0006885
OG0006886
OG0006887
OG0006888
OG0006889
OG0006890
OG0006891
OG0006892
OG0006893
OG0006894
OG0006895
OG0006896
OG0006897
OG0006898
OG0006899
OG0006900
OG0006901
OG0006902
OG0006903
OG0006904
OG0006906
OG0006908
OG0006909
OG0006911
OG0006912
OG0006913
OG0006914
OG0006915
OG0006916
OG0006917
OG0006918
OG0006919
OG0006920
OG0006921
OG0006922
OG0006923
OG0006924
OG0006925
OG0006926
OG0006927
OG0006928
OG0006929
OG0006930
OG0006931
OG0006932
OG0006933
OG0006934
OG0006935
OG0006936
OG0006937
OG0006938
OG0006939
OG0006940
OG0006941
OG0006942
OG0006943
OG0006944
OG0006945
OG0006946
OG0006947
OG0006948
OG0006949
OG0006950
OG0006951
OG0006952
OG0006953
OG0006954
OG0006955
OG0006956
OG0006957
OG0006958
OG0006959
OG0006960
OG0006961
OG0006962
OG0006963
OG0006964
OG0006965
OG0006966
OG0006967
OG0006968
OG0006969
OG0006970
OG0006971
OG0006972
OG0006973
OG0006974
OG0006975
OG0006976
OG0006977
OG0006978
OG0006979
OG0006980
OG0006981
OG0006982
OG0006983
OG0006984
OG0006985
OG0006986
OG0006987
OG0006988
OG0006989
OG0006990
OG0006991
OG0006992
OG0006993
OG0006994
OG0006995
OG0006996
OG0006997
OG0006998
OG0006999
OG0007000
OG0007001
OG0007002
OG0007003
OG0007004
OG0007005
OG0007006
OG0007007
OG0007008
OG0007009
OG0007010
OG0007011
OG0007012
OG0007013
OG0007014
OG0007015
OG0007016
OG0007017
OG0007018
OG0007019
OG0007020
OG0007021
OG0007022
OG0007023
OG0007024
OG0007025
OG0007026
OG0007027
OG0007028
OG0007029
OG0007030
OG0007031
OG0007032
OG0007033
OG0007034
OG0007035
OG0007036
OG0007037
OG0007038
OG0007039
OG0007040
OG0007041
OG0007042
OG0007043
OG0007044
OG0007045
OG0007046
OG0007047
OG0007048
OG0007049
OG0007050
OG0007051
OG0007052
OG0007053
OG0007054
OG0007055
OG0007056
OG0007057
OG0007058
OG0007059
OG0007060
OG0007061
OG0007062
OG0007063
OG0007064
OG0007065
OG0007066
OG0007067
OG0007068
OG0007069
OG0007070
OG0007071
OG0007072
OG0007073
OG0007074
OG0007075
OG0007076
OG0007077
OG0007078
OG0007079
OG0007080
OG0007081
OG0007082
OG0007083
OG0007084
OG0007085
OG0007086
OG0007087
OG0007088
OG0007089
OG0007090
OG0007091
OG0007092
OG0007093
OG0007094
OG0007095
OG0007096
OG0007097
OG0007099
OG0007100
OG0007101
OG0007102
OG0007103
OG0007104
OG0007105
OG0007106
OG0007107
OG0007108
OG0007109
OG0007110
OG0007111
OG0007112
OG0007113
OG0007114
OG0007115
OG0007116
OG0007117
OG0007118
OG0007119
OG0007120
OG0007121
OG0007122
OG0007123
OG0007124
OG0007125
OG0007126
OG0007127
OG0007128
OG0007129
OG0007130
OG0007131
OG0007132
OG0007133
OG0007134
OG0007135
OG0007136
OG0007137
OG0007138
OG0007139
OG0007140
OG0007141
OG0007142
OG0007143
OG0007144
OG0007145
OG0007146
OG0007147
OG0007148
OG0007149
OG0007150
OG0007151
OG0007152
OG0007153
OG0007154
OG0007155
OG0007156
OG0007157
OG0007158
OG0007159
OG0007160
OG0007161
OG0007162
OG0007163
OG0007164
OG0007165
OG0007166
OG0007167
OG0007168
OG0007169
OG0007170
OG0007171
OG0007172
OG0007173
OG0007174
OG0007175
OG0007176
OG0007177
OG0007178
OG0007179
OG0007180
OG0007181
OG0007182
OG0007183
OG0007184
OG0007185
OG0007186
OG0007187
OG0007188
OG0007189
OG0007190
OG0007191
OG0007192
OG0007193
OG0007194
OG0007195
OG0007196
OG0007197
OG0007198
OG0007199
OG0007200
OG0007201
OG0007202
OG0007203
OG0007204
OG0007205
OG0007206
OG0007207
OG0007208
OG0007209
OG0007210
OG0007211
OG0007212
OG0007213
OG0007214
OG0007215
OG0007216
OG0007217
OG0007218
OG0007219
OG0007220
OG0007221
OG0007222
OG0007223
OG0007224
OG0007225
OG0007226
OG0007227
OG0007228
OG0007229
OG0007230
OG0007231
OG0007232
OG0007233
OG0007234
OG0007235
OG0007236
OG0007237
OG0007238
OG0007239
OG0007240
OG0007241
OG0007242
OG0007243
OG0007244
OG0007245
OG0007246
OG0007247
OG0007248
OG0007249
OG0007250
OG0007251
OG0007252
OG0007253
OG0007254
OG0007255
OG0007256
OG0007257
OG0007259
OG0007260
OG0007261
OG0007262
OG0007263
OG0007264
OG0007265
OG0007266
OG0007267
OG0007268
OG0007269
OG0007270
OG0007271
OG0007272
OG0007273
OG0007274
OG0007275
OG0007276
OG0007277
OG0007278
OG0007279
OG0007280
OG0007281
OG0007282
OG0007283
OG0007284
OG0007285
OG0007286
OG0007287
OG0007288
OG0007289
OG0007290
OG0007291
OG0007292
OG0007293
OG0007294
OG0007295
OG0007296
OG0007297
OG0007299
OG0007300
OG0007301
OG0007302
OG0007303
OG0007304
OG0007305
OG0007306
OG0007307
OG0007308
OG0007309
OG0007310
OG0007311
OG0007312
OG0007313
OG0007314
OG0007315
OG0007316
OG0007317
OG0007318
OG0007319
OG0007320
OG0007321
OG0007322
OG0007323
OG0007324
OG0007325
OG0007326
OG0007327
OG0007328
OG0007329
OG0007330
OG0007331
OG0007332
OG0007333
OG0007334
OG0007335
OG0007336
OG0007337
OG0007338
OG0007339
OG0007340
OG0007341
OG0007342
OG0007343
OG0007344
OG0007345
OG0007346
OG0007347
OG0007348
OG0007349
OG0007350
OG0007351
OG0007352
OG0007353
OG0007354
OG0007355
OG0007356
OG0007357
OG0007358
OG0007359
OG0007360
OG0007361
OG0007362
OG0007363
OG0007364
OG0007365
OG0007366
OG0007367
OG0007368
OG0007369
OG0007370
OG0007371
OG0007372
OG0007373
OG0007374
OG0007375
OG0007376
OG0007377
OG0007378
OG0007379
OG0007380
OG0007381
OG0007382
OG0007383
OG0007384
OG0007385
OG0007386
OG0007387
OG0007388
OG0007389
OG0007390
OG0007391
OG0007392
OG0007393
OG0007394
OG0007395
OG0007396
OG0007397
OG0007399
OG0007400
OG0007401
OG0007402
OG0007403
OG0007404
OG0007405
OG0007406
OG0007407
OG0007408
OG0007409
OG0007410
OG0007411
OG0007412
OG0007413
OG0007414
OG0007415
OG0007416
OG0007417
OG0007418
OG0007419
OG0007420
OG0007421
OG0007422
OG0007423
OG0007424
OG0007425
OG0007426
OG0007427
OG0007428
OG0007429
OG0007430
OG0007431
OG0007432
OG0007433
OG0007434
OG0007435
OG0007436
OG0007437
OG0007438
OG0007440
OG0007441
OG0007442
OG0007443
OG0007444
OG0007445
OG0007446
OG0007447
OG0007448
OG0007449
OG0007450
OG0007451
OG0007452
OG0007453
OG0007454
OG0007455
OG0007456
OG0007457
OG0007458
OG0007459
OG0007460
OG0007461
OG0007462
OG0007464
OG0007465
OG0007466
OG0007467
OG0007468
OG0007469
OG0007470
OG0007471
OG0007472
OG0007473
OG0007474
OG0007475
OG0007476
OG0007477
OG0007478
OG0007479
OG0007480
OG0007481
OG0007482
OG0007483
OG0007484
OG0007485
OG0007486
OG0007487
OG0007488
OG0007489
OG0007490
OG0007491
OG0007492
OG0007493
OG0007494
OG0007495
OG0007496
OG0007497
OG0007498
OG0007499
OG0007500
OG0007501
OG0007502
OG0007503
OG0007504
OG0007505
OG0007506
OG0007507
OG0007508
OG0007509
OG0007510
OG0007511
OG0007512
OG0007513
OG0007514
OG0007515
OG0007516
OG0007517
OG0007518
OG0007519
OG0007520
OG0007521
OG0007522
OG0007523
OG0007524
OG0007525
OG0007526
OG0007527
OG0007528
OG0007529
OG0007530
OG0007531
OG0007532
OG0007533
OG0007534
OG0007535
OG0007537
OG0007538
OG0007539
OG0007540
OG0007541
OG0007542
OG0007543
OG0007544
OG0007545
OG0007546
OG0007547
OG0007548
OG0007549
OG0007550
OG0007551
OG0007552
OG0007553
OG0007554
OG0007555
OG0007556
OG0007557
OG0007558
OG0007559
OG0007560
OG0007561
OG0007562
OG0007563
OG0007564
OG0007565
OG0007566
OG0007567
OG0007568
OG0007569
OG0007570
OG0007571
OG0007572
OG0007573
OG0007574
OG0007575
OG0007576
OG0007577
OG0007578
OG0007579
OG0007580
OG0007581
OG0007582
OG0007583
OG0007584
OG0007585
OG0007586
OG0007587
OG0007588
OG0007589
OG0007590
OG0007591
OG0007592
OG0007593
OG0007594
OG0007595
OG0007596
OG0007597
OG0007598
OG0007599
OG0007600
OG0007601
OG0007602
OG0007603
OG0007604
OG0007605
OG0007606
OG0007607
OG0007608
OG0007609
OG0007610
OG0007611
OG0007612
OG0007613
OG0007614
OG0007615
OG0007616
OG0007617
OG0007618
OG0007619
OG0007620
OG0007621
OG0007622
OG0007623
OG0007624
OG0007625
OG0007626
OG0007627
OG0007628
OG0007629
OG0007630
OG0007631
OG0007632
OG0007633
OG0007634
OG0007635
OG0007636
OG0007637
OG0007638
OG0007639
OG0007640
OG0007641
OG0007642
OG0007643
OG0007644
OG0007645
OG0007646
OG0007647
OG0007648
OG0007649
OG0007650
OG0007651
OG0007652
OG0007653
OG0007654
OG0007655
OG0007656
OG0007657
OG0007658
OG0007659
OG0007660
OG0007661
OG0007662
OG0007663
OG0007664
OG0007665
OG0007666
OG0007667
OG0007668
OG0007669
OG0007670
OG0007671
OG0007672
OG0007673
OG0007674
OG0007675
OG0007676
OG0007677
OG0007678
OG0007679
OG0007680
OG0007681
OG0007682
OG0007683
OG0007684
OG0007685
OG0007686
OG0007687
OG0007688
OG0007689
OG0007690
OG0007691
OG0007692
OG0007693
OG0007694
OG0007695
OG0007696
OG0007697
OG0007698
OG0007699
OG0007700
OG0007701
OG0007702
OG0007703
OG0007704
OG0007705
OG0007706
OG0007707
OG0007708
OG0007709
OG0007710
OG0007711
OG0007712
OG0007713
OG0007714
OG0007715
OG0007716
OG0007717
OG0007718
OG0007719
OG0007720
OG0007721
OG0007722
OG0007723
OG0007724
OG0007725
OG0007726
OG0007727
OG0007728
OG0007729
OG0007730
OG0007731
OG0007732
OG0007733
OG0007734
OG0007735
OG0007736
OG0007737
OG0007738
OG0007739
OG0007740
OG0007741
OG0007742
OG0007743
OG0007744
OG0007745
OG0007746
OG0007747
OG0007748
OG0007749
OG0007750
OG0007751
OG0007752
OG0007753
OG0007754
OG0007756
OG0007757
OG0007758
OG0007759
OG0007760
OG0007761
OG0007762
OG0007763
OG0007764
OG0007765
OG0007766
OG0007767
OG0007768
OG0007769
OG0007770
OG0007771
OG0007772
OG0007773
OG0007774
OG0007775
OG0007776
OG0007777
OG0007778
OG0007779
OG0007780
OG0007781
OG0007782
OG0007783
OG0007784
OG0007785
OG0007786
OG0007787
OG0007788
OG0007789
OG0007790
OG0007791
OG0007792
OG0007793
OG0007794
OG0007795
OG0007796
OG0007797
OG0007798
OG0007799
OG0007800
OG0007801
OG0007802
OG0007803
OG0007804
OG0007805
OG0007806
OG0007807
OG0007808
OG0007809
OG0007810
OG0007811
OG0007812
OG0007813
OG0007814
OG0007815
OG0007816
OG0007817
OG0007818
OG0007819
OG0007820
OG0007821
OG0007822
OG0007823
OG0007824
OG0007825
OG0007826
OG0007827
OG0007828
OG0007829
OG0007830
OG0007831
OG0007832
OG0007833
OG0007834
OG0007835
OG0007836
OG0007837
OG0007838
OG0007839
OG0007840
OG0007841
OG0007842
OG0007843
OG0007844
OG0007845
OG0007846
OG0007847
OG0007848
OG0007849
OG0007850
OG0007851
OG0007852
OG0007853
OG0007854
OG0007855
OG0007856
OG0007857
OG0007858
OG0007859
OG0007860
OG0007861
OG0007862
OG0007863
OG0007864
OG0007865
OG0007866
OG0007868
OG0007869
OG0007870
OG0007871
OG0007872
OG0007873
OG0007874
OG0007875
OG0007876
OG0007878
OG0007879
OG0007880
OG0007881
OG0007882
OG0007883
OG0007884
OG0007885
OG0007886
OG0007887
OG0007888
OG0007889
OG0007890
OG0007891
OG0007892
OG0007893
OG0007894
OG0007895
OG0007896
OG0007897
OG0007898
OG0007899
OG0007900
OG0007901
OG0007902
OG0007903
OG0007904
OG0007905
OG0007906
OG0007907
OG0007908
OG0007909
OG0007910
OG0007911
OG0007912
OG0007913
OG0007914
OG0007915
OG0007916
OG0007917
OG0007918
OG0007919
OG0007920
OG0007921
OG0007922
OG0007923
OG0007924
OG0007925
OG0007926
OG0007927
OG0007928
OG0007929
OG0007930
OG0007931
OG0007932
OG0007933
OG0007934
OG0007935
OG0007936
OG0007937
OG0007938
OG0007939
OG0007940
OG0007941
OG0007942
OG0007943
OG0007944
OG0007945
OG0007946
OG0007947
OG0007948
OG0007949
OG0007950
OG0007951
OG0007952
OG0007953
OG0007954
OG0007955
OG0007956
OG0007957
OG0007958
OG0007959
OG0007960
OG0007961
OG0007962
OG0007963
OG0007964
OG0007965
OG0007966
OG0007967
OG0007968
OG0007969
OG0007970
OG0007971
OG0007972
OG0007973
OG0007974
OG0007975
OG0007976
OG0007977
OG0007978
OG0007979
OG0007980
OG0007981
OG0007982
OG0007983
OG0007984
OG0007985
OG0007986
OG0007987
OG0007988
OG0007989
OG0007990
OG0007991
OG0007992
OG0007993
OG0007994
OG0007995
OG0007996
OG0007997
OG0007998
OG0007999
OG0008000
OG0008001
OG0008002
OG0008003
OG0008004
OG0008005
OG0008006
OG0008007
OG0008008
OG0008009
OG0008010
OG0008011
OG0008012
OG0008013
OG0008014
OG0008015
OG0008016
OG0008017
OG0008018
OG0008019
OG0008020
OG0008021
OG0008022
OG0008023
OG0008024
OG0008025
OG0008026
OG0008027
OG0008028
OG0008029
OG0008030
OG0008031
OG0008032
OG0008033
OG0008034
OG0008035
OG0008036
OG0008037
OG0008038
OG0008039
OG0008040
OG0008041
OG0008042
OG0008043
OG0008044
OG0008045
OG0008046
OG0008047
OG0008048
OG0008049
OG0008050
OG0008051
OG0008052
OG0008053
OG0008054
OG0008055
OG0008056
OG0008057
OG0008058
OG0008059
OG0008060
OG0008061
OG0008062
OG0008063
OG0008064
OG0008065
OG0008066
OG0008067
OG0008068
OG0008069
OG0008070
OG0008071
OG0008072
OG0008073
OG0008074
OG0008075
OG0008076
OG0008077
OG0008078
OG0008079
OG0008080
OG0008081
OG0008082
OG0008083
OG0008084
OG0008085
OG0008086
OG0008087
OG0008088
OG0008089
OG0008090
OG0008091
OG0008092
OG0008093
OG0008094
OG0008096
OG0008097
OG0008098
OG0008100
OG0008101
OG0008102
OG0008103
OG0008104
OG0008105
OG0008106
OG0008107
OG0008108
OG0008109
OG0008110
OG0008111
OG0008112
OG0008113
OG0008114
OG0008115
OG0008116
OG0008117
OG0008118
OG0008119
OG0008120
OG0008121
OG0008122
OG0008123
OG0008124
OG0008125
OG0008126
OG0008127
OG0008128
OG0008129
OG0008130
OG0008131
OG0008132
OG0008133
OG0008134
OG0008135
OG0008136
OG0008137
OG0008138
OG0008139
OG0008140
OG0008141
OG0008142
OG0008143
OG0008144
OG0008145
OG0008146
OG0008147
OG0008148
OG0008149
OG0008150
OG0008151
OG0008152
OG0008153
OG0008154
OG0008155
OG0008156
OG0008157
OG0008158
OG0008159
OG0008160
OG0008161
OG0008162
OG0008163
OG0008164
OG0008165
OG0008166
OG0008167
OG0008168
OG0008169
OG0008170
OG0008171
OG0008172
OG0008173
OG0008174
OG0008175
OG0008176
OG0008177
OG0008178
OG0008179
OG0008180
OG0008181
OG0008182
OG0008183
OG0008184
OG0008185
OG0008186
OG0008187
OG0008188
OG0008189
OG0008190
OG0008191
OG0008193
OG0008194
OG0008195
OG0008196
OG0008197
OG0008198
OG0008199
OG0008200
OG0008201
OG0008202
OG0008203
OG0008204
OG0008205
OG0008206
OG0008207
OG0008208
OG0008209
OG0008210
OG0008211
OG0008212
OG0008213
OG0008214
OG0008215
OG0008216
OG0008217
OG0008218
OG0008219
OG0008220
OG0008221
OG0008222
OG0008223
OG0008224
OG0008225
OG0008226
OG0008227
OG0008228
OG0008229
OG0008230
OG0008231
OG0008232
OG0008233
OG0008234
OG0008235
OG0008237
OG0008238
OG0008239
OG0008240
OG0008241
OG0008242
OG0008243
OG0008244
OG0008245
OG0008246
OG0008247
OG0008248
OG0008249
OG0008250
OG0008251
OG0008252
OG0008253
OG0008254
OG0008255
OG0008256
OG0008257
OG0008258
OG0008259
OG0008260
OG0008261
OG0008262
OG0008263
OG0008264
OG0008265
OG0008266
OG0008267
OG0008268
OG0008269
OG0008270
OG0008271
OG0008272
OG0008273
OG0008274
OG0008275
OG0008276
OG0008277
OG0008278
OG0008279
OG0008280
OG0008281
OG0008282
OG0008283
OG0008284
OG0008285
OG0008286
OG0008287
OG0008288
OG0008289
OG0008290
OG0008291
OG0008292
OG0008293
OG0008294
OG0008295
OG0008296
OG0008297
OG0008298
OG0008299
OG0008300
OG0008301
OG0008302
OG0008303
OG0008304
OG0008305
OG0008306
OG0008307
OG0008308
OG0008309
OG0008310
OG0008311
OG0008312
OG0008313
OG0008314
OG0008315
OG0008316
OG0008317
OG0008318
OG0008319
OG0008320
OG0008321
OG0008322
OG0008323
OG0008324
OG0008325
OG0008326
OG0008327
OG0008328
OG0008329
OG0008330
OG0008331
OG0008332
OG0008333
OG0008334
OG0008335
OG0008336
OG0008337
OG0008338
OG0008339
OG0008340
OG0008341
OG0008342
OG0008343
OG0008345
OG0008346
OG0008347
OG0008348
OG0008349
OG0008350
OG0008351
OG0008352
OG0008353
OG0008354
OG0008355
OG0008356
OG0008357
OG0008358
OG0008359
OG0008360
OG0008361
OG0008362
OG0008363
OG0008364
OG0008365
OG0008366
OG0008367
OG0008368
OG0008369
OG0008370
OG0008371
OG0008372
OG0008374
OG0008375
OG0008376
OG0008377
OG0008378
OG0008379
OG0008380
OG0008381
OG0008382
OG0008383
OG0008384
OG0008385
OG0008386
OG0008387
OG0008388
OG0008389
OG0008390
OG0008391
OG0008392
OG0008393
OG0008394
OG0008395
OG0008396
OG0008397
OG0008398
OG0008399
OG0008400
OG0008401
OG0008402
OG0008403
OG0008404
OG0008405
OG0008406
OG0008407
OG0008408
OG0008409
OG0008410
OG0008411
OG0008412
OG0008413
OG0008414
OG0008415
OG0008416
OG0008417
OG0008418
OG0008419
OG0008420
OG0008421
OG0008422
OG0008423
OG0008424
OG0008425
OG0008426
OG0008427
OG0008428
OG0008429
OG0008430
OG0008431
OG0008432
OG0008433
OG0008434
OG0008435
OG0008436
OG0008437
OG0008438
OG0008439
OG0008440
OG0008441
OG0008442
OG0008443
OG0008444
OG0008445
OG0008446
OG0008447
OG0008448
OG0008449
OG0008450
OG0008451
OG0008452
OG0008453
OG0008454
OG0008455
OG0008456
OG0008457
OG0008458
OG0008459
OG0008460
OG0008461
OG0008462
OG0008463
OG0008464
OG0008465
OG0008466
OG0008467
OG0008468
OG0008469
OG0008470
OG0008471
OG0008472
OG0008473
OG0008475
OG0008476
OG0008477
OG0008478
OG0008479
OG0008480
OG0008481
OG0008482
OG0008483
OG0008484
OG0008485
OG0008486
OG0008487
OG0008488
OG0008489
OG0008490
OG0008491
OG0008492
OG0008493
OG0008494
OG0008495
OG0008496
OG0008497
OG0008498
OG0008499
OG0008500
OG0008501
OG0008502
OG0008504
OG0008505
OG0008506
OG0008507
OG0008508
OG0008509
OG0008510
OG0008511
OG0008512
OG0008513
OG0008514
OG0008515
OG0008516
OG0008517
OG0008519
OG0008520
OG0008521
OG0008522
OG0008523
OG0008524
OG0008525
OG0008526
OG0008527