AG	8321
AG	8347
AG	8599
AG	8607
AG	9309
AG	9575
AG	9599
AG	9991
AG	957
AG	1004
AG	1042
AG	10922
AG	10984
AG	11108
AG	11476
AG	1116
AG	12648
AG	12676
AG	12806
AG	12808
AG	12809
AG	1236
AG	13120
AG	13167
AG	13855
AG	13842
AG	13962
AG	14096
AG	1400
AG	14887
AG	15277
AG	15333
AG	15503
AG	1512
AG	15759
AG	15881
AG	16451
AG	16524
AG	16562
AG	16869
AG	17001
AG	17177
AG	17209
AG	17305
AG	17749
AG	18111
AG	18162
AG	18194
AG	18276
AG	18430
AG	18476
AG	18532
AG	18533
AG	18789
AG	1842
AG	19363
AG	19437
AG	19596
AG	19784
AG	20274
AG	20590
AG	2107
AG	2494
AG	2932
AG	2944
AG	3450
AG	399
AG	4224
AG	4406
AG	4508
AG	4531
AG	444
AG	5000
AG	494
AG	5186
AG	5213
AG	5327
AG	5732
AG	5734
AG	6185
AG	6347
AG	6822
AG	6912
AG	7240
AG	7333
AG	7713
AG	19597
AG	3523
AG	3522
AG	8580
AG	16987
AG	3112
AG	15879
AG	94
AG	12166
AG	15335
AG	20065
AG	8270
AG	11880
AG	12208
AG	371
AG	12206
AG	5408
AG	10894
AG	12421
AG	790
AG	18450
AG	11377
AG	8447
AG	2754
AG	7544
AG	18197
AG	5866
AG	17840
AG	784
AG	2048
AG	1117
AG	12810
AG	14075
AG	12296
AG	13662
AG	13663
AG	16735
AG	6186
AG	10308
AG	12642
AG	14531
AG	2108
AG	18375
AG	6280
AG	3012
AG	19631
