term_ID,description,frequency,plot_X,plot_Y,plot_size,log10 p-value,uniqueness,dispensability,representative,eliminated
GO:0000003,"reproduction",12.894%, 1.354, 0.785,3.167,-2.0164,1.000,0.000,3,0
GO:0006457,"protein folding",1.099%, 0.589, 0.141,2.100,-7.9833,0.971,0.000,6457,0
GO:0016544,"male courtship behavior, tapping to detect pheromone",0.018%,-4.339, 1.448,0.477,-1.5216,0.899,0.000,16544,0
GO:0048065,"male courtship behavior, veined wing extension",0.211%,null,null,1.398,-1.4776,0.881,0.752,16544,1
GO:0016545,"male courtship behavior, veined wing vibration",0.202%,null,null,1.380,-1.4776,0.882,0.627,16544,1
GO:0016543,"male courtship behavior, orientation prior to leg tapping and wing vibration",0.018%,null,null,0.477,-1.4776,0.899,0.627,16544,1
GO:0042157,"lipoprotein metabolic process",0.615%, 4.207,-2.764,1.851,-3.7223,0.952,0.000,42157,0
GO:0050896,"response to stimulus",27.608%, 2.112, 4.269,3.497,-1.8445,0.995,0.000,50896,0
GO:1903513,"endoplasmic reticulum to cytosol transport",0.009%, 0.204,-3.207,0.301,-2.6365,0.950,0.000,1903513,0
GO:0034975,"protein folding in endoplasmic reticulum",0.062%, 2.076, 3.363,0.903,-1.5254,0.968,0.026,34975,0
GO:0042026,"protein refolding",0.105%,null,null,1.114,-1.4603,0.967,0.626,34975,1
GO:0045454,"cell redox homeostasis",0.431%,-4.499,-4.166,1.699,-4.4464,0.825,0.031,45454,0
GO:0032849,"positive regulation of cellular pH reduction",0.522%,null,null,1.778,-2.1465,0.769,0.715,45454,1
GO:0032847,"regulation of cellular pH reduction",2.115%,null,null,2.382,-1.8470,0.787,1.413,45454,1
GO:0019725,"cellular homeostasis",2.013%,null,null,2.362,-2.9586,0.821,0.675,45454,1
GO:0045124,"regulation of bone resorption",0.089%,null,null,1.041,-1.3108,0.713,1.016,45454,1
GO:0045780,"positive regulation of bone resorption",0.180%,null,null,1.322,-1.5494,0.664,1.493,45454,1
GO:0034976,"response to endoplasmic reticulum stress",0.650%, 6.727, 4.180,1.875,-7.3616,0.851,0.032,34976,0
GO:0071498,"cellular response to fluid shear stress",0.382%,null,null,1.643,-1.5491,0.857,0.502,34976,1
GO:0070085,"glycosylation",1.037%, 3.662,-0.545,2.076,-1.5692,0.905,0.065,70085,0
GO:0001963,"synaptic transmission, dopaminergic",0.026%, 3.107, 2.776,0.602,-1.4680,0.925,0.071,1963,0
GO:0032230,"positive regulation of synaptic transmission, GABAergic",0.021%,null,null,0.477,-1.4560,0.838,0.735,1963,1
GO:0030198,"extracellular matrix organization",0.360%,-1.054, 2.317,1.623,-2.2303,0.917,0.087,30198,0
GO:0050746,"regulation of lipoprotein metabolic process",0.018%, 1.510,-4.912,0.477,-2.8441,0.853,0.107,50746,0
GO:0042159,"lipoprotein catabolic process",0.035%,null,null,0.699,-1.4015,0.901,0.610,50746,1
GO:0050748,"negative regulation of lipoprotein metabolic process",1.075%,null,null,2.090,-1.5919,0.746,1.312,50746,1
GO:0060587,"regulation of lipoprotein lipid oxidation",0.058%,null,null,0.845,-1.5919,0.800,1.442,50746,1
GO:0060588,"negative regulation of lipoprotein lipid oxidation",0.027%,null,null,0.602,-1.5919,0.776,1.357,50746,1
GO:0034443,"negative regulation of lipoprotein oxidation",0.018%,null,null,0.477,-1.5919,0.789,1.312,50746,1
GO:0034442,"regulation of lipoprotein oxidation",0.018%,null,null,0.477,-1.5919,0.822,0.585,50746,1
GO:0018208,"peptidyl-proline modification",0.527%, 3.721,-6.353,1.785,-2.4697,0.894,0.118,18208,0
GO:0018196,"peptidyl-asparagine modification",0.079%,null,null,1.000,-2.3010,0.907,0.532,18208,1
GO:0018279,"protein N-linked glycosylation via asparagine",0.079%,null,null,1.000,-2.3010,0.843,0.532,18208,1
GO:0018401,"peptidyl-proline hydroxylation to 4-hydroxy-L-proline",0.009%,null,null,0.301,-2.1306,0.858,0.776,18208,1
GO:0019511,"peptidyl-proline hydroxylation",0.246%,null,null,1.462,-2.0853,0.897,0.586,18208,1
GO:0043413,"macromolecule glycosylation",0.984%,null,null,2.053,-1.6060,0.869,0.978,18208,1
GO:0006487,"protein N-linked glycosylation",0.334%,null,null,1.591,-1.4146,0.831,0.886,18208,1
GO:0006486,"protein glycosylation",0.984%,null,null,2.053,-1.6060,0.817,0.778,18208,1
GO:0010986,"positive regulation of lipoprotein particle clearance",0.350%,-6.491, 0.317,1.602,-2.2759,0.678,0.123,10986,0
GO:0046852,"positive regulation of bone remodeling",0.180%,null,null,1.322,-1.5494,0.692,0.645,10986,1
GO:0010983,"positive regulation of high-density lipoprotein particle clearance",6.249%,null,null,2.852,-2.2759,0.588,1.203,10986,1
GO:0010984,"regulation of lipoprotein particle clearance",0.611%,null,null,1.845,-1.5793,0.703,0.798,10986,1
GO:0010982,"regulation of high-density lipoprotein particle clearance",6.249%,null,null,2.852,-2.2759,0.632,1.916,10986,1
GO:0034105,"positive regulation of tissue remodeling",0.105%,null,null,1.079,-1.3762,0.706,0.772,10986,1
GO:0009951,"polarity specification of dorsal/ventral axis",0.053%,-2.974, 4.860,0.845,-1.6879,0.853,0.129,9951,0
GO:0007311,"maternal specification of dorsal/ventral axis, oocyte, germ-line encoded",0.070%,null,null,0.954,-1.5612,0.806,0.782,9951,1
GO:0007310,"oocyte dorsal/ventral axis specification",0.369%,null,null,1.633,-1.5452,0.782,0.765,9951,1
GO:0065001,"specification of axis polarity",0.053%,null,null,0.845,-1.4628,0.855,0.525,9951,1
GO:0048799,"animal organ maturation",1.503%,null,null,2.233,-1.5062,0.732,0.780,9951,1
GO:0035799,"ureter maturation",0.797%,null,null,1.959,-1.6141,0.554,1.825,9951,1
GO:0045918,"negative regulation of cytolysis",0.553%,-5.401,-3.160,1.799,-1.8690,0.821,0.142,45918,0
GO:0042268,"regulation of cytolysis",2.328%,null,null,2.423,-1.5598,0.847,1.570,45918,1
GO:0031247,"actin rod assembly",0.042%,-0.472, 3.469,0.699,-1.8489,0.925,0.147,31247,0
GO:1901142,"insulin metabolic process",0.009%, 5.283,-4.309,0.301,-1.4004,0.945,0.157,1901142,0
GO:0039020,"pronephric nephron tubule development",0.589%,-5.126, 5.130,1.833,-2.1918,0.566,0.158,39020,0
GO:1900215,"negative regulation of apoptotic process involved in metanephric collecting duct development",0.041%,null,null,0.699,-1.8690,0.503,1.150,39020,1
GO:1900214,"regulation of apoptotic process involved in metanephric collecting duct development",0.051%,null,null,0.778,-1.8690,0.528,0.936,39020,1
GO:1900217,"regulation of apoptotic process involved in metanephric nephron tubule development",0.051%,null,null,0.778,-1.8690,0.525,0.936,39020,1
GO:1900218,"negative regulation of apoptotic process involved in metanephric nephron tubule development",0.041%,null,null,0.699,-1.8690,0.500,1.150,39020,1
GO:2000696,"regulation of epithelial cell differentiation involved in kidney development",0.082%,null,null,1.000,-1.5252,0.527,1.111,39020,1
GO:2000698,"positive regulation of epithelial cell differentiation involved in kidney development",0.367%,null,null,1.623,-1.5598,0.451,1.352,39020,1
GO:0035564,"regulation of kidney size",0.686%,null,null,1.898,-1.8690,0.520,1.124,39020,1
GO:0035566,"regulation of metanephros size",0.668%,null,null,1.886,-1.8690,0.513,1.195,39020,1
GO:1900212,"negative regulation of mesenchymal cell apoptotic process involved in metanephros development",0.054%,null,null,0.845,-1.8690,0.495,1.171,39020,1
GO:1900211,"regulation of mesenchymal cell apoptotic process involved in metanephros development",0.054%,null,null,0.845,-1.8690,0.527,0.940,39020,1
GO:0061004,"pattern specification involved in kidney development",0.538%,null,null,1.792,-1.3432,0.579,0.960,39020,1
GO:0072202,"cell differentiation involved in metanephros development",1.052%,null,null,2.079,-1.3888,0.538,1.260,39020,1
GO:0072197,"ureter morphogenesis",0.797%,null,null,1.959,-1.6909,0.562,1.143,39020,1
GO:0072207,"metanephric epithelium development",2.085%,null,null,2.377,-1.8690,0.524,1.371,39020,1
GO:0072182,"regulation of nephron tubule epithelial cell differentiation",0.222%,null,null,1.398,-1.5252,0.492,1.196,39020,1
GO:0072189,"ureter development",1.177%,null,null,2.127,-1.6876,0.555,1.197,39020,1
GO:0072234,"metanephric nephron tubule development",0.909%,null,null,2.017,-1.8690,0.552,1.238,39020,1
GO:0072243,"metanephric nephron epithelium development",2.085%,null,null,2.377,-1.8690,0.524,1.105,39020,1
GO:0072217,"negative regulation of metanephros development",0.640%,null,null,1.863,-1.5612,0.443,1.190,39020,1
GO:0072215,"regulation of metanephros development",0.809%,null,null,1.964,-1.3939,0.469,1.222,39020,1
GO:0072216,"positive regulation of metanephros development",0.692%,null,null,1.898,-1.6141,0.449,1.200,39020,1
GO:0001823,"mesonephros development",0.026%,null,null,0.602,-1.5612,0.662,0.744,39020,1
GO:0001822,"kidney development",1.183%,null,null,2.130,-1.4682,0.559,1.198,39020,1
GO:0072221,"metanephric distal convoluted tubule development",0.589%,null,null,1.833,-1.8690,0.567,1.179,39020,1
GO:0072298,"regulation of metanephric glomerulus development",0.692%,null,null,1.898,-1.6141,0.474,1.200,39020,1
GO:0072300,"positive regulation of metanephric glomerulus development",0.308%,null,null,1.544,-1.6141,0.479,0.967,39020,1
GO:0003337,"mesenchymal to epithelial transition involved in metanephros morphogenesis",0.284%,null,null,1.519,-1.4691,0.568,0.905,39020,1
GO:0072304,"regulation of mesenchymal cell apoptotic process involved in metanephric nephron morphogenesis",0.072%,null,null,0.954,-1.8690,0.493,1.290,39020,1
GO:0003339,"regulation of mesenchymal to epithelial transition involved in metanephros morphogenesis",0.076%,null,null,0.954,-1.8690,0.519,1.076,39020,1
GO:0072305,"negative regulation of mesenchymal cell apoptotic process involved in metanephric nephron morphogenesis",0.072%,null,null,0.954,-1.8690,0.467,0.804,39020,1
GO:0072307,"regulation of metanephric nephron tubule epithelial cell differentiation",0.111%,null,null,1.114,-1.8002,0.512,1.105,39020,1
GO:2001012,"mesenchymal cell differentiation involved in renal system development",0.240%,null,null,1.447,-1.8690,0.581,0.891,39020,1
GO:0072080,"nephron tubule development",1.026%,null,null,2.068,-1.5859,0.555,1.178,39020,1
GO:0072074,"kidney mesenchyme development",0.035%,null,null,0.699,-1.8141,0.648,1.005,39020,1
GO:0072075,"metanephric mesenchyme development",1.396%,null,null,2.201,-1.8141,0.530,1.365,39020,1
GO:0048793,"pronephros development",0.026%,null,null,0.602,-1.5128,0.662,0.744,39020,1
GO:0072108,"positive regulation of mesenchymal to epithelial transition involved in metanephros morphogenesis",0.076%,null,null,0.954,-1.8690,0.495,0.808,39020,1
GO:1902338,"negative regulation of apoptotic process involved in morphogenesis",0.037%,null,null,0.699,-1.8690,0.687,1.142,39020,1
GO:1902337,"regulation of apoptotic process involved in morphogenesis",0.018%,null,null,0.477,-1.4001,0.734,1.037,39020,1
GO:2000594,"positive regulation of metanephric DCT cell differentiation",0.156%,null,null,1.255,-1.8690,0.485,1.064,39020,1
GO:2000592,"regulation of metanephric DCT cell differentiation",0.322%,null,null,1.568,-1.8690,0.486,0.939,39020,1
GO:0072162,"metanephric mesenchymal cell differentiation",0.018%,null,null,0.477,-1.8690,0.640,1.178,39020,1
GO:0072161,"mesenchymal cell differentiation involved in kidney development",0.018%,null,null,0.477,-1.8690,0.647,1.178,39020,1
GO:0072176,"nephric duct development",2.085%,null,null,2.377,-1.8690,0.530,1.285,39020,1
GO:0072170,"metanephric tubule development",2.085%,null,null,2.377,-1.8690,0.521,1.371,39020,1
GO:1904746,"negative regulation of apoptotic process involved in development",0.018%,null,null,0.477,-1.8690,0.728,0.873,39020,1
GO:0090185,"negative regulation of kidney development",0.111%,null,null,1.114,-1.4636,0.512,0.834,39020,1
GO:0090192,"regulation of glomerulus development",0.239%,null,null,1.431,-1.4190,0.516,0.946,39020,1
GO:0090193,"positive regulation of glomerulus development",0.692%,null,null,1.898,-1.6141,0.452,1.211,39020,1
GO:0039003,"pronephric field specification",0.062%,null,null,0.903,-1.8690,0.616,1.315,39020,1
GO:0072004,"kidney field specification",0.026%,null,null,0.602,-1.8690,0.641,0.744,39020,1
GO:1904673,"negative regulation of somatic stem cell population maintenance",0.072%,null,null,0.954,-1.8690,0.678,1.290,39020,1
GO:2001054,"negative regulation of mesenchymal cell apoptotic process",0.068%,null,null,0.903,-1.4982,0.791,0.838,39020,1
GO:1902455,"negative regulation of stem cell population maintenance",0.131%,null,null,1.176,-1.6869,0.665,1.346,39020,1
GO:2001053,"regulation of mesenchymal cell apoptotic process",0.224%,null,null,1.415,-1.4982,0.812,0.845,39020,1
GO:1904672,"regulation of somatic stem cell population maintenance",0.071%,null,null,0.903,-1.5623,0.714,1.289,39020,1
GO:0072009,"nephron epithelium development",2.085%,null,null,2.377,-1.5859,0.533,1.285,39020,1
GO:0039017,"pattern specification involved in pronephros development",0.044%,null,null,0.778,-1.4992,0.641,1.281,39020,1
GO:0072025,"distal convoluted tubule development",1.228%,null,null,2.146,-1.8690,0.548,1.203,39020,1
GO:0072040,"negative regulation of mesenchymal cell apoptotic process involved in nephron morphogenesis",0.072%,null,null,0.954,-1.8690,0.469,1.290,39020,1
GO:0072039,"regulation of mesenchymal cell apoptotic process involved in nephron morphogenesis",0.072%,null,null,0.954,-1.8690,0.496,1.290,39020,1
GO:0097242,"beta-amyloid clearance",1.297%,-4.485, 3.837,2.170,-1.3342,0.848,0.180,97242,0
GO:1903108,"regulation of transcription from mitochondrial promoter",0.026%, 0.913,-7.016,0.602,-1.9172,0.853,0.180,1903108,0
GO:0071542,"dopaminergic neuron differentiation",0.018%,-3.149, 6.112,0.477,-1.3831,0.835,0.180,71542,0
GO:0043062,"extracellular structure organization",0.510%,-1.312, 2.692,1.771,-1.9832,0.915,0.181,43062,0
GO:0006890,"retrograde vesicle-mediated transport, Golgi to ER",0.167%,-0.823,-4.801,1.301,-1.7999,0.942,0.185,6890,0
GO:0048280,"vesicle fusion with Golgi apparatus",0.035%,null,null,0.699,-1.3920,0.887,0.621,6890,1
GO:0015670,"carbon dioxide transport",0.026%,-0.898,-3.992,0.602,-1.5867,0.901,0.198,15670,0
GO:0051604,"protein maturation",0.650%, 3.587,-5.043,1.875,-1.9000,0.923,0.222,51604,0
GO:0010033,"response to organic substance",4.606%, 6.495, 3.675,2.720,-2.1986,0.869,0.230,10033,0
GO:1901698,"response to nitrogen compound",1.143%,null,null,2.117,-2.1279,0.884,0.547,10033,1
GO:0070613,"regulation of protein processing",0.062%, 2.313,-6.026,0.903,-1.8441,0.820,0.235,70613,0
GO:1903317,"regulation of protein maturation",0.062%,null,null,0.903,-1.8441,0.827,0.677,70613,1
GO:1903318,"negative regulation of protein maturation",0.044%,null,null,0.778,-1.3109,0.792,0.977,70613,1
GO:0010955,"negative regulation of protein processing",0.044%,null,null,0.778,-1.3109,0.778,0.977,70613,1
GO:0022417,"protein maturation by protein folding",0.009%,null,null,0.301,-1.5967,0.912,0.598,70613,1
GO:0016485,"protein processing",0.598%,null,null,1.839,-1.3830,0.902,0.800,70613,1
GO:1902775,"mitochondrial large ribosomal subunit assembly",0.009%,-0.169, 2.699,0.301,-1.8470,0.966,0.245,1902775,0
GO:0061668,"mitochondrial ribosome assembly",0.009%,null,null,0.301,-1.3590,0.966,0.593,1902775,1
GO:0015669,"gas transport",0.026%,-0.540,-3.363,0.602,-1.5867,0.914,0.249,15669,0
GO:0021517,"ventral spinal cord development",0.009%,-3.603, 6.567,0.301,-2.1465,0.822,0.258,21517,0
GO:0021604,"cranial nerve structural organization",1.229%,-5.407, 5.607,2.146,-1.8690,0.716,0.261,21604,0
GO:0061360,"optic chiasma development",1.719%,null,null,2.292,-1.8690,0.719,2.207,21604,1
GO:0021650,"vestibulocochlear nerve formation",0.009%,null,null,0.301,-1.8690,0.792,1.360,21604,1
GO:0021633,"optic nerve structural organization",0.009%,null,null,0.301,-1.8690,0.803,1.360,21604,1
GO:0021631,"optic nerve morphogenesis",1.393%,null,null,2.199,-1.6869,0.713,2.240,21604,1
GO:0021603,"cranial nerve formation",1.229%,null,null,2.146,-1.8690,0.702,2.123,21604,1
GO:0021554,"optic nerve development",0.009%,null,null,0.301,-1.6869,0.811,1.360,21604,1
GO:2000595,"regulation of optic nerve formation",0.598%,null,null,1.839,-1.8690,0.583,1.962,21604,1
GO:2000597,"positive regulation of optic nerve formation",0.495%,null,null,1.756,-1.8690,0.557,1.924,21604,1
GO:0001655,"urogenital system development",0.668%,-4.672, 4.660,1.886,-1.6869,0.815,0.264,1655,0
GO:0043951,"negative regulation of cAMP-mediated signaling",0.009%, 4.756, 1.425,0.301,-1.3225,0.802,0.273,43951,0
GO:1903979,"negative regulation of microglial cell activation",0.009%,-2.627,-0.787,0.301,-1.8470,0.807,0.273,1903979,0
GO:0043031,"negative regulation of macrophage activation",0.009%,null,null,0.301,-1.6305,0.807,1.000,1903979,1
GO:0002686,"negative regulation of leukocyte migration",0.057%,null,null,0.845,-1.4376,0.742,1.111,1903979,1
GO:1903978,"regulation of microglial cell activation",0.009%,null,null,0.301,-1.8470,0.840,1.000,1903979,1
GO:0002283,"neutrophil activation involved in immune response",0.802%,null,null,1.964,-1.3020,0.797,1.319,1903979,1
GO:2000404,"regulation of T cell migration",0.009%,null,null,0.301,-1.4039,0.800,1.000,1903979,1
GO:2000402,"negative regulation of lymphocyte migration",0.009%,null,null,0.301,-1.5278,0.769,1.111,1903979,1
GO:2000405,"negative regulation of T cell migration",0.009%,null,null,0.301,-1.5919,0.769,0.550,1903979,1
GO:0043312,"neutrophil degranulation",0.009%,null,null,0.301,-1.3020,0.807,1.000,1903979,1
GO:0031640,"killing of cells of other organism",0.026%,-4.010,-2.596,0.602,-1.3852,0.886,0.283,31640,0
GO:0044364,"disruption of cells of other organism",0.026%,null,null,0.602,-1.3852,0.886,0.938,31640,1
GO:2000098,"negative regulation of smooth muscle cell-matrix adhesion",0.018%,-2.006,-0.916,0.477,-1.5919,0.858,0.287,2000098,0
GO:2000097,"regulation of smooth muscle cell-matrix adhesion",0.018%,null,null,0.477,-1.5919,0.905,0.953,2000098,1
GO:0036509,"trimming of terminal mannose on B branch",0.123%, 4.226,-6.171,1.176,-1.8470,0.882,0.305,36509,0
GO:0036508,"protein alpha-1,2-demannosylation",0.123%,null,null,1.176,-1.3380,0.882,1.290,36509,1
GO:0036507,"protein demannosylation",0.018%,null,null,0.477,-1.3380,0.901,0.872,36509,1
GO:1904382,"mannose trimming involved in glycoprotein ERAD pathway",0.123%,null,null,1.176,-1.4928,0.667,1.290,36509,1
GO:1904380,"endoplasmic reticulum mannose trimming",0.123%,null,null,1.176,-1.5491,0.882,1.290,36509,1
GO:0006508,"proteolysis",8.526%, 3.789,-5.153,2.987,-3.4757,0.908,0.305,6508,0
GO:0019538,"protein metabolic process",22.756%, 3.247,-5.204,3.413,-2.3049,0.935,0.308,19538,0
GO:0006991,"response to sterol depletion",0.053%, 5.073, 4.608,0.845,-1.4134,0.902,0.310,6991,0
GO:0018126,"protein hydroxylation",0.255%, 4.418,-4.786,1.477,-1.8604,0.905,0.325,18126,0
GO:0032527,"protein exit from endoplasmic reticulum",0.062%,-1.221,-4.593,0.903,-2.4400,0.921,0.334,32527,0
GO:0006950,"response to stress",11.137%, 5.467, 4.325,3.103,-3.5500,0.900,0.353,6950,0
GO:0048532,"anatomical structure arrangement",1.336%,-4.127, 7.153,2.185,-1.4430,0.838,0.362,48532,0
GO:0090087,"regulation of peptide transport",0.202%,-2.325,-6.322,1.380,-2.3986,0.801,0.362,90087,0
GO:2001225,"regulation of chloride transport",0.090%,null,null,1.041,-1.8470,0.834,0.540,90087,1
GO:0090088,"regulation of oligopeptide transport",0.110%,null,null,1.114,-2.1465,0.798,1.168,90087,1
GO:0090089,"regulation of dipeptide transport",0.035%,null,null,0.699,-2.1465,0.813,1.069,90087,1
GO:0051223,"regulation of protein transport",0.686%,null,null,1.898,-1.4221,0.795,0.639,90087,1
GO:0070201,"regulation of establishment of protein localization",0.721%,null,null,1.919,-1.3315,0.803,0.927,90087,1
GO:2001148,"regulation of dipeptide transmembrane transport",0.120%,null,null,1.146,-2.1465,0.796,1.267,90087,1
GO:2001150,"positive regulation of dipeptide transmembrane transport",0.099%,null,null,1.079,-2.1465,0.767,0.893,90087,1
GO:2000880,"positive regulation of dipeptide transport",0.035%,null,null,0.699,-2.1465,0.783,1.069,90087,1
GO:2000878,"positive regulation of oligopeptide transport",0.112%,null,null,1.114,-2.1465,0.766,1.160,90087,1
GO:0002791,"regulation of peptide secretion",0.202%,null,null,1.380,-1.6088,0.775,0.944,90087,1
GO:0070093,"negative regulation of glucagon secretion",0.009%,null,null,0.301,-1.8470,0.750,0.754,90087,1
GO:0070092,"regulation of glucagon secretion",0.059%,null,null,0.845,-1.4619,0.752,0.859,90087,1
GO:0010459,"negative regulation of heart rate",0.026%,-5.804,-1.222,0.602,-1.9161,0.707,0.374,10459,0
GO:0098856,"intestinal lipid absorption",0.009%,null,null,0.301,-1.3079,0.816,1.000,10459,1
GO:0045822,"negative regulation of heart contraction",0.026%,null,null,0.602,-1.9161,0.719,1.000,10459,1
GO:0060457,"negative regulation of digestive system process",0.009%,null,null,0.301,-1.7171,0.733,0.602,10459,1
GO:0045932,"negative regulation of muscle contraction",0.009%,null,null,0.301,-1.7171,0.736,0.733,10459,1
GO:0045986,"negative regulation of smooth muscle contraction",0.009%,null,null,0.301,-1.7171,0.736,0.602,10459,1
GO:0030299,"intestinal cholesterol absorption",0.009%,null,null,0.301,-1.3079,0.813,0.764,10459,1
GO:1903523,"negative regulation of blood circulation",0.026%,null,null,0.602,-1.5644,0.720,0.719,10459,1
GO:0006940,"regulation of smooth muscle contraction",0.026%,null,null,0.602,-1.3439,0.767,0.858,10459,1
GO:0031016,"pancreas development",1.206%,-5.133, 4.938,2.140,-1.3167,0.756,0.391,31016,0
GO:0061771,"response to caloric restriction",0.782%, 6.534, 4.335,1.949,-2.1465,0.860,0.395,61771,0
GO:0009991,"response to extracellular stimulus",1.696%,null,null,2.288,-1.6866,0.898,0.502,61771,1
GO:0032105,"negative regulation of response to extracellular stimulus",0.326%,null,null,1.580,-1.8470,0.753,1.461,61771,1
GO:0032108,"negative regulation of response to nutrient levels",0.387%,null,null,1.643,-1.8470,0.750,0.772,61771,1
GO:0032099,"negative regulation of appetite",0.009%,null,null,0.301,-1.8470,0.771,1.106,61771,1
GO:0032096,"negative regulation of response to food",0.026%,null,null,0.602,-1.8470,0.771,1.194,61771,1
GO:0031667,"response to nutrient levels",1.679%,null,null,2.283,-1.7379,0.889,0.897,61771,1
GO:0070417,"cellular response to cold",0.026%, 5.569, 3.711,0.602,-1.5089,0.881,0.401,70417,0
GO:0060672,"epithelial cell morphogenesis involved in placental branching",0.525%,-5.255, 4.191,1.778,-1.9070,0.686,0.412,60672,0
GO:0008045,"motor neuron axon guidance",0.554%,null,null,1.806,-1.6535,0.672,0.557,60672,1
GO:0014012,"peripheral nervous system axon regeneration",0.035%,null,null,0.699,-1.4054,0.734,0.931,60672,1
GO:0060231,"mesenchymal to epithelial transition",0.678%,null,null,1.892,-1.3255,0.788,0.630,60672,1
GO:0007501,"mesodermal cell fate specification",0.097%,null,null,1.079,-1.5981,0.770,0.623,60672,1
GO:0090103,"cochlea morphogenesis",0.221%,null,null,1.415,-1.4982,0.754,0.951,60672,1
GO:0031103,"axon regeneration",0.097%,null,null,1.079,-1.3693,0.717,0.566,60672,1
GO:0031102,"neuron projection regeneration",0.097%,null,null,1.079,-1.3048,0.718,0.898,60672,1
GO:0009611,"response to wounding",1.002%, 6.358, 4.530,2.061,-1.4528,0.878,0.413,9611,0
GO:0042221,"response to chemical",10.055%, 5.945, 4.623,3.059,-2.4006,0.901,0.415,42221,0
GO:0060606,"tube closure",0.114%,-5.059, 6.199,1.146,-1.8939,0.779,0.416,60606,0
GO:0001843,"neural tube closure",0.026%,null,null,0.602,-1.8939,0.764,0.798,60606,1
GO:0061217,"regulation of mesonephros development",0.316%,null,null,1.556,-1.3658,0.492,1.531,60606,1
GO:0061213,"positive regulation of mesonephros development",0.584%,null,null,1.820,-1.5324,0.444,1.623,60606,1
GO:0072289,"metanephric nephron tubule formation",0.026%,null,null,0.602,-1.8690,0.622,1.000,60606,1
GO:0072079,"nephron tubule formation",0.026%,null,null,0.602,-1.8690,0.627,1.000,60606,1
GO:0072174,"metanephric tubule formation",0.026%,null,null,0.602,-1.8690,0.629,0.897,60606,1
GO:0072179,"nephric duct formation",0.026%,null,null,0.602,-1.8690,0.635,0.897,60606,1
GO:0072177,"mesonephric duct development",0.668%,null,null,1.886,-1.8690,0.553,1.244,60606,1
GO:0072172,"mesonephric tubule formation",0.026%,null,null,0.602,-1.8690,0.614,1.000,60606,1
GO:0090189,"regulation of branching involved in ureteric bud morphogenesis",0.108%,null,null,1.114,-1.3658,0.511,1.391,60606,1
GO:0090190,"positive regulation of branching involved in ureteric bud morphogenesis",0.076%,null,null,0.954,-1.5324,0.500,1.352,60606,1
GO:0001658,"branching involved in ureteric bud morphogenesis",0.400%,null,null,1.663,-1.3057,0.558,1.565,60606,1
GO:0019755,"one-carbon compound transport",0.422%,-1.446,-5.716,1.690,-1.5867,0.881,0.422,19755,0
GO:0046661,"male sex differentiation",0.255%,-5.666, 3.311,1.477,-1.3135,0.840,0.422,46661,0
GO:0034405,"response to fluid shear stress",0.967%, 6.256, 4.937,2.045,-1.3106,0.879,0.422,34405,0
GO:0007561,"imaginal disc eversion",0.070%,-4.725, 5.844,0.954,-1.3564,0.767,0.425,7561,0
GO:0021556,"central nervous system formation",0.044%,-4.041, 6.700,0.778,-1.4313,0.818,0.425,21556,0
GO:0016338,"calcium-independent cell-cell adhesion via plasma membrane cell-adhesion molecules",0.009%, 2.344, 0.182,0.301,-1.5531,0.988,0.426,16338,0
GO:0006979,"response to oxidative stress",1.090%, 5.769, 4.409,2.097,-1.4455,0.878,0.428,6979,0
GO:0033554,"cellular response to stress",5.907%,null,null,2.828,-2.3584,0.836,0.531,6979,1
GO:0051246,"regulation of protein metabolic process",5.968%, 0.948,-6.329,2.833,-1.4139,0.791,0.433,51246,0
GO:0042592,"homeostatic process",3.762%,-4.842,-4.739,2.632,-2.7056,0.860,0.444,42592,0
GO:0000302,"response to reactive oxygen species",0.229%, 6.302, 4.979,1.431,-2.1413,0.857,0.451,302,0
GO:0042542,"response to hydrogen peroxide",0.062%,null,null,0.903,-1.8322,0.868,0.663,302,1
GO:0070301,"cellular response to hydrogen peroxide",0.018%,null,null,0.477,-1.3581,0.852,0.757,302,1
GO:0009749,"response to glucose",0.026%,null,null,0.602,-1.4829,0.885,0.954,302,1
GO:0009746,"response to hexose",0.035%,null,null,0.699,-1.4829,0.883,0.502,302,1
GO:0034284,"response to monosaccharide",0.044%,null,null,0.778,-1.4829,0.883,0.784,302,1
GO:0071638,"negative regulation of monocyte chemotactic protein-1 production",0.009%,-5.548,-0.263,0.301,-1.4875,0.717,0.461,71638,0
GO:0032757,"positive regulation of interleukin-8 production",0.009%,null,null,0.301,-1.4431,0.720,0.983,71638,1
GO:0001817,"regulation of cytokine production",0.026%,null,null,0.602,-1.3188,0.734,0.937,71638,1
GO:0001818,"negative regulation of cytokine production",0.009%,null,null,0.301,-1.3352,0.718,0.882,71638,1
GO:1900016,"negative regulation of cytokine production involved in inflammatory response",0.009%,null,null,0.301,-1.3510,0.633,1.000,71638,1
GO:0071637,"regulation of monocyte chemotactic protein-1 production",0.009%,null,null,0.301,-1.4875,0.749,0.991,71638,1
GO:0032677,"regulation of interleukin-8 production",0.010%,null,null,0.301,-1.3672,0.747,0.964,71638,1
GO:0032682,"negative regulation of chemokine production",0.009%,null,null,0.301,-1.4875,0.717,1.000,71638,1
GO:2000482,"regulation of interleukin-8 secretion",0.009%,null,null,0.301,-1.3672,0.674,1.000,71638,1
GO:2000484,"positive regulation of interleukin-8 secretion",0.009%,null,null,0.301,-1.4431,0.647,0.882,71638,1
GO:2000255,"negative regulation of male germ cell proliferation",0.009%,-6.142, 0.397,0.301,-1.5729,0.722,0.461,2000255,0
GO:2000254,"regulation of male germ cell proliferation",0.009%,null,null,0.301,-1.5729,0.767,1.000,2000255,1
GO:0046597,"negative regulation of viral entry into host cell",0.020%,null,null,0.477,-1.4210,0.848,0.698,2000255,1
GO:0003406,"retinal pigment epithelium development",1.619%,-5.649, 5.124,2.267,-1.8690,0.724,0.462,3406,0
GO:0002072,"optic cup morphogenesis involved in camera-type eye development",0.213%,null,null,1.398,-1.8690,0.730,1.468,3406,1
GO:2000611,"positive regulation of thyroid hormone generation",0.793%,-3.668,-5.109,1.959,-2.1918,0.749,0.477,2000611,0
GO:0031347,"regulation of defense response",1.204%,null,null,2.140,-1.3310,0.766,0.785,2000611,1
GO:0050727,"regulation of inflammatory response",0.018%,null,null,0.477,-1.3314,0.811,0.557,2000611,1
GO:0031349,"positive regulation of defense response",0.703%,null,null,1.908,-1.6585,0.740,0.707,2000611,1
GO:0002816,"regulation of biosynthetic process of antibacterial peptides active against Gram-positive bacteria",0.026%,null,null,0.602,-1.4749,0.735,1.000,2000611,1
GO:0002810,"regulation of antifungal peptide biosynthetic process",0.062%,null,null,0.903,-1.8510,0.722,0.999,2000611,1
GO:0030316,"osteoclast differentiation",0.009%,null,null,0.301,-1.3113,0.784,1.000,2000611,1
GO:0045672,"positive regulation of osteoclast differentiation",0.009%,null,null,0.301,-1.3108,0.661,0.577,2000611,1
GO:0019471,"4-hydroxyproline metabolic process",0.009%,null,null,0.301,-2.1306,0.885,0.722,2000611,1
GO:2000609,"regulation of thyroid hormone generation",1.566%,null,null,2.253,-1.8690,0.775,1.488,2000611,1
GO:0006965,"positive regulation of biosynthetic process of antibacterial peptides active against Gram-positive bacteria",0.026%,null,null,0.602,-1.4749,0.707,0.776,2000611,1
GO:0006967,"positive regulation of antifungal peptide biosynthetic process",0.062%,null,null,0.903,-1.8510,0.692,0.500,2000611,1
GO:0006959,"humoral immune response",1.020%,null,null,2.068,-1.4019,0.882,0.579,2000611,1
GO:0070131,"positive regulation of mitochondrial translation",0.018%,null,null,0.477,-1.3362,0.780,0.655,2000611,1
GO:1904587,"response to glycoprotein",0.018%, 6.509, 2.508,0.477,-1.9213,0.893,0.478,1904587,0
GO:0030433,"ER-associated ubiquitin-dependent protein catabolic process",0.264%, 6.405, 0.637,1.491,-3.8237,0.691,0.485,30433,0
GO:1901292,"nucleoside phosphate catabolic process",0.132%,null,null,1.204,-1.6183,0.845,0.856,30433,1
GO:1904152,"regulation of retrograde protein transport, ER to cytosol",0.026%,null,null,0.602,-1.5768,0.614,1.062,30433,1
GO:1904154,"positive regulation of retrograde protein transport, ER to cytosol",0.009%,null,null,0.301,-1.8533,0.618,1.000,30433,1
GO:1990680,"response to melanocyte-stimulating hormone",0.293%,null,null,1.531,-1.8470,0.863,0.841,30433,1
GO:0044712,"single-organism catabolic process",2.523%,null,null,2.459,-1.6348,0.861,0.694,30433,1
GO:0035966,"response to topologically incorrect protein",0.308%,null,null,1.556,-3.3793,0.852,0.501,30433,1
GO:0036503,"ERAD pathway",0.264%,null,null,1.491,-3.6976,0.700,0.842,30433,1
GO:0035977,"protein deglycosylation involved in glycoprotein catabolic process",0.018%,null,null,0.477,-1.4928,0.862,0.953,30433,1
GO:0038166,"angiotensin-activated signaling pathway",0.009%,null,null,0.301,-1.8470,0.802,0.630,30433,1
GO:0043161,"proteasome-mediated ubiquitin-dependent protein catabolic process",1.705%,null,null,2.290,-1.3797,0.847,0.804,30433,1
GO:0044752,"response to human chorionic gonadotropin",0.905%,null,null,2.017,-1.6734,0.859,0.885,30433,1
GO:0036493,"positive regulation of translation in response to endoplasmic reticulum stress",0.018%,null,null,0.477,-1.6725,0.705,1.000,30433,1
GO:0036494,"positive regulation of translation initiation in response to endoplasmic reticulum stress",0.018%,null,null,0.477,-2.1465,0.705,0.686,30433,1
GO:0036491,"regulation of translation initiation in response to endoplasmic reticulum stress",0.018%,null,null,0.477,-1.6195,0.731,1.000,30433,1
GO:0036490,"regulation of translation in response to endoplasmic reticulum stress",0.070%,null,null,0.954,-1.3490,0.707,1.189,30433,1
GO:0055098,"response to low-density lipoprotein particle",2.048%,null,null,2.369,-1.3760,0.847,1.364,30433,1
GO:0071396,"cellular response to lipid",0.378%,null,null,1.643,-1.5985,0.853,0.572,30433,1
GO:0071404,"cellular response to low-density lipoprotein particle stimulus",1.723%,null,null,2.294,-1.3760,0.824,0.871,30433,1
GO:1904352,"positive regulation of protein catabolic process in the vacuole",0.243%,null,null,1.447,-1.6321,0.735,1.012,30433,1
GO:1904350,"regulation of protein catabolic process in the vacuole",0.223%,null,null,1.415,-1.6321,0.771,0.929,30433,1
GO:0043558,"regulation of translational initiation in response to stress",0.018%,null,null,0.477,-1.4425,0.744,1.000,30433,1
GO:0009166,"nucleotide catabolic process",0.114%,null,null,1.146,-1.6941,0.847,0.564,30433,1
GO:0071318,"cellular response to ATP",0.109%,null,null,1.114,-1.7343,0.852,0.768,30433,1
GO:0097466,"glycoprotein ERAD pathway",0.018%,null,null,0.477,-2.1465,0.729,0.812,30433,1
GO:0010498,"proteasomal protein catabolic process",1.758%,null,null,2.303,-1.3399,0.847,0.869,30433,1
GO:1903912,"negative regulation of endoplasmic reticulum stress-induced eIF2 alpha phosphorylation",0.069%,null,null,0.903,-1.6725,0.658,1.085,30433,1
GO:0030970,"retrograde protein transport, ER to cytosol",0.009%,null,null,0.301,-2.6365,0.705,0.775,30433,1
GO:0030163,"protein catabolic process",2.909%,null,null,2.521,-1.6700,0.872,0.646,30433,1
GO:0032058,"positive regulation of translational initiation in response to stress",0.018%,null,null,0.477,-1.6195,0.717,1.085,30433,1
GO:0032056,"positive regulation of translation in response to stress",0.018%,null,null,0.477,-1.4213,0.717,1.085,30433,1
GO:0010898,"positive regulation of triglyceride catabolic process",0.009%,null,null,0.301,-1.4064,0.782,0.718,30433,1
GO:1905165,"regulation of lysosomal protein catabolic process",0.243%,null,null,1.447,-1.6321,0.768,1.012,30433,1
GO:1905167,"positive regulation of lysosomal protein catabolic process",0.243%,null,null,1.447,-1.6321,0.735,0.589,30433,1
GO:0010243,"response to organonitrogen compound",0.923%,null,null,2.025,-2.3039,0.859,0.561,30433,1
GO:0006986,"response to unfolded protein",0.211%, 6.122, 3.854,1.398,-3.6560,0.853,0.485,6986,0
GO:0030968,"endoplasmic reticulum unfolded protein response",0.123%,null,null,1.176,-1.7974,0.731,0.897,6986,1
GO:0051716,"cellular response to stimulus",19.768%, 6.292, 4.838,3.352,-1.7144,0.872,0.488,51716,0
GO:0061205,"paramesonephric duct development",0.744%,-6.017, 4.040,1.929,-1.6869,0.779,0.494,61205,0
GO:0032504,"multicellular organism reproduction",11.216%,null,null,3.106,-2.2811,0.852,0.503,61205,1
GO:0032370,"positive regulation of lipid transport",0.026%,-2.572,-5.840,0.602,-1.8885,0.780,0.495,32370,0
GO:0006869,"lipid transport",0.668%,null,null,1.886,-1.4134,0.862,0.684,32370,1
GO:0032368,"regulation of lipid transport",0.053%,null,null,0.845,-1.4709,0.806,0.722,32370,1
GO:2000845,"positive regulation of testosterone secretion",0.169%,null,null,1.301,-1.6725,0.744,1.032,32370,1
GO:2000843,"regulation of testosterone secretion",0.210%,null,null,1.380,-1.6725,0.774,1.202,32370,1
GO:0090118,"receptor-mediated endocytosis involved in cholesterol transport",0.622%,null,null,1.851,-1.5491,0.849,1.045,32370,1
