AG	6771
AG	6772
AG	637
AG	6979
AG	6989
AG	654
AG	7358
AG	7603
AG	7662
AG	7669
AG	703
AG	8438
AG	8532
AG	777
AG	8810
AG	8926
AG	8948
AG	8929
AG	9005
AG	9110
AG	9113
AG	9112
AG	9142
AG	845
AG	9450
AG	9727
AG	9741
AG	9831
AG	10031
AG	10078
AG	10079
AG	10197
AG	10465
AG	10466
AG	10694
AG	10776
AG	10774
AG	10916
AG	10967
AG	10969
AG	10970
AG	10973
AG	11082
AG	11087
AG	11187
AG	11380
AG	11428
AG	11507
AG	11900
AG	11987
AG	11991
AG	12104
AG	12212
AG	12436
AG	13004
AG	13008
AG	1236
AG	1241
AG	1243
AG	13960
AG	14134
AG	14186
AG	14294
AG	14403
AG	14608
AG	14657
AG	14662
AG	14665
AG	14996
AG	15125
AG	15132
AG	146
AG	15694
AG	15712
AG	15703
AG	1503
AG	16635
AG	16681
AG	16684
AG	16683
AG	16690
AG	16694
AG	16868
AG	1532
AG	16959
AG	16960
AG	17521
AG	1605
AG	17721
AG	17724
AG	17725
AG	17727
AG	17750
AG	17971
AG	18109
AG	22
AG	18859
AG	19076
AG	19295
AG	19543
AG	1815
AG	19658
AG	19904
AG	20283
AG	20345
AG	20415
AG	20522
AG	20523
AG	20856
AG	1945
AG	21148
AG	21309
AG	21310
AG	21316
AG	2012
AG	21654
AG	21902
AG	22050
AG	22056
AG	22058
AG	22098
AG	22112
AG	22168
AG	22169
AG	22172
AG	22173
AG	22170
AG	22519
AG	22725
AG	22821
AG	22841
AG	23588
AG	23698
AG	23700
AG	23699
AG	23847
AG	23849
AG	23850
AG	23965
AG	23972
AG	24174
AG	24559
AG	24587
AG	2307
AG	2353
AG	25138
AG	25233
AG	25349
AG	25443
AG	25989
AG	2488
AG	26700
AG	26716
AG	26755
AG	27055
AG	27084
AG	27121
AG	27183
AG	27365
AG	27737
AG	27780
AG	27781
AG	28026
AG	28027
AG	28364
AG	28610
AG	28742
AG	28791
AG	29197
AG	29234
AG	29392
AG	29529
AG	29651
AG	29908
AG	29919
AG	29931
AG	29932
AG	29936
AG	29937
AG	29975
AG	29992
AG	29995
AG	30125
AG	30415
AG	30485
AG	30678
AG	30956
AG	31082
AG	31470
AG	31472
AG	31593
AG	3015
AG	31724
AG	31738
AG	31741
AG	32155
AG	32185
AG	32229
AG	32503
AG	32633
AG	32667
AG	32961
AG	32962
AG	33168
AG	33204
AG	33314
AG	33373
AG	3166
AG	33653
AG	33758
AG	33759
AG	33822
AG	3218
AG	34387
AG	34520
AG	34655
AG	34831
AG	3321
AG	35185
AG	35385
AG	3483
AG	3482
AG	3484
AG	3487
AG	3491
AG	3492
AG	326
AG	4064
AG	4235
AG	4238
AG	4601
AG	4604
AG	4609
AG	4623
AG	4622
AG	407
AG	408
AG	4927
AG	4933
AG	4952
AG	4953
AG	4954
AG	5101
AG	5106
AG	5148
AG	5316
AG	6025
AG	6087
AG	6209
AG	6210
AG	6555
AG	2835
AG	30620
AG	27908
AG	22193
AG	7117
AG	7097
AG	20765
AG	32963
AG	27983
AG	32847
AG	13961
AG	14068
AG	4939
AG	3489
AG	3488
AG	21909
AG	33193
AG	4606
AG	20271
AG	34325
AG	4934
