AG	7901
AG	7913
AG	7932
AG	8508
AG	8562
AG	8563
AG	8568
AG	8569
AG	8571
AG	8594
AG	8706
AG	8710
AG	8900
AG	8984
AG	9150
AG	9263
AG	9280
AG	9644
AG	9647
AG	9649
AG	9656
AG	9763
AG	9764
AG	9952
AG	10137
AG	10140
AG	10138
AG	10383
AG	10483
AG	10565
AG	10729
AG	10728
AG	10732
AG	10733
AG	10731
AG	10784
AG	10937
AG	11156
AG	11325
AG	11453
AG	11626
AG	11692
AG	11693
AG	12079
AG	12081
AG	1223
AG	12214
AG	12215
AG	12226
AG	12472
AG	12473
AG	12859
AG	12926
AG	12961
AG	13239
AG	13382
AG	13497
AG	13785
AG	13909
AG	14005
AG	14009
AG	14013
AG	14047
AG	14180
AG	14181
AG	14226
AG	14233
AG	14236
AG	14327
AG	14328
AG	14330
AG	14334
AG	14504
AG	14505
AG	154
AG	153
AG	15072
AG	15259
AG	15308
AG	15309
AG	15410
AG	15417
AG	15502
AG	15624
AG	15796
AG	15883
AG	15938
AG	15939
AG	1632
AG	16014
AG	1634
AG	16296
AG	16556
AG	16594
AG	16624
AG	1692
AG	16825
AG	16976
AG	16995
AG	17081
AG	17341
AG	17362
AG	17480
AG	17850
AG	18796
AG	19151
AG	19200
AG	19361
AG	19716
AG	20078
AG	20165
AG	20316
AG	20384
AG	20451
AG	20453
AG	21001
AG	21062
AG	21086
AG	21166
AG	21167
AG	21349
AG	21868
AG	22041
AG	22129
AG	22307
AG	22521
AG	22522
AG	22655
AG	22878
AG	22879
AG	23203
AG	23292
AG	2400
AG	23564
AG	23609
AG	23657
AG	23733
AG	23790
AG	24165
AG	24348
AG	24523
AG	24525
AG	24905
AG	24942
AG	24943
AG	25040
AG	25365
AG	25685
AG	25686
AG	25948
AG	26132
AG	26271
AG	26333
AG	26442
AG	26717
AG	26757
AG	2769
AG	26947
AG	26948
AG	27039
AG	27152
AG	27193
AG	27406
AG	2870
AG	2891
AG	2990
AG	3031
AG	3032
AG	3035
AG	3033
AG	3034
AG	3036
AG	3039
AG	3161
AG	3418
AG	3972
AG	4061
AG	4140
AG	4207
AG	435
AG	436
AG	438
AG	440
AG	5030
AG	5323
AG	5467
AG	5518
AG	5550
AG	5656
AG	5759
AG	5910
AG	6105
AG	6149
AG	6211
AG	6212
AG	639
AG	6463
AG	6501
AG	6742
AG	6892
AG	6976
AG	6979
AG	6980
AG	7016
AG	7017
AG	7046
AG	700
AG	7268
AG	7289
AG	7589
AG	7666
AG	7725
AG	TRINITY_DN510_c0_g1
AG	TRINITY_DN3108_c0_g1
AG	22526
AG	22523
AG	TRINITY_DN4255_c2_g1
AG	17417
AG	17416
AG	TRINITY_DN4790_c0_g1
AG	TRINITY_DN4857_c0_g1
AG	TRINITY_DN4929_c1_g1
AG	155
AG	TRINITY_DN5435_c0_g1
AG	TRINITY_DN5562_c0_g1
AG	TRINITY_DN5860_c0_g1
AG	TRINITY_DN5994_c0_g1
AG	TRINITY_DN6193_c4_g2
AG	15338
AG	TRINITY_DN6153_c0_g1
AG	14010
AG	9131
AG	7018
AG	19147
AG	13837
AG	14503
AG	TRINITY_DN6590_c4_g8
AG	1499
AG	TRINITY_DN6592_c5_g1
AG	TRINITY_DN6587_c3_g2
AG	938
AG	TRINITY_DN6530_c0_g1
AG	TRINITY_DN6535_c2_g1
AG	25987
AG	TRINITY_DN6569_c0_g1
AG	15447
AG	TRINITY_DN6577_c0_g1
AG	TRINITY_DN6577_c0_g4
AG	TRINITY_DN6577_c0_g3
AG	TRINITY_DN6577_c0_g6
AG	17239
AG	9661
AG	TRINITY_DN6652_c2_g1
AG	TRINITY_DN6727_c1_g1
AG	2095
AG	19914
AG	8564
AG	2989
AG	TRINITY_DN6884_c1_g3
AG	13383
AG	TRINITY_DN6938_c1_g2
AG	13385
AG	22525
AG	25352
AG	TRINITY_DN7020_c10_g1
AG	TRINITY_DN7033_c6_g7
AG	TRINITY_DN7044_c4_g1
AG	17082
AG	23204
AG	16351
AG	TRINITY_DN7183_c3_g1
AG	26131
AG	TRINITY_DN7207_c1_g1
AG	TRINITY_DN7207_c1_g2
AG	26755
AG	TRINITY_DN7227_c0_g1
AG	15412
AG	TRINITY_DN7284_c3_g2
AG	TRINITY_DN7284_c3_g5
AG	TRINITY_DN7284_c3_g1
AG	TRINITY_DN11395_c0_g1
AG	TRINITY_DN11403_c0_g1
AG	TRINITY_DN16771_c0_g1
AG	TRINITY_DN17029_c0_g1
