term_ID	log10 p-value	Especie
GO:0004867	3.03907162000423e-09	Dvir
GO:0004866	2.06467982380032e-08	Dvir
GO:0030414	2.64873138727793e-08	Dvir
GO:0061135	2.77331453988096e-08	Dvir
GO:0061134	7.4069261237885e-08	Dvir
GO:0006486	1.14906516600564e-06	Dvir
GO:0043413	1.14906516600564e-06	Dvir
GO:0070085	1.42185158512299e-06	Dvir
GO:0004857	1.5881199698961e-06	Dvir
GO:0030246	5.15234137929838e-06	Dvir
GO:0000139	1.25407585364051e-05	Dvir
GO:0005576	0	Dbuz
GO:0004867	1.10920355614376e-10	Dbuz
GO:0004866	4.41297773641571e-09	Dbuz
GO:0061135	5.28773231659170e-09	Dbuz
GO:0030414	5.58050832992588e-09	Dbuz
GO:0004857	8.15837944586695e-09	Dbuz
GO:0061134	1.28263104555219e-08	Dbuz
GO:0035966	1.74020322015921e-06	Dbuz
GO:0004352	1.79306345716965e-06	Dbuz
GO:0016639	3.26942827100935e-06	Dbuz
GO:0005788	4.22200810536505e-06	Dbuz
GO:0030234	6.79051550645367e-06	Dbuz
GO:0003756	1.6458850279905e-05	Dbuz
GO:0016864	1.6458850279905e-05	Dbuz
GO:0016638	2.2747913433946e-05	Dbuz
GO:0006986	3.82968209077505e-05	Dbuz
GO:0005793	4.88347163593571e-05	Dbuz
GO:0098772	8.27455721857398e-05	Dbuz


