term_ID,description,frequency,plot_X,plot_Y,plot_size,log10 p-value,uniqueness,dispensability,representative,eliminated
GO:0002376,"immune system process",4.166%,-1.341,-6.251,2.677,-2.9130,0.941,0.000,2376,0
GO:0019730,"antimicrobial humoral response",0.844%,-5.660,-1.866,1.987,-3.6786,0.562,0.000,19730,0
GO:0006959,"humoral immune response",1.020%,null,null,2.068,-3.6786,0.711,0.741,19730,1
GO:0006955,"immune response",2.821%,null,null,2.508,-3.2120,0.699,0.747,19730,1
GO:0043207,"response to external biotic stimulus",3.147%,null,null,2.555,-2.1635,0.582,0.969,19730,1
GO:0042742,"defense response to bacterium",1.811%,null,null,2.316,-2.2703,0.583,0.867,19730,1
GO:0019731,"antibacterial humoral response",0.369%,null,null,1.633,-3.6786,0.573,0.875,19730,1
GO:0051707,"response to other organism",3.147%,null,null,2.555,-2.1635,0.582,0.933,19730,1
GO:0009617,"response to bacterium",2.057%,null,null,2.371,-2.2703,0.596,0.881,19730,1
GO:0098542,"defense response to other organism",2.426%,null,null,2.442,-2.2703,0.577,0.789,19730,1
GO:0044699,"single-organism process",59.339%,-2.653, 6.906,3.829,-2.9650,0.975,0.000,44699,0
GO:0045454,"cell redox homeostasis",0.431%, 4.446,-4.469,1.699,-5.8910,0.808,0.000,45454,0
GO:0019725,"cellular homeostasis",2.013%,null,null,2.362,-5.2565,0.799,0.675,45454,1
GO:0051704,"multi-organism process",10.108%, 0.162,-0.045,3.061,-1.5792,0.945,0.000,51704,0
GO:0006457,"protein folding",1.099%,-4.825, 5.128,2.100,-1.5582,0.920,0.031,6457,0
GO:0002790,"peptide secretion",0.220%,-3.903,-6.391,1.415,-1.5383,0.877,0.037,2790,0
GO:0009306,"protein secretion",0.589%,null,null,1.833,-1.5383,0.847,0.658,2790,1
GO:0006486,"protein glycosylation",0.984%, 3.492, 5.013,2.053,-2.0331,0.693,0.096,6486,0
GO:0043413,"macromolecule glycosylation",0.984%,null,null,2.053,-2.0331,0.723,0.978,6486,1
GO:0018279,"protein N-linked glycosylation via asparagine",0.079%,null,null,1.000,-1.8381,0.721,0.778,6486,1
GO:0006487,"protein N-linked glycosylation",0.334%,null,null,1.591,-1.3861,0.711,0.886,6486,1
GO:0005975,"carbohydrate metabolic process",3.683%, 6.486, 1.239,2.623,-1.3998,0.897,0.114,5975,0
GO:0010942,"positive regulation of cell death",0.791%, 5.786,-2.746,1.959,-1.7101,0.784,0.147,10942,0
GO:0043065,"positive regulation of apoptotic process",0.554%,null,null,1.806,-1.7101,0.776,0.748,10942,1
GO:0043068,"positive regulation of programmed cell death",0.721%,null,null,1.919,-1.7101,0.774,0.948,10942,1
GO:0065008,"regulation of biological quality",11.286%, 2.556,-5.718,3.109,-2.8790,0.882,0.169,65008,0
GO:0006952,"defense response",3.533%,-6.452,-0.455,2.605,-3.4936,0.732,0.230,6952,0
GO:0009607,"response to biotic stimulus",3.147%,-5.931, 0.695,2.555,-2.1635,0.777,0.274,9607,0
GO:0070085,"glycosylation",1.037%, 5.676, 4.170,2.076,-2.0331,0.842,0.303,70085,0
GO:0018196,"peptidyl-asparagine modification",0.079%, 1.475, 6.228,1.000,-1.8381,0.827,0.310,18196,0
GO:0009605,"response to external stimulus",8.596%,-5.401,-0.376,2.991,-2.0750,0.759,0.321,9605,0
GO:0006508,"proteolysis",8.526%, 2.212, 4.793,2.987,-3.0937,0.855,0.323,6508,0
GO:0042592,"homeostatic process",3.762%, 3.746,-4.811,2.632,-3.2817,0.845,0.444,42592,0
