
 - FastME 2.1.5 - 


Papers to be cited:

FastME 2.0 - A comprehensive, accurate and fast distance-based phylogeny inference program.
	Vincent Lefort, Richard Desper and Olivier Gascuel,
	Molecular Biology and Evolution 32(10), 2798-800, 2015.
BIONJ algorithm:
	Gascuel O. 1997. BIONJ: an improved version of the NJ algorithm based on a simple model of sequence data.
	Molecular Biology and Evolution, 14(7):685-695

-------------------------------------------------------------------------------
Settings for this run:

  I                                      Input data type  Matrix          
  D                                   Number of datasets  1               
  M                         Initial tree building method  BIONJ           
  N                                   NNI postprocessing  NNI_BalME       
  S                                   SPR postprocessing  yes             

-------------------------------------------------------------------------------
Dataset 1
	Two tree searches are performed, with NNIs and SPRs respectively.
	The resulting tree is the best (shortest) of both.

	Before NNI:     tree length is 0.392691.
	Performed 0 NNI(s).

	Performed 0 SPR(s).

