term_ID	log10 p-value	Especie
GO:0004867	-1.5690	Dant
GO:0008237	-2.6695	Dant
GO:0051082	-2.1739	Dant
GO:0005509	-1.9403	Dant
GO:0008289	-1.3978	Dant
GO:0003980	-2.1695	Dant
GO:0004853	-1.8742	Dant
GO:0051920	-1.4227	Dant
GO:0016787	-2.2294	Dant
GO:0004571	-1.4765	Dant
GO:0052866	-1.7133	Dant
GO:0046961	-1.3443	Dant
GO:0008233	-2.8638	Dant
GO:0004866	-5.5300	Dbor
GO:0016706	-2.7733	Dbor
GO:0098772	-3.5370	Dbor
GO:0016701	-2.3815	Dbor
GO:0051213	-2.4737	Dbor
GO:0003824	-1.3404	Dbuz
GO:0004866	-22.5230	Dbuz
GO:0005509	-2.0366	Dbuz
GO:0016706	-8.3313	Dbuz
GO:0098772	-15.5181	Dbuz
GO:0004584	-2.0015	Dbuz
GO:0004559	-6.2743	Dbuz
GO:0016787	-2.1708	Dbuz
GO:0003993	-1.6411	Dbuz
GO:0016757	-1.7681	Dbuz
GO:0004175	-3.5498	Dbuz
GO:0016798	-3.3165	Dbuz
GO:0017171	-1.6019	Dbuz
GO:0016701	-6.9685	Dbuz
GO:0008233	-4.2463	Dbuz
GO:0051213	-7.0906	Dbuz
GO:0004222	-6.8963	Dkoe
GO:0004867	-12.5532	Dkoe
GO:0051082	-1.6876	Dkoe
GO:0090482	-1.3769	Dkoe
GO:0098772	-6.1714	Dkoe
GO:0005509	-1.4800	Dkoe
GO:0016706	-5.7313	Dkoe
GO:0016758	-2.3808	Dkoe
GO:0004571	-1.4050	Dkoe
GO:0008233	-3.0818	Dkoe
GO:0016757	-1.7607	Dkoe
GO:0016701	-4.8077	Dkoe
GO:0051213	-4.8846	Dkoe









