Category	Term	Count	%	PValue	Genes	List Total	Pop Hits	Pop Total	Fold Enrichment	Bonferroni	Benjamini	FDR
GOTERM_MF_5	GO:0004866~endopeptidase inhibitor activity	21	9.051724137931034	3.3618657962417282E-19	FBGN0015586, FBGN0020509, FBGN0034195, FBGN0051902, FBGN0004629, FBGN0028988, FBGN0036970, FBGN0053121, FBGN0051515, FBGN0262621, FBGN0263082, FBGN0041180, FBGN0052203, FBGN0033115, FBGN0259956, FBGN0259955, FBGN0083141, FBGN0028986, FBGN0259957, FBGN0028987, FBGN0259949	87	99	6622	16.1455938697318	1.5800769242336124E-17	1.5800769242336124E-17	3.193169293578775E-16
GOTERM_MF_4	GO:0061135~endopeptidase regulator activity	21	9.051724137931034	9.609735351461268E-19	FBGN0015586, FBGN0020509, FBGN0034195, FBGN0051902, FBGN0004629, FBGN0028988, FBGN0036970, FBGN0053121, FBGN0051515, FBGN0262621, FBGN0263082, FBGN0041180, FBGN0052203, FBGN0033115, FBGN0259956, FBGN0259955, FBGN0083141, FBGN0028986, FBGN0259957, FBGN0028987, FBGN0259949	107	101	8080	15.70093457943925	4.4204782616721836E-17	4.4204782616721836E-17	9.082938011315087E-16
GOTERM_MF_4	GO:0030414~peptidase inhibitor activity	21	9.051724137931034	1.1824734127030939E-18	FBGN0015586, FBGN0020509, FBGN0034195, FBGN0051902, FBGN0004629, FBGN0028988, FBGN0036970, FBGN0053121, FBGN0051515, FBGN0262621, FBGN0263082, FBGN0041180, FBGN0052203, FBGN0033115, FBGN0259956, FBGN0259955, FBGN0083141, FBGN0028986, FBGN0259957, FBGN0028987, FBGN0259949	107	102	8080	15.547003848268277	5.439377698434232E-17	2.719688849217116E-17	1.1176512479063447E-15
GOTERM_MF_FAT	GO:0004866~endopeptidase inhibitor activity	21	9.051724137931034	1.4144609950032742E-18	FBGN0015586, FBGN0020509, FBGN0034195, FBGN0051902, FBGN0004629, FBGN0028988, FBGN0036970, FBGN0053121, FBGN0051515, FBGN0262621, FBGN0263082, FBGN0041180, FBGN0052203, FBGN0033115, FBGN0259956, FBGN0259955, FBGN0083141, FBGN0028986, FBGN0259957, FBGN0028987, FBGN0259949	122	99	8946	15.554396423248882	2.645042060656123E-16	2.645042060656123E-16	1.7533557846911893E-15
GOTERM_MF_ALL	GO:0004866~endopeptidase inhibitor activity	21	9.051724137931034	1.60609904023122E-18	FBGN0015586, FBGN0020509, FBGN0034195, FBGN0051902, FBGN0004629, FBGN0028988, FBGN0036970, FBGN0053121, FBGN0051515, FBGN0262621, FBGN0263082, FBGN0041180, FBGN0052203, FBGN0033115, FBGN0259956, FBGN0259955, FBGN0083141, FBGN0028986, FBGN0259957, FBGN0028987, FBGN0259949	127	99	9284	15.506561679790027	3.147954118853191E-16	3.147954118853191E-16	2.0064179594068326E-15
GOTERM_MF_FAT	GO:0061135~endopeptidase regulator activity	21	9.051724137931034	2.154585180326798E-18	FBGN0015586, FBGN0020509, FBGN0034195, FBGN0051902, FBGN0004629, FBGN0028988, FBGN0036970, FBGN0053121, FBGN0051515, FBGN0262621, FBGN0263082, FBGN0041180, FBGN0052203, FBGN0033115, FBGN0259956, FBGN0259955, FBGN0083141, FBGN0028986, FBGN0259957, FBGN0028987, FBGN0259949	122	101	8946	15.246388573283557	4.029074287211112E-16	2.014537143605556E-16	2.670808458403023E-15
GOTERM_MF_ALL	GO:0061135~endopeptidase regulator activity	21	9.051724137931034	2.445883961811878E-18	FBGN0015586, FBGN0020509, FBGN0034195, FBGN0051902, FBGN0004629, FBGN0028988, FBGN0036970, FBGN0053121, FBGN0051515, FBGN0262621, FBGN0263082, FBGN0041180, FBGN0052203, FBGN0033115, FBGN0259956, FBGN0259955, FBGN0083141, FBGN0028986, FBGN0259957, FBGN0028987, FBGN0259949	127	101	9284	15.199501052467452	4.793932565151281E-16	2.3969662825756403E-16	3.0555186104201835E-15
GOTERM_MF_FAT	GO:0030414~peptidase inhibitor activity	21	9.051724137931034	2.6494900898694428E-18	FBGN0015586, FBGN0020509, FBGN0034195, FBGN0051902, FBGN0004629, FBGN0028988, FBGN0036970, FBGN0053121, FBGN0051515, FBGN0262621, FBGN0263082, FBGN0041180, FBGN0052203, FBGN0033115, FBGN0259956, FBGN0259955, FBGN0083141, FBGN0028986, FBGN0259957, FBGN0028987, FBGN0259949	122	102	8946	15.096914175506269	4.954546468055858E-16	1.6515154893519528E-16	3.2842890627350334E-15
GOTERM_MF_ALL	GO:0030414~peptidase inhibitor activity	21	9.051724137931034	3.007321919842431E-18	FBGN0015586, FBGN0020509, FBGN0034195, FBGN0051902, FBGN0004629, FBGN0028988, FBGN0036970, FBGN0053121, FBGN0051515, FBGN0262621, FBGN0263082, FBGN0041180, FBGN0052203, FBGN0033115, FBGN0259956, FBGN0259955, FBGN0083141, FBGN0028986, FBGN0259957, FBGN0028987, FBGN0259949	127	102	9284	15.050486336266792	5.894350962891165E-16	1.964783654297055E-16	3.756894536728582E-15
GOTERM_MF_3	GO:0061134~peptidase regulator activity	21	9.051724137931034	5.294141791905001E-18	FBGN0015586, FBGN0020509, FBGN0034195, FBGN0051902, FBGN0004629, FBGN0028988, FBGN0036970, FBGN0053121, FBGN0051515, FBGN0262621, FBGN0263082, FBGN0041180, FBGN0052203, FBGN0033115, FBGN0259956, FBGN0259955, FBGN0083141, FBGN0028986, FBGN0259957, FBGN0028987, FBGN0259949	113	109	8531	14.545019079321264	2.2235395526001006E-16	2.2235395526001006E-16	4.8997189690255304E-15
GOTERM_MF_FAT	GO:0061134~peptidase regulator activity	21	9.051724137931034	1.0572207166375564E-17	FBGN0015586, FBGN0020509, FBGN0034195, FBGN0051902, FBGN0004629, FBGN0028988, FBGN0036970, FBGN0053121, FBGN0051515, FBGN0262621, FBGN0263082, FBGN0041180, FBGN0052203, FBGN0033115, FBGN0259956, FBGN0259955, FBGN0083141, FBGN0028986, FBGN0259957, FBGN0028987, FBGN0259949	122	109	8946	14.12738757707926	1.9770027401122303E-15	4.942506850280576E-16	1.3105232776019626E-14
GOTERM_MF_ALL	GO:0061134~peptidase regulator activity	21	9.051724137931034	1.1989519486479784E-17	FBGN0015586, FBGN0020509, FBGN0034195, FBGN0051902, FBGN0004629, FBGN0028988, FBGN0036970, FBGN0053121, FBGN0051515, FBGN0262621, FBGN0263082, FBGN0041180, FBGN0052203, FBGN0033115, FBGN0259956, FBGN0259955, FBGN0083141, FBGN0028986, FBGN0259957, FBGN0028987, FBGN0259949	127	109	9284	14.083941342194612	2.3499458193500376E-15	5.874864548375094E-16	1.4977897763308567E-14
GOTERM_MF_FAT	GO:0004867~serine-type endopeptidase inhibitor activity	19	8.189655172413794	1.3538278049385447E-17	FBGN0015586, FBGN0020509, FBGN0034195, FBGN0051902, FBGN0028988, FBGN0036970, FBGN0053121, FBGN0051515, FBGN0262621, FBGN0263082, FBGN0052203, FBGN0033115, FBGN0259956, FBGN0259955, FBGN0083141, FBGN0028986, FBGN0259957, FBGN0028987, FBGN0259949	122	81	8946	17.200364298724956	2.5316579952350787E-15	5.063315990470157E-16	1.678195313727458E-14
GOTERM_MF_ALL	GO:0004867~serine-type endopeptidase inhibitor activity	19	8.189655172413794	1.5092224644019863E-17	FBGN0015586, FBGN0020509, FBGN0034195, FBGN0051902, FBGN0028988, FBGN0036970, FBGN0053121, FBGN0051515, FBGN0262621, FBGN0263082, FBGN0052203, FBGN0033115, FBGN0259956, FBGN0259955, FBGN0083141, FBGN0028986, FBGN0259957, FBGN0028987, FBGN0259949	127	81	9284	17.147467677651406	2.958076030227893E-15	5.916152060455786E-16	1.8853949734509795E-14
GOTERM_MF_DIRECT	GO:0004867~serine-type endopeptidase inhibitor activity	19	8.189655172413794	1.5092224644019863E-17	FBGN0015586, FBGN0020509, FBGN0034195, FBGN0051902, FBGN0028988, FBGN0036970, FBGN0053121, FBGN0051515, FBGN0262621, FBGN0263082, FBGN0052203, FBGN0033115, FBGN0259956, FBGN0259955, FBGN0083141, FBGN0028986, FBGN0259957, FBGN0028987, FBGN0259949	127	81	9284	17.147467677651406	1.2979313193857082E-15	1.2979313193857082E-15	1.6274409615205024E-14
GOTERM_MF_3	GO:0004857~enzyme inhibitor activity	22	9.482758620689655	2.5372767256748276E-17	FBGN0259964, FBGN0015586, FBGN0020509, FBGN0034195, FBGN0051902, FBGN0004629, FBGN0028988, FBGN0036970, FBGN0053121, FBGN0051515, FBGN0262621, FBGN0263082, FBGN0041180, FBGN0052203, FBGN0033115, FBGN0259956, FBGN0259955, FBGN0083141, FBGN0028986, FBGN0259957, FBGN0028987, FBGN0259949	113	135	8531	12.302982628646346	1.0656562247834276E-15	5.328281123917138E-16	2.348245171949301E-14
GOTERM_MF_FAT	GO:0004857~enzyme inhibitor activity	22	9.482758620689655	5.233252777109477E-17	FBGN0259964, FBGN0015586, FBGN0020509, FBGN0034195, FBGN0051902, FBGN0004629, FBGN0028988, FBGN0036970, FBGN0053121, FBGN0051515, FBGN0262621, FBGN0263082, FBGN0041180, FBGN0052203, FBGN0033115, FBGN0259956, FBGN0259955, FBGN0083141, FBGN0028986, FBGN0259957, FBGN0028987, FBGN0259949	122	135	8946	11.949726775956284	9.786182693194722E-15	1.631030448865787E-15	6.487102904859453E-14
GOTERM_MF_ALL	GO:0004857~enzyme inhibitor activity	22	9.482758620689655	5.979834647620103E-17	FBGN0259964, FBGN0015586, FBGN0020509, FBGN0034195, FBGN0051902, FBGN0004629, FBGN0028988, FBGN0036970, FBGN0053121, FBGN0051515, FBGN0262621, FBGN0263082, FBGN0041180, FBGN0052203, FBGN0033115, FBGN0259956, FBGN0259955, FBGN0083141, FBGN0028986, FBGN0259957, FBGN0028987, FBGN0259949	127	135	9284	11.912977544473607	2.1760371282653068E-14	3.6637359812630166E-15	1.3322676295501878E-13
GOTERM_MF_5	GO:0031418~L-ascorbic acid binding	10	4.310344827586207	2.656747973106265E-11	FBGN0042182, FBGN0052201, FBGN0039783, FBGN0036795, FBGN0039782, FBGN0036793, FBGN0051016, FBGN0265268, FBGN0051524, FBGN0040528	87	27	6622	28.190719455087272	1.248673719977944E-9	6.243368044778208E-10	2.5234381251237892E-8
GOTERM_MF_FAT	GO:0004656~procollagen-proline 4-dioxygenase activity	10	4.310344827586207	2.8897494510531647E-11	FBGN0042182, FBGN0052201, FBGN0039783, FBGN0036795, FBGN0039782, FBGN0036793, FBGN0051016, FBGN0265268, FBGN0051524, FBGN0040528	122	26	8946	28.203026481715003	5.403821279337251E-9	7.71974484337079E-10	3.582105723154427E-8
GOTERM_MF_FAT	GO:0019798~procollagen-proline dioxygenase activity	10	4.310344827586207	2.8897494510531647E-11	FBGN0042182, FBGN0052201, FBGN0039783, FBGN0036795, FBGN0039782, FBGN0036793, FBGN0051016, FBGN0265268, FBGN0051524, FBGN0040528	122	26	8946	28.203026481715003	5.403821279337251E-9	7.71974484337079E-10	3.582105723154427E-8
GOTERM_MF_ALL	GO:0019798~procollagen-proline dioxygenase activity	10	4.310344827586207	3.0125377871772094E-11	FBGN0042182, FBGN0052201, FBGN0039783, FBGN0036795, FBGN0039782, FBGN0036793, FBGN0051016, FBGN0265268, FBGN0051524, FBGN0040528	127	26	9284	28.116293155663232	5.904567945691497E-9	8.435097065273567E-10	3.76340625329874E-8
GOTERM_MF_ALL	GO:0004656~procollagen-proline 4-dioxygenase activity	10	4.310344827586207	3.0125377871772094E-11	FBGN0042182, FBGN0052201, FBGN0039783, FBGN0036795, FBGN0039782, FBGN0036793, FBGN0051016, FBGN0265268, FBGN0051524, FBGN0040528	127	26	9284	28.116293155663232	5.904567945691497E-9	8.435097065273567E-10	3.76340625329874E-8
GOTERM_MF_DIRECT	GO:0004656~procollagen-proline 4-dioxygenase activity	10	4.310344827586207	3.0125377871772094E-11	FBGN0042182, FBGN0052201, FBGN0039783, FBGN0036795, FBGN0039782, FBGN0036793, FBGN0051016, FBGN0265268, FBGN0051524, FBGN0040528	127	26	9284	28.116293155663232	2.5907798129054527E-9	1.2953899064527263E-9	3.248509239384134E-8
GOTERM_MF_4	GO:0031418~L-ascorbic acid binding	10	4.310344827586207	3.1422729809231955E-11	FBGN0042182, FBGN0052201, FBGN0039783, FBGN0036795, FBGN0039782, FBGN0036793, FBGN0051016, FBGN0265268, FBGN0051524, FBGN0040528	107	27	8080	27.968155070958808	1.4454466512603403E-9	4.818155874275476E-10	2.9700186754411106E-8
GOTERM_MF_5	GO:0031543~peptidyl-proline dioxygenase activity	10	4.310344827586207	3.874160634645523E-11	FBGN0042182, FBGN0052201, FBGN0039783, FBGN0036795, FBGN0039782, FBGN0036793, FBGN0051016, FBGN0265268, FBGN0051524, FBGN0040528	87	28	6622	27.18390804597701	1.8208535790265046E-9	6.069511560014007E-10	3.679753168839284E-8
GOTERM_MF_FAT	GO:0031545~peptidyl-proline 4-dioxygenase activity	10	4.310344827586207	4.285750657376877E-11	FBGN0042182, FBGN0052201, FBGN0039783, FBGN0036795, FBGN0039782, FBGN0036793, FBGN0051016, FBGN0265268, FBGN0051524, FBGN0040528	122	27	8946	27.15846994535519	8.014351626783878E-9	1.0017939811035603E-9	5.3125848165080924E-8
GOTERM_MF_FAT	GO:0031418~L-ascorbic acid binding	10	4.310344827586207	4.285750657376877E-11	FBGN0042182, FBGN0052201, FBGN0039783, FBGN0036795, FBGN0039782, FBGN0036793, FBGN0051016, FBGN0265268, FBGN0051524, FBGN0040528	122	27	8946	27.15846994535519	8.014351626783878E-9	1.0017939811035603E-9	5.3125848165080924E-8
GOTERM_MF_ALL	GO:0031418~L-ascorbic acid binding	10	4.310344827586207	4.467522842378727E-11	FBGN0042182, FBGN0052201, FBGN0039783, FBGN0036795, FBGN0039782, FBGN0036793, FBGN0051016, FBGN0265268, FBGN0051524, FBGN0040528	127	27	9284	27.074948964712743	8.756351643768312E-9	1.0945438999598878E-9	5.581053397207825E-8
GOTERM_MF_ALL	GO:0031545~peptidyl-proline 4-dioxygenase activity	10	4.310344827586207	4.467522842378727E-11	FBGN0042182, FBGN0052201, FBGN0039783, FBGN0036795, FBGN0039782, FBGN0036793, FBGN0051016, FBGN0265268, FBGN0051524, FBGN0040528	127	27	9284	27.074948964712743	8.756351643768312E-9	1.0945438999598878E-9	5.581053397207825E-8
GOTERM_MF_DIRECT	GO:0031418~L-ascorbic acid binding	10	4.310344827586207	4.467522842378727E-11	FBGN0042182, FBGN0052201, FBGN0039783, FBGN0036795, FBGN0039782, FBGN0036793, FBGN0051016, FBGN0265268, FBGN0051524, FBGN0040528	127	27	9284	27.074948964712743	3.84207266002079E-9	1.2806908866735967E-9	4.817470866669282E-8
GOTERM_MF_FAT	GO:0031543~peptidyl-proline dioxygenase activity	10	4.310344827586207	6.244627347298742E-11	FBGN0042182, FBGN0052201, FBGN0039783, FBGN0036795, FBGN0039782, FBGN0036793, FBGN0051016, FBGN0265268, FBGN0051524, FBGN0040528	122	28	8946	26.188524590163933	1.1677452449454506E-8	1.2974947782851132E-9	7.740795782140708E-8
GOTERM_MF_ALL	GO:0031543~peptidyl-proline dioxygenase activity	10	4.310344827586207	6.50899577838371E-11	FBGN0042182, FBGN0052201, FBGN0039783, FBGN0036795, FBGN0039782, FBGN0036793, FBGN0051016, FBGN0265268, FBGN0051524, FBGN0040528	127	28	9284	26.10798650168729	1.2757626843828973E-8	1.4175141060945862E-9	8.131354478635444E-8
GOTERM_MF_DIRECT	GO:0016702~oxidoreductase activity, acting on single donors with incorporation of molecular oxygen, incorporation of two atoms of oxygen	10	4.310344827586207	9.330930940210999E-11	FBGN0042182, FBGN0052201, FBGN0039783, FBGN0036795, FBGN0039782, FBGN0036793, FBGN0051016, FBGN0265268, FBGN0051524, FBGN0040528	127	29	9284	25.207711105077383	8.024604980505501E-9	2.0061512451263752E-9	1.0061834698760208E-7
GOTERM_MF_4	GO:0016702~oxidoreductase activity, acting on single donors with incorporation of molecular oxygen, incorporation of two atoms of oxygen	10	4.310344827586207	2.422384531965632E-10	FBGN0042182, FBGN0052201, FBGN0039783, FBGN0036795, FBGN0039782, FBGN0036793, FBGN0051016, FBGN0265268, FBGN0051524, FBGN0040528	107	33	8080	22.883035967148114	1.1142968658894858E-8	2.7857421924792902E-9	2.289591516380085E-7
GOTERM_MF_FAT	GO:0016702~oxidoreductase activity, acting on single donors with incorporation of molecular oxygen, incorporation of two atoms of oxygen	10	4.310344827586207	3.2947127560291545E-10	FBGN0042182, FBGN0052201, FBGN0039783, FBGN0036795, FBGN0039782, FBGN0036793, FBGN0051016, FBGN0265268, FBGN0051524, FBGN0040528	122	33	8946	22.220566318926974	6.161111776314954E-8	6.161111953950638E-9	4.084101945522889E-7
GOTERM_MF_3	GO:0016701~oxidoreductase activity, acting on single donors with incorporation of molecular oxygen	10	4.310344827586207	3.338446851006061E-10	FBGN0042182, FBGN0052201, FBGN0039783, FBGN0036795, FBGN0039782, FBGN0036793, FBGN0051016, FBGN0265268, FBGN0051524, FBGN0040528	113	34	8531	22.20458094742322	1.402147853379887E-8	4.673826214940391E-9	3.0897271408036886E-7
GOTERM_MF_ALL	GO:0016702~oxidoreductase activity, acting on single donors with incorporation of molecular oxygen, incorporation of two atoms of oxygen	10	4.310344827586207	3.4329259565647653E-10	FBGN0042182, FBGN0052201, FBGN0039783, FBGN0036795, FBGN0039782, FBGN0036793, FBGN0051016, FBGN0265268, FBGN0051524, FBGN0040528	127	33	9284	22.15223097112861	6.728535062450192E-8	6.7285352844947965E-9	4.2885802686853935E-7
GOTERM_MF_FAT	GO:0016701~oxidoreductase activity, acting on single donors with incorporation of molecular oxygen	10	4.310344827586207	4.4302893440139093E-10	FBGN0042182, FBGN0052201, FBGN0039783, FBGN0036795, FBGN0039782, FBGN0036793, FBGN0051016, FBGN0265268, FBGN0051524, FBGN0040528	122	34	8946	21.56702025072324	8.284640962141765E-8	7.531492096646275E-9	5.491755272757359E-7
GOTERM_MF_ALL	GO:0016701~oxidoreductase activity, acting on single donors with incorporation of molecular oxygen	10	4.310344827586207	4.6158012482353085E-10	FBGN0042182, FBGN0052201, FBGN0039783, FBGN0036795, FBGN0039782, FBGN0036793, FBGN0051016, FBGN0265268, FBGN0051524, FBGN0040528	127	34	9284	21.500694766095414	9.046969695614138E-8	8.224518288635352E-9	5.766285782193847E-7
GOTERM_MF_3	GO:0019842~vitamin binding	10	4.310344827586207	1.6298762614663566E-9	FBGN0042182, FBGN0052201, FBGN0039783, FBGN0036795, FBGN0039782, FBGN0036793, FBGN0051016, FBGN0265268, FBGN0051524, FBGN0040528	113	40	8531	18.873893805309734	6.845479949557642E-8	1.711370034573889E-8	1.5084475890603244E-6
GOTERM_MF_4	GO:0031406~carboxylic acid binding	10	4.310344827586207	2.0171405005427083E-9	FBGN0042182, FBGN0052201, FBGN0039783, FBGN0036795, FBGN0039782, FBGN0036793, FBGN0051016, FBGN0265268, FBGN0051524, FBGN0040528	107	41	8080	18.418053339411898	9.278845669591362E-8	1.855769204972546E-8	1.9065625522785012E-6
GOTERM_MF_FAT	GO:0019842~vitamin binding	10	4.310344827586207	2.1577094824086202E-9	FBGN0042182, FBGN0052201, FBGN0039783, FBGN0036795, FBGN0039782, FBGN0036793, FBGN0051016, FBGN0265268, FBGN0051524, FBGN0040528	122	40	8946	18.331967213114755	4.0349158725305756E-7	3.36243051179963E-8	2.6746812542555176E-6
GOTERM_MF_ALL	GO:0019842~vitamin binding	10	4.310344827586207	2.2470686118475186E-9	FBGN0042182, FBGN0052201, FBGN0039783, FBGN0036795, FBGN0039782, FBGN0036793, FBGN0051016, FBGN0265268, FBGN0051524, FBGN0040528	127	40	9284	18.275590551181104	4.404253574064043E-7	3.670212056494648E-8	2.8071486912750743E-6
GOTERM_MF_2	GO:0030234~enzyme regulator activity	22	9.482758620689655	2.423456491392867E-9	FBGN0259964, FBGN0015586, FBGN0020509, FBGN0034195, FBGN0051902, FBGN0004629, FBGN0028988, FBGN0036970, FBGN0053121, FBGN0051515, FBGN0262621, FBGN0263082, FBGN0041180, FBGN0052203, FBGN0033115, FBGN0259956, FBGN0259955, FBGN0083141, FBGN0028986, FBGN0259957, FBGN0028987, FBGN0259949	123	334	9157	4.9037047855508495	5.8162955451912524E-8	5.8162955451912524E-8	1.9440637100132108E-6
GOTERM_MF_FAT	GO:0031406~carboxylic acid binding	10	4.310344827586207	2.733400587991703E-9	FBGN0042182, FBGN0052201, FBGN0039783, FBGN0036795, FBGN0039782, FBGN0036793, FBGN0051016, FBGN0265268, FBGN0051524, FBGN0040528	122	41	8946	17.88484606157537	5.111457854756196E-7	3.931891590092107E-8	3.3883039041171514E-6
GOTERM_MF_ALL	GO:0031406~carboxylic acid binding	10	4.310344827586207	2.8463925091520505E-9	FBGN0042182, FBGN0052201, FBGN0039783, FBGN0036795, FBGN0039782, FBGN0036793, FBGN0051016, FBGN0265268, FBGN0051524, FBGN0040528	127	41	9284	17.829844440176682	5.578927663174582E-7	4.291483923779538E-8	3.5558534672297526E-6
GOTERM_MF_FAT	GO:0030234~enzyme regulator activity	22	9.482758620689655	3.125470759644806E-9	FBGN0259964, FBGN0015586, FBGN0020509, FBGN0034195, FBGN0051902, FBGN0004629, FBGN0028988, FBGN0036970, FBGN0053121, FBGN0051515, FBGN0262621, FBGN0263082, FBGN0041180, FBGN0052203, FBGN0033115, FBGN0259956, FBGN0259955, FBGN0083141, FBGN0028986, FBGN0259957, FBGN0028987, FBGN0259949	122	334	8946	4.8299793854913124	5.844628643281169E-7	4.174735879214353E-8	3.874311260698704E-6
GOTERM_MF_4	GO:0016706~oxidoreductase activity, acting on paired donors, with incorporation or reduction of molecular oxygen, 2-oxoglutarate as one donor, and incorporation of one atom each of oxygen into both donors	10	4.310344827586207	3.17698557015257E-9	FBGN0042182, FBGN0052201, FBGN0039783, FBGN0036795, FBGN0039782, FBGN0036793, FBGN0051016, FBGN0265268, FBGN0051524, FBGN0040528	107	43	8080	17.561399695718322	1.4614132548551595E-7	2.435688906121669E-8	3.0028259323522377E-6
GOTERM_MF_ALL	GO:0030234~enzyme regulator activity	22	9.482758620689655	3.4906824191740467E-9	FBGN0259964, FBGN0015586, FBGN0020509, FBGN0034195, FBGN0051902, FBGN0004629, FBGN0028988, FBGN0036970, FBGN0053121, FBGN0051515, FBGN0262621, FBGN0263082, FBGN0041180, FBGN0052203, FBGN0033115, FBGN0259956, FBGN0259955, FBGN0083141, FBGN0028986, FBGN0259957, FBGN0028987, FBGN0259949	127	334	9284	4.815125654203404	6.841735195051157E-7	4.886955262684012E-8	4.360732164254699E-6
GOTERM_MF_FAT	GO:0016706~oxidoreductase activity, acting on paired donors, with incorporation or reduction of molecular oxygen, 2-oxoglutarate as one donor, and incorporation of one atom each of oxygen into both donors	10	4.310344827586207	4.301117941030723E-9	FBGN0042182, FBGN0052201, FBGN0039783, FBGN0036795, FBGN0039782, FBGN0036793, FBGN0051016, FBGN0265268, FBGN0051524, FBGN0040528	122	43	8946	17.052992756385816	8.043087267317617E-7	5.3620601958570546E-8	5.331635022365333E-6
GOTERM_MF_ALL	GO:0016706~oxidoreductase activity, acting on paired donors, with incorporation or reduction of molecular oxygen, 2-oxoglutarate as one donor, and incorporation of one atom each of oxygen into both donors	10	4.310344827586207	4.4782592515294325E-9	FBGN0042182, FBGN0052201, FBGN0039783, FBGN0036795, FBGN0039782, FBGN0036793, FBGN0051016, FBGN0265268, FBGN0051524, FBGN0040528	127	43	9284	17.00054934993591	8.77738421500851E-7	5.851591877714668E-8	5.594461638391834E-6
GOTERM_MF_DIRECT	GO:0030246~carbohydrate binding	12	5.172413793103448	1.690222434110851E-8	FBGN0040098, FBGN0030050, FBGN0015583, FBGN0040107, FBGN0036527, FBGN0005585, FBGN0040093, FBGN0039596, FBGN0259958, FBGN0040092, FBGN0050463, FBGN0040097	127	85	9284	10.320333487725799	1.4535902445045323E-6	2.907182179434642E-7	1.822618634905737E-5
GOTERM_MF_3	GO:0051213~dioxygenase activity	10	4.310344827586207	3.216741549083309E-8	FBGN0042182, FBGN0052201, FBGN0039783, FBGN0036795, FBGN0039782, FBGN0036793, FBGN0051016, FBGN0265268, FBGN0051524, FBGN0040528	113	55	8531	13.726468222043444	1.3510305604258477E-6	2.7020625814611066E-7	2.977088283673268E-5
GOTERM_MF_FAT	GO:0051213~dioxygenase activity	10	4.310344827586207	4.232908520432108E-8	FBGN0042182, FBGN0052201, FBGN0039783, FBGN0036795, FBGN0039782, FBGN0036793, FBGN0051016, FBGN0265268, FBGN0051524, FBGN0040528	122	55	8946	13.332339791356183	7.915507779010511E-6	4.947210717753947E-7	5.247082021098137E-5
GOTERM_MF_ALL	GO:0051213~dioxygenase activity	10	4.310344827586207	4.4033871125320706E-8	FBGN0042182, FBGN0052201, FBGN0039783, FBGN0036795, FBGN0039782, FBGN0036793, FBGN0051016, FBGN0265268, FBGN0051524, FBGN0040528	127	55	9284	13.291338582677167	8.630601682768635E-6	5.394147873927224E-7	5.500926483215096E-5
GOTERM_MF_5	GO:0004252~serine-type endopeptidase activity	18	7.758620689655173	7.752970085674226E-8	FBGN0037036, FBGN0037039, FBGN0037038, FBGN0031409, FBGN0053462, FBGN0039598, FBGN0039597, FBGN0250841, FBGN0039568, FBGN0052382, FBGN0039599, FBGN0052383, FBGN0083966, FBGN0083965, FBGN0038014, FBGN0085324, FBGN0052833, FBGN0040341	87	280	6622	4.893103448275862	3.6438894437385017E-6	9.109736057721918E-7	7.363928058445879E-5
GOTERM_MF_3	GO:0043168~anion binding	11	4.741379310344827	1.7414316817774857E-7	FBGN0042182, FBGN0052201, FBGN0039783, FBGN0037433, FBGN0036795, FBGN0039782, FBGN0036793, FBGN0051016, FBGN0265268, FBGN0051524, FBGN0040528	113	87	8531	9.545417556708372	7.313986954748941E-6	1.2190015407087529E-6	1.611690817693301E-4
GOTERM_MF_2	GO:0030246~carbohydrate binding	12	5.172413793103448	1.9013924474904316E-7	FBGN0040098, FBGN0030050, FBGN0015583, FBGN0040107, FBGN0036527, FBGN0005585, FBGN0040093, FBGN0039596, FBGN0259958, FBGN0040092, FBGN0050463, FBGN0040097	123	109	9157	8.19601700604162	4.563331896800804E-6	2.2816685514293056E-6	1.5252700218404414E-4
GOTERM_MF_FAT	GO:0004252~serine-type endopeptidase activity	18	7.758620689655173	1.9273955904397285E-7	FBGN0037036, FBGN0037039, FBGN0037038, FBGN0031409, FBGN0053462, FBGN0039598, FBGN0039597, FBGN0250841, FBGN0039568, FBGN0052382, FBGN0039599, FBGN0052383, FBGN0083966, FBGN0083965, FBGN0038014, FBGN0085324, FBGN0052833, FBGN0040341	122	280	8946	4.713934426229508	3.604165150739025E-5	2.120133106853217E-6	2.3891832361400134E-4
GOTERM_MF_ALL	GO:0004252~serine-type endopeptidase activity	18	7.758620689655173	2.085786422322521E-7	FBGN0037036, FBGN0037039, FBGN0037038, FBGN0031409, FBGN0053462, FBGN0039598, FBGN0039597, FBGN0250841, FBGN0039568, FBGN0052382, FBGN0039599, FBGN0052383, FBGN0083966, FBGN0083965, FBGN0038014, FBGN0085324, FBGN0052833, FBGN0040341	127	280	9284	4.699437570303712	4.08805825100611E-5	2.4047864111143014E-6	2.6056639204075083E-4
GOTERM_MF_DIRECT	GO:0004252~serine-type endopeptidase activity	18	7.758620689655173	2.085786422322521E-7	FBGN0037036, FBGN0037039, FBGN0037038, FBGN0031409, FBGN0053462, FBGN0039598, FBGN0039597, FBGN0250841, FBGN0039568, FBGN0052382, FBGN0039599, FBGN0052383, FBGN0083966, FBGN0083965, FBGN0038014, FBGN0085324, FBGN0052833, FBGN0040341	127	280	9284	4.699437570303712	1.7937604223194903E-5	2.9896230483439368E-6	2.249165300449718E-4
GOTERM_MF_FAT	GO:0030246~carbohydrate binding	12	5.172413793103448	2.200594947203999E-7	FBGN0040098, FBGN0030050, FBGN0015583, FBGN0040107, FBGN0036527, FBGN0005585, FBGN0040093, FBGN0039596, FBGN0259958, FBGN0040092, FBGN0050463, FBGN0040097	122	109	8946	8.072792901188148	4.115028334761295E-5	2.2861712780652965E-6	2.7278384178153203E-4
GOTERM_MF_ALL	GO:0030246~carbohydrate binding	12	5.172413793103448	2.3096770820510398E-7	FBGN0040098, FBGN0030050, FBGN0015583, FBGN0040107, FBGN0036527, FBGN0005585, FBGN0040093, FBGN0039596, FBGN0259958, FBGN0040092, FBGN0050463, FBGN0040097	127	109	9284	8.047966481254063	4.5268651375107716E-5	2.514978839185389E-6	2.885358443505126E-4
GOTERM_MF_FAT	GO:0043168~anion binding	11	4.741379310344827	2.3451246432599473E-7	FBGN0042182, FBGN0052201, FBGN0039783, FBGN0037433, FBGN0036795, FBGN0039782, FBGN0036793, FBGN0051016, FBGN0265268, FBGN0051524, FBGN0040528	122	87	8946	9.271339739966082	4.3852874407668274E-5	2.3080939665076627E-6	2.906995936524659E-4
GOTERM_MF_5	GO:0008236~serine-type peptidase activity	18	7.758620689655173	2.437378486013362E-7	FBGN0037036, FBGN0037039, FBGN0037038, FBGN0031409, FBGN0053462, FBGN0039598, FBGN0039597, FBGN0250841, FBGN0039568, FBGN0052382, FBGN0039599, FBGN0052383, FBGN0083966, FBGN0083965, FBGN0038014, FBGN0085324, FBGN0052833, FBGN0040341	87	303	6622	4.521679754182315	1.1455614662869706E-5	2.291133431087111E-6	2.3150698298390893E-4
GOTERM_MF_ALL	GO:0043168~anion binding	11	4.741379310344827	2.4492972472539416E-7	FBGN0042182, FBGN0052201, FBGN0039783, FBGN0037433, FBGN0036795, FBGN0039782, FBGN0036793, FBGN0051016, FBGN0265268, FBGN0051524, FBGN0040528	127	87	9284	9.24282740519504	4.800507964430878E-5	2.5266405935253644E-6	3.0597783481356444E-4
GOTERM_MF_FAT	GO:0098772~molecular function regulator	22	9.482758620689655	2.5163401339813755E-7	FBGN0259964, FBGN0015586, FBGN0020509, FBGN0034195, FBGN0051902, FBGN0004629, FBGN0028988, FBGN0036970, FBGN0053121, FBGN0051515, FBGN0262621, FBGN0263082, FBGN0041180, FBGN0052203, FBGN0033115, FBGN0259956, FBGN0259955, FBGN0083141, FBGN0028986, FBGN0259957, FBGN0028987, FBGN0259949	122	430	8946	3.75165840640488	4.7054459331175025E-5	2.3527755536045802E-6	3.1192328525664337E-4
GOTERM_MF_1	GO:0098772~molecular function regulator	22	9.482758620689655	2.7802332877736073E-7	FBGN0259964, FBGN0015586, FBGN0020509, FBGN0034195, FBGN0051902, FBGN0004629, FBGN0028988, FBGN0036970, FBGN0053121, FBGN0051515, FBGN0262621, FBGN0263082, FBGN0041180, FBGN0052203, FBGN0033115, FBGN0259956, FBGN0259955, FBGN0083141, FBGN0028986, FBGN0259957, FBGN0028987, FBGN0259949	127	430	9284	3.7401208569859	1.946161678367808E-6	1.946161678367808E-6	1.4333047275716382E-4
GOTERM_MF_ALL	GO:0098772~molecular function regulator	22	9.482758620689655	2.7802332877736073E-7	FBGN0259964, FBGN0015586, FBGN0020509, FBGN0034195, FBGN0051902, FBGN0004629, FBGN0028988, FBGN0036970, FBGN0053121, FBGN0051515, FBGN0262621, FBGN0263082, FBGN0041180, FBGN0052203, FBGN0033115, FBGN0259956, FBGN0259955, FBGN0083141, FBGN0028986, FBGN0259957, FBGN0028987, FBGN0259949	127	430	9284	3.7401208569859	5.4491095326958394E-5	2.7246252892743072E-6	3.473198693759727E-4
GOTERM_MF_4	GO:0008236~serine-type peptidase activity	18	7.758620689655173	3.474871425125626E-7	FBGN0037036, FBGN0037039, FBGN0037038, FBGN0031409, FBGN0053462, FBGN0039598, FBGN0039597, FBGN0250841, FBGN0039568, FBGN0052382, FBGN0039599, FBGN0052383, FBGN0083966, FBGN0083965, FBGN0038014, FBGN0085324, FBGN0052833, FBGN0040341	107	303	8080	4.485981308411215	1.5984283582404224E-5	2.283484726084417E-6	3.284377170564845E-4
GOTERM_MF_3	GO:0017171~serine hydrolase activity	18	7.758620689655173	3.859173906570429E-7	FBGN0037036, FBGN0037039, FBGN0037038, FBGN0031409, FBGN0053462, FBGN0039598, FBGN0039597, FBGN0250841, FBGN0039568, FBGN0052382, FBGN0039599, FBGN0052383, FBGN0083966, FBGN0083965, FBGN0038014, FBGN0085324, FBGN0052833, FBGN0040341	113	304	8531	4.470132743362832	1.6208402179862524E-5	2.31550211027276E-6	3.5716530122353873E-4
GOTERM_MF_5	GO:0004175~endopeptidase activity	21	9.051724137931034	4.786011888669863E-7	FBGN0037036, FBGN0036154, FBGN0037039, FBGN0037038, FBGN0031409, FBGN0053462, FBGN0039598, FBGN0039597, FBGN0250841, FBGN0039568, FBGN0028944, FBGN0052382, FBGN0039599, FBGN0052383, FBGN0083966, FBGN0083965, FBGN0038014, FBGN0085324, FBGN0052833, FBGN0034229, FBGN0040341	87	436	6622	3.666086681429927	2.249400826725978E-5	3.7490365158987515E-6	4.5458433054479386E-4
GOTERM_MF_FAT	GO:0008236~serine-type peptidase activity	18	7.758620689655173	5.915216556633875E-7	FBGN0037036, FBGN0037039, FBGN0037038, FBGN0031409, FBGN0053462, FBGN0039598, FBGN0039597, FBGN0250841, FBGN0039568, FBGN0052382, FBGN0039599, FBGN0052383, FBGN0083966, FBGN0083965, FBGN0038014, FBGN0085324, FBGN0052833, FBGN0040341	122	303	8946	4.356111020938159	1.10608464756079E-4	5.26734719052957E-6	7.332435639550994E-4
GOTERM_MF_FAT	GO:0017171~serine hydrolase activity	18	7.758620689655173	6.195387247926692E-7	FBGN0037036, FBGN0037039, FBGN0037038, FBGN0031409, FBGN0053462, FBGN0039598, FBGN0039597, FBGN0250841, FBGN0039568, FBGN0052382, FBGN0039599, FBGN0052383, FBGN0083966, FBGN0083965, FBGN0038014, FBGN0085324, FBGN0052833, FBGN0040341	122	304	8946	4.341781708369284	1.1584706662959299E-4	5.266066925968538E-6	7.679730838039411E-4
GOTERM_MF_ALL	GO:0008236~serine-type peptidase activity	18	7.758620689655173	6.386936664438819E-7	FBGN0037036, FBGN0037039, FBGN0037038, FBGN0031409, FBGN0053462, FBGN0039598, FBGN0039597, FBGN0250841, FBGN0039568, FBGN0052382, FBGN0039599, FBGN0052383, FBGN0083966, FBGN0083965, FBGN0038014, FBGN0085324, FBGN0052833, FBGN0040341	127	303	9284	4.342714586419271	1.2517616340157467E-4	5.961125022491132E-6	7.978846307543641E-4
GOTERM_MF_ALL	GO:0017171~serine hydrolase activity	18	7.758620689655173	6.688799583075108E-7	FBGN0037036, FBGN0037039, FBGN0037038, FBGN0031409, FBGN0053462, FBGN0039598, FBGN0039597, FBGN0250841, FBGN0039568, FBGN0052382, FBGN0039599, FBGN0052383, FBGN0083966, FBGN0083965, FBGN0038014, FBGN0085324, FBGN0052833, FBGN0040341	127	304	9284	4.328429341069208	1.3109192237692469E-4	5.9590965932887485E-6	8.355945487759087E-4
GOTERM_MF_4	GO:0005534~galactose binding	6	2.586206896551724	9.561763693091907E-7	FBGN0040098, FBGN0015583, FBGN0040107, FBGN0040093, FBGN0040092, FBGN0040097	107	15	8080	30.205607476635514	4.3983166728489564E-5	5.498001637960215E-6	9.037559599356371E-4
GOTERM_MF_FAT	GO:0005534~galactose binding	6	2.586206896551724	1.122831700413583E-6	FBGN0040098, FBGN0015583, FBGN0040107, FBGN0040093, FBGN0040092, FBGN0040097	122	15	8946	29.331147540983604	2.0994760377091026E-4	9.12907336692026E-6	0.0013918452813621585
GOTERM_MF_ALL	GO:0005534~galactose binding	6	2.586206896551724	1.145276761857598E-6	FBGN0040098, FBGN0015583, FBGN0040107, FBGN0040093, FBGN0040092, FBGN0040097	127	15	9284	29.24094488188976	2.244491813822025E-4	9.759707759404712E-6	0.0014307266758772919
GOTERM_MF_DIRECT	GO:0005534~galactose binding	6	2.586206896551724	1.145276761857598E-6	FBGN0040098, FBGN0015583, FBGN0040107, FBGN0040093, FBGN0040092, FBGN0040097	127	15	9284	29.24094488188976	9.848900756148637E-5	1.4070452141967671E-5	0.0012349802077538108
GOTERM_MF_FAT	GO:0004175~endopeptidase activity	21	9.051724137931034	1.3556019955000596E-6	FBGN0037036, FBGN0036154, FBGN0037039, FBGN0037038, FBGN0031409, FBGN0053462, FBGN0039598, FBGN0039597, FBGN0250841, FBGN0039568, FBGN0028944, FBGN0052382, FBGN0039599, FBGN0052383, FBGN0083966, FBGN0083965, FBGN0038014, FBGN0085324, FBGN0052833, FBGN0034229, FBGN0040341	122	436	8946	3.531846894269815	2.5346561714945093E-4	1.0562350259202269E-5	0.0016803816081822909
GOTERM_MF_ALL	GO:0004175~endopeptidase activity	21	9.051724137931034	1.4827469422041343E-6	FBGN0037036, FBGN0036154, FBGN0037039, FBGN0037038, FBGN0031409, FBGN0053462, FBGN0039598, FBGN0039597, FBGN0250841, FBGN0039568, FBGN0028944, FBGN0052382, FBGN0039599, FBGN0052383, FBGN0083966, FBGN0083965, FBGN0038014, FBGN0085324, FBGN0052833, FBGN0034229, FBGN0040341	127	436	9284	3.520985335548653	2.90576390634123E-4	1.2109035690599512E-5	0.0018523046661389486
GOTERM_MF_4	GO:0070011~peptidase activity, acting on L-amino acid peptides	24	10.344827586206897	2.4194354916010565E-6	FBGN0037036, FBGN0036154, FBGN0037039, FBGN0037038, FBGN0031409, FBGN0053462, FBGN0039598, FBGN0039597, FBGN0250841, FBGN0029804, FBGN0039568, FBGN0028944, FBGN0030222, FBGN0052382, FBGN0036186, FBGN0039599, FBGN0052383, FBGN0083966, FBGN0083965, FBGN0038014, FBGN0085324, FBGN0052833, FBGN0034229, FBGN0040341	107	603	8080	3.00553308225229	1.1128797428294757E-4	1.236594212428166E-5	0.0022867807598636603
GOTERM_MF_3	GO:0008233~peptidase activity	24	10.344827586206897	3.883754298274305E-6	FBGN0037036, FBGN0036154, FBGN0037039, FBGN0037038, FBGN0031409, FBGN0053462, FBGN0039598, FBGN0039597, FBGN0250841, FBGN0029804, FBGN0039568, FBGN0028944, FBGN0030222, FBGN0052382, FBGN0036186, FBGN0039599, FBGN0052383, FBGN0083966, FBGN0083965, FBGN0038014, FBGN0085324, FBGN0052833, FBGN0034229, FBGN0040341	113	617	8531	2.9366188092540266	1.6310469426561447E-4	2.0389541790843957E-5	0.003594350192015483
GOTERM_MF_FAT	GO:0070011~peptidase activity, acting on L-amino acid peptides	24	10.344827586206897	4.741514439641886E-6	FBGN0037036, FBGN0036154, FBGN0037039, FBGN0037038, FBGN0031409, FBGN0053462, FBGN0039598, FBGN0039597, FBGN0250841, FBGN0029804, FBGN0039568, FBGN0028944, FBGN0030222, FBGN0052382, FBGN0036186, FBGN0039599, FBGN0052383, FBGN0083966, FBGN0083965, FBGN0038014, FBGN0085324, FBGN0052833, FBGN0034229, FBGN0040341	122	603	8946	2.9185221433814537	8.862723307552223E-4	3.546598315840033E-5	0.005877388769748304
GOTERM_MF_ALL	GO:0070011~peptidase activity, acting on L-amino acid peptides	24	10.344827586206897	5.240340018973716E-6	FBGN0037036, FBGN0036154, FBGN0037039, FBGN0037038, FBGN0031409, FBGN0053462, FBGN0039598, FBGN0039597, FBGN0250841, FBGN0029804, FBGN0039568, FBGN0028944, FBGN0030222, FBGN0052382, FBGN0036186, FBGN0039599, FBGN0052383, FBGN0083966, FBGN0083965, FBGN0038014, FBGN0085324, FBGN0052833, FBGN0034229, FBGN0040341	127	603	9284	2.9095467544168923	0.0010265820386644586	4.108352944520721E-5	0.006546293509834822
GOTERM_MF_FAT	GO:0008233~peptidase activity	24	10.344827586206897	6.9476117174354065E-6	FBGN0037036, FBGN0036154, FBGN0037039, FBGN0037038, FBGN0031409, FBGN0053462, FBGN0039598, FBGN0039597, FBGN0250841, FBGN0029804, FBGN0039568, FBGN0028944, FBGN0030222, FBGN0052382, FBGN0036186, FBGN0039599, FBGN0052383, FBGN0083966, FBGN0083965, FBGN0038014, FBGN0085324, FBGN0052833, FBGN0034229, FBGN0040341	122	617	8946	2.852299598799054	0.0012983642991614142	4.99682863270845E-5	0.008611869123231752
GOTERM_MF_ALL	GO:0008233~peptidase activity	24	10.344827586206897	7.666531080140318E-6	FBGN0037036, FBGN0036154, FBGN0037039, FBGN0037038, FBGN0031409, FBGN0053462, FBGN0039598, FBGN0039597, FBGN0250841, FBGN0029804, FBGN0039568, FBGN0028944, FBGN0030222, FBGN0052382, FBGN0036186, FBGN0039599, FBGN0052383, FBGN0083966, FBGN0083965, FBGN0038014, FBGN0085324, FBGN0052833, FBGN0034229, FBGN0040341	127	617	9284	2.84352786533774	0.0015015174447363666	5.779240117576023E-5	0.009576985996162524
GOTERM_MF_3	GO:0048029~monosaccharide binding	6	2.586206896551724	9.936298654229007E-6	FBGN0040098, FBGN0015583, FBGN0040107, FBGN0040093, FBGN0040092, FBGN0040097	113	23	8531	19.69449788380146	4.172395481807367E-4	4.636854903683485E-5	0.0091956498877388
GOTERM_MF_FAT	GO:0048029~monosaccharide binding	6	2.586206896551724	1.1536586685191596E-5	FBGN0040098, FBGN0015583, FBGN0040107, FBGN0040093, FBGN0040092, FBGN0040097	122	23	8946	19.129009265858873	0.002155028738479392	7.989881363845708E-5	0.014299730747524553
GOTERM_MF_ALL	GO:0048029~monosaccharide binding	6	2.586206896551724	1.176203328938002E-5	FBGN0040098, FBGN0015583, FBGN0040107, FBGN0040093, FBGN0040092, FBGN0040097	127	23	9284	19.070181444710716	0.002302716753348699	8.538050608708492E-5	0.014692717740061312
GOTERM_MF_4	GO:0016298~lipase activity	8	3.4482758620689653	4.0079772922677894E-5	FBGN0265264, FBGN0033999, FBGN0250847, FBGN0038067, FBGN0051872, FBGN0043825, FBGN0030828, FBGN0085476	107	72	8080	8.390446521287643	0.0018420079195802241	1.8435365501190404E-4	0.037876218936760964
GOTERM_MF_DIRECT	GO:0005179~hormone activity	6	2.586206896551724	4.616237700739859E-5	FBGN0267327, FBGN0003034, FBGN0023415, FBGN0263597, FBGN0250832, FBGN0011559	127	30	9284	14.62047244094488	0.003962185802966034	4.96133891976891E-4	0.049767070750261766
GOTERM_MF_DIRECT	GO:0016298~lipase activity	6	2.586206896551724	4.616237700739859E-5	FBGN0265264, FBGN0033999, FBGN0038067, FBGN0043825, FBGN0030828, FBGN0085476	127	30	9284	14.62047244094488	0.003962185802966034	4.96133891976891E-4	0.049767070750261766
GOTERM_MF_FAT	GO:0016298~lipase activity	8	3.4482758620689653	4.951297699302366E-5	FBGN0265264, FBGN0033999, FBGN0250847, FBGN0038067, FBGN0051872, FBGN0043825, FBGN0030828, FBGN0085476	122	72	8946	8.147540983606557	0.009216421934833963	3.3062947016115896E-4	0.061358621363782895
GOTERM_MF_ALL	GO:0016298~lipase activity	8	3.4482758620689653	5.085482013420043E-5	FBGN0265264, FBGN0033999, FBGN0250847, FBGN0038067, FBGN0051872, FBGN0043825, FBGN0030828, FBGN0085476	127	72	9284	8.122484689413824	0.009918284354483053	3.5592943507523067E-4	0.06351178213832576
GOTERM_MF_5	GO:0003756~protein disulfide isomerase activity	5	2.1551724137931036	7.06286875159438E-5	FBGN0038918, FBGN0038919, FBGN0051413, FBGN0037498, FBGN0014002	87	18	6622	21.143039591315453	0.0033141615489312715	4.7412550217018623E-4	0.06706445127302452
GOTERM_MF_4	GO:0016864~intramolecular oxidoreductase activity, transposing S-S bonds	5	2.1551724137931036	7.432758544266637E-5	FBGN0038918, FBGN0038919, FBGN0051413, FBGN0037498, FBGN0014002	107	18	8080	20.976116303219108	0.0034133572081342933	3.107876956981448E-4	0.07023094932039342
GOTERM_MF_FAT	GO:0003756~protein disulfide isomerase activity	5	2.1551724137931036	8.41513895191346E-5	FBGN0038918, FBGN0038919, FBGN0051413, FBGN0037498, FBGN0014002	122	18	8946	20.36885245901639	0.015613792851686625	5.425069965039331E-4	0.10426346081237048
GOTERM_MF_FAT	GO:0016864~intramolecular oxidoreductase activity, transposing S-S bonds	5	2.1551724137931036	8.41513895191346E-5	FBGN0038918, FBGN0038919, FBGN0051413, FBGN0037498, FBGN0014002	122	18	8946	20.36885245901639	0.015613792851686625	5.425069965039331E-4	0.10426346081237048
GOTERM_MF_ALL	GO:0016864~intramolecular oxidoreductase activity, transposing S-S bonds	5	2.1551724137931036	8.541509438182666E-5	FBGN0038918, FBGN0038919, FBGN0051413, FBGN0037498, FBGN0014002	127	18	9284	20.30621172353456	0.01660270387191276	5.77146267049633E-4	0.10665238252974829
GOTERM_MF_ALL	GO:0003756~protein disulfide isomerase activity	5	2.1551724137931036	8.541509438182666E-5	FBGN0038918, FBGN0038919, FBGN0051413, FBGN0037498, FBGN0014002	127	18	9284	20.30621172353456	0.01660270387191276	5.77146267049633E-4	0.10665238252974829
GOTERM_MF_DIRECT	GO:0003756~protein disulfide isomerase activity	5	2.1551724137931036	8.541509438182666E-5	FBGN0038918, FBGN0038919, FBGN0051413, FBGN0037498, FBGN0014002	127	18	9284	20.30621172353456	0.007319095855130575	8.158905192300336E-4	0.0920672469760464
GOTERM_MF_DIRECT	GO:0005506~iron ion binding	10	4.310344827586207	1.759826948051702E-4	FBGN0042182, FBGN0052201, FBGN0039783, FBGN0036795, FBGN0039782, FBGN0036793, FBGN0051016, FBGN0265268, FBGN0051524, FBGN0040528	127	148	9284	4.939348797616514	0.015021872475600606	0.001512439470450877	0.1896042711593493
GOTERM_MF_FAT	GO:0005506~iron ion binding	10	4.310344827586207	2.4121950746140974E-4	FBGN0042182, FBGN0052201, FBGN0039783, FBGN0036795, FBGN0039782, FBGN0036793, FBGN0051016, FBGN0265268, FBGN0051524, FBGN0040528	122	155	8946	4.730830248545742	0.04411100743909746	0.0015026528596321365	0.29860334556458534
GOTERM_MF_ALL	GO:0005506~iron ion binding	10	4.310344827586207	2.491897474488218E-4	FBGN0042182, FBGN0052201, FBGN0039783, FBGN0036795, FBGN0039782, FBGN0036793, FBGN0051016, FBGN0265268, FBGN0051524, FBGN0040528	127	155	9284	4.716281432562865	0.0476734391168826	0.0016269176946804853	0.31085473139480513
GOTERM_MF_3	GO:0016705~oxidoreductase activity, acting on paired donors, with incorporation or reduction of molecular oxygen	10	4.310344827586207	2.9111193648733466E-4	FBGN0042182, FBGN0052201, FBGN0039783, FBGN0036795, FBGN0039782, FBGN0036793, FBGN0051016, FBGN0265268, FBGN0051524, FBGN0040528	113	164	8531	4.603388733002374	0.012154017305688325	0.0012221007606207923	0.2691000867332649
GOTERM_MF_FAT	GO:0016705~oxidoreductase activity, acting on paired donors, with incorporation or reduction of molecular oxygen	10	4.310344827586207	3.669887404666208E-4	FBGN0042182, FBGN0052201, FBGN0039783, FBGN0036795, FBGN0039782, FBGN0036793, FBGN0051016, FBGN0265268, FBGN0051524, FBGN0040528	122	164	8946	4.4712115153938425	0.066336785846693	0.002211727621228232	0.45396656899423515
GOTERM_MF_ALL	GO:0016705~oxidoreductase activity, acting on paired donors, with incorporation or reduction of molecular oxygen	10	4.310344827586207	3.7888729833195507E-4	FBGN0042182, FBGN0052201, FBGN0039783, FBGN0036795, FBGN0039782, FBGN0036793, FBGN0051016, FBGN0265268, FBGN0051524, FBGN0040528	127	164	9284	4.457461110044171	0.07158456790769185	0.002393131319155306	0.47229551019569715
GOTERM_MF_4	GO:0005179~hormone activity	6	2.586206896551724	5.62857120111709E-4	FBGN0267327, FBGN0003034, FBGN0023415, FBGN0263597, FBGN0250832, FBGN0011559	107	52	8080	8.71315600287563	0.025566221664276467	0.002155899107945003	0.5307381405463274
GOTERM_MF_FAT	GO:0005179~hormone activity	6	2.586206896551724	6.516458743843699E-4	FBGN0267327, FBGN0003034, FBGN0023415, FBGN0263597, FBGN0250832, FBGN0011559	122	52	8946	8.460907944514501	0.1147608989858675	0.003802050702105486	0.8047830364119157
GOTERM_MF_ALL	GO:0005179~hormone activity	6	2.586206896551724	6.633485094083778E-4	FBGN0267327, FBGN0003034, FBGN0023415, FBGN0263597, FBGN0250832, FBGN0011559	127	52	9284	8.43488794669897	0.12195677028878049	0.004056109488345783	0.8255361578719644
GOTERM_MF_DIRECT	GO:0016788~hydrolase activity, acting on ester bonds	5	2.1551724137931036	8.666274017748129E-4	FBGN0265264, FBGN0033999, FBGN0038067, FBGN0038069, FBGN0043825	127	32	9284	11.422244094488189	0.07185032368999666	0.006755466734782445	0.9305593762141351
GOTERM_MF_3	GO:0016860~intramolecular oxidoreductase activity	5	2.1551724137931036	9.636686771614877E-4	FBGN0038918, FBGN0038919, FBGN0051413, FBGN0037498, FBGN0014002	113	34	8531	11.10229047371161	0.03968468832098859	0.003674468809503506	0.8883344721547837
GOTERM_MF_FAT	GO:0016860~intramolecular oxidoreductase activity	5	2.1551724137931036	0.001079156802541777	FBGN0038918, FBGN0038919, FBGN0051413, FBGN0037498, FBGN0014002	122	34	8946	10.78351012536162	0.18283258324950147	0.006099843848705655	1.329520170158871
GOTERM_MF_ALL	GO:0016860~intramolecular oxidoreductase activity	5	2.1551724137931036	0.0010945102456717526	FBGN0038918, FBGN0038919, FBGN0051413, FBGN0037498, FBGN0014002	127	34	9284	10.750347383047707	0.19316935743293673	0.006483180582090964	1.358749399838688
GOTERM_MF_5	GO:0016972~thiol oxidase activity	3	1.293103448275862	0.001625350277495129	FBGN0038918, FBGN0038919, FBGN0051413	87	5	6622	45.668965517241375	0.07360411290411639	0.009511181330890017	1.5331724742693842
GOTERM_MF_FAT	GO:0016971~flavin-linked sulfhydryl oxidase activity	3	1.293103448275862	0.0017666939209015548	FBGN0038918, FBGN0038919, FBGN0051413	122	5	8946	43.99672131147541	0.2815534305691487	0.009678271146923434	2.1680700456550683
GOTERM_MF_FAT	GO:0016972~thiol oxidase activity	3	1.293103448275862	0.0017666939209015548	FBGN0038918, FBGN0038919, FBGN0051413	122	5	8946	43.99672131147541	0.2815534305691487	0.009678271146923434	2.1680700456550683
GOTERM_MF_ALL	GO:0016972~thiol oxidase activity	3	1.293103448275862	0.0017791545230303393	FBGN0038918, FBGN0038919, FBGN0051413	127	5	9284	43.86141732283465	0.29462440787399746	0.010212927386445858	2.200025446922471
GOTERM_MF_ALL	GO:0016971~flavin-linked sulfhydryl oxidase activity	3	1.293103448275862	0.0017791545230303393	FBGN0038918, FBGN0038919, FBGN0051413	127	5	9284	43.86141732283465	0.29462440787399746	0.010212927386445858	2.200025446922471
GOTERM_MF_DIRECT	GO:0016971~flavin-linked sulfhydryl oxidase activity	3	1.293103448275862	0.0017791545230303393	FBGN0038918, FBGN0038919, FBGN0051413	127	5	9284	43.86141732283465	0.14199346454613349	0.012680874996553237	1.90190679993828
GOTERM_MF_2	GO:0016787~hydrolase activity	41	17.67241379310345	0.0021241455751323593	FBGN0265264, FBGN0036154, FBGN0037036, FBGN0037039, FBGN0041629, FBGN0265267, FBGN0037038, FBGN0034417, FBGN0039568, FBGN0052382, FBGN0030222, FBGN0016123, FBGN0052383, FBGN0083966, FBGN0083965, FBGN0038014, FBGN0001218, FBGN0038067, FBGN0032192, FBGN0038069, FBGN0010406, FBGN0034229, FBGN0085476, FBGN0040341, FBGN0033999, FBGN0250847, FBGN0031409, FBGN0053462, FBGN0051872, FBGN0039598, FBGN0039597, FBGN0250841, FBGN0030362, FBGN0029804, FBGN0028944, FBGN0036186, FBGN0039599, FBGN0085324, FBGN0052833, FBGN0043825, FBGN0030828	123	1956	9157	1.5604976141785958	0.049753367127855164	0.01686736404597733	1.6913069154893212
GOTERM_MF_4	GO:0016670~oxidoreductase activity, acting on a sulfur group of donors, oxygen as acceptor	3	1.293103448275862	0.0024709575957604533	FBGN0038918, FBGN0038919, FBGN0051413	107	6	8080	37.757009345794394	0.10756777865965295	0.008716002001643908	2.311263553975451
GOTERM_MF_FAT	GO:0016670~oxidoreductase activity, acting on a sulfur group of donors, oxygen as acceptor	3	1.293103448275862	0.0026266081719244286	FBGN0038918, FBGN0038919, FBGN0051413	122	6	8946	36.66393442622951	0.38848874778740183	0.013953785653088135	3.2076363971880295
GOTERM_MF_ALL	GO:0016670~oxidoreductase activity, acting on a sulfur group of donors, oxygen as acceptor	3	1.293103448275862	0.0026450382514856562	FBGN0038918, FBGN0038919, FBGN0051413	127	6	9284	36.55118110236221	0.4049526751208139	0.014722388326447344	3.2545512827766965
GOTERM_MF_ALL	GO:0016787~hydrolase activity	41	17.67241379310345	0.0031504992204313027	FBGN0265264, FBGN0036154, FBGN0037036, FBGN0037039, FBGN0041629, FBGN0265267, FBGN0037038, FBGN0034417, FBGN0039568, FBGN0052382, FBGN0030222, FBGN0016123, FBGN0052383, FBGN0083966, FBGN0083965, FBGN0038014, FBGN0001218, FBGN0038067, FBGN0032192, FBGN0038069, FBGN0010406, FBGN0034229, FBGN0085476, FBGN0040341, FBGN0033999, FBGN0250847, FBGN0031409, FBGN0053462, FBGN0051872, FBGN0039598, FBGN0039597, FBGN0250841, FBGN0030362, FBGN0029804, FBGN0028944, FBGN0036186, FBGN0039599, FBGN0085324, FBGN0052833, FBGN0043825, FBGN0030828	127	1956	9284	1.5323092282176385	0.46123328272930364	0.01703306347492728	3.86528675585468
GOTERM_MF_4	GO:0052689~carboxylic ester hydrolase activity	7	3.0172413793103448	0.006115585836311711	FBGN0265264, FBGN0265267, FBGN0250847, FBGN0051872, FBGN0030362, FBGN0030828, FBGN0085476	107	126	8080	4.195223260643821	0.24586258587539556	0.019953993400029013	5.633195504125766
GOTERM_MF_2	GO:0016853~isomerase activity	7	3.0172413793103448	0.006397613346990931	FBGN0010470, FBGN0038918, FBGN0038919, FBGN0051413, FBGN0037498, FBGN0034753, FBGN0014002	123	125	9157	4.169040650406504	0.14275882198025136	0.03777695018656013	5.018271918514772
GOTERM_MF_FAT	GO:0016853~isomerase activity	7	3.0172413793103448	0.0068648862194224435	FBGN0010470, FBGN0038918, FBGN0038919, FBGN0051413, FBGN0037498, FBGN0034753, FBGN0014002	122	125	8946	4.1063606557377055	0.7242223451862411	0.035149615437592874	8.184593364779358
GOTERM_MF_ALL	GO:0016853~isomerase activity	7	3.0172413793103448	0.006994124604857694	FBGN0010470, FBGN0038918, FBGN0038919, FBGN0051413, FBGN0037498, FBGN0034753, FBGN0014002	127	125	9284	4.093732283464567	0.7473284451342823	0.03649743667086047	8.39469775234405
GOTERM_MF_FAT	GO:0052689~carboxylic ester hydrolase activity	7	3.0172413793103448	0.007130284292359001	FBGN0265264, FBGN0265267, FBGN0250847, FBGN0051872, FBGN0030362, FBGN0030828, FBGN0085476	122	126	8946	4.073770491803279	0.7376667166841151	0.03551975860590939	8.488278043005304
GOTERM_MF_ALL	GO:0052689~carboxylic ester hydrolase activity	7	3.0172413793103448	0.007264134268765732	FBGN0265264, FBGN0265267, FBGN0250847, FBGN0051872, FBGN0030362, FBGN0030828, FBGN0085476	127	126	9284	4.061242344706912	0.7604436783446104	0.03690612252148329	8.705381638746957
GOTERM_MF_1	GO:0003824~catalytic activity	73	31.46551724137931	0.007504297288284565	FBGN0042182, FBGN0032080, FBGN0036154, FBGN0032843, FBGN0034417, FBGN0034415, FBGN0030222, FBGN0050463, FBGN0040528, FBGN0083966, FBGN0083965, FBGN0038014, FBGN0032192, FBGN0010406, FBGN0034229, FBGN0085476, FBGN0033999, FBGN0250847, FBGN0031409, FBGN0052190, FBGN0051872, FBGN0039598, FBGN0039597, FBGN0250841, FBGN0039596, FBGN0029804, FBGN0028944, FBGN0037498, FBGN0051524, FBGN0030589, FBGN0039599, FBGN0035216, FBGN0052201, FBGN0010470, FBGN0085324, FBGN0043825, FBGN0030828, FBGN0265264, FBGN0037036, FBGN0037039, FBGN0041629, FBGN0037038, FBGN0265267, FBGN0039568, FBGN0052382, FBGN0016123, FBGN0052383, FBGN0001218, FBGN0001112, FBGN0038067, FBGN0038069, FBGN0051016, FBGN0030932, FBGN0003862, FBGN0051413, FBGN0265268, FBGN0014002, FBGN0040341, FBGN0031468, FBGN0036795, FBGN0050438, FBGN0036793, FBGN0053462, FBGN0030362, FBGN0040628, FBGN0036186, FBGN0034753, FBGN0039783, FBGN0039782, FBGN0036527, FBGN0052833, FBGN0038918, FBGN0038919	127	4271	9284	1.2494667386899745	0.0513621575070925	0.026019588239626135	3.808877593077431
GOTERM_MF_ALL	GO:0003824~catalytic activity	73	31.46551724137931	0.007504297288284565	FBGN0042182, FBGN0032080, FBGN0036154, FBGN0032843, FBGN0034417, FBGN0034415, FBGN0030222, FBGN0050463, FBGN0040528, FBGN0083966, FBGN0083965, FBGN0038014, FBGN0032192, FBGN0010406, FBGN0034229, FBGN0085476, FBGN0033999, FBGN0250847, FBGN0031409, FBGN0052190, FBGN0051872, FBGN0039598, FBGN0039597, FBGN0250841, FBGN0039596, FBGN0029804, FBGN0028944, FBGN0037498, FBGN0051524, FBGN0030589, FBGN0039599, FBGN0035216, FBGN0052201, FBGN0010470, FBGN0085324, FBGN0043825, FBGN0030828, FBGN0265264, FBGN0037036, FBGN0037039, FBGN0041629, FBGN0037038, FBGN0265267, FBGN0039568, FBGN0052382, FBGN0016123, FBGN0052383, FBGN0001218, FBGN0001112, FBGN0038067, FBGN0038069, FBGN0051016, FBGN0030932, FBGN0003862, FBGN0051413, FBGN0265268, FBGN0014002, FBGN0040341, FBGN0031468, FBGN0036795, FBGN0050438, FBGN0036793, FBGN0053462, FBGN0030362, FBGN0040628, FBGN0036186, FBGN0034753, FBGN0039783, FBGN0039782, FBGN0036527, FBGN0052833, FBGN0038918, FBGN0038919	127	4271	9284	1.2494667386899745	0.7715387925603937	0.03714853829068043	8.980907930999482
GOTERM_MF_FAT	GO:0004653~polypeptide N-acetylgalactosaminyltransferase activity	3	1.293103448275862	0.014846831888246273	FBGN0036527, FBGN0039596, FBGN0050463	122	14	8946	15.71311475409836	0.9390178399009866	0.07096590479518006	16.924483466492447
GOTERM_MF_ALL	GO:0004653~polypeptide N-acetylgalactosaminyltransferase activity	3	1.293103448275862	0.014946745033147952	FBGN0036527, FBGN0039596, FBGN0050463	127	14	9284	15.664791901012373	0.9477479612527027	0.07113503805710408	17.149433201645714
GOTERM_MF_DIRECT	GO:0004653~polypeptide N-acetylgalactosaminyltransferase activity	3	1.293103448275862	0.014946745033147952	FBGN0036527, FBGN0039596, FBGN0050463	127	14	9284	15.664791901012373	0.7261359065958419	0.09482308629025482	14.98921088953632
GOTERM_MF_2	GO:0016491~oxidoreductase activity	17	7.327586206896551	0.016581271689724883	FBGN0042182, FBGN0036795, FBGN0036793, FBGN0034415, FBGN0037498, FBGN0051524, FBGN0030589, FBGN0040528, FBGN0052201, FBGN0039783, FBGN0039782, FBGN0001112, FBGN0051016, FBGN0038918, FBGN0038919, FBGN0051413, FBGN0265268	123	673	9157	1.8805373343480833	0.3305419092876358	0.07712118033920368	12.552170025245657
GOTERM_MF_2	GO:0005549~odorant binding	6	2.586206896551724	0.016742249181956957	FBGN0043530, FBGN0043532, FBGN0043533, FBGN0034471, FBGN0034768, FBGN0043539	123	112	9157	3.988240418118467	0.33316699804064165	0.06530587231659013	12.666932894093485
GOTERM_MF_3	GO:0016667~oxidoreductase activity, acting on a sulfur group of donors	4	1.7241379310344827	0.01744472769303717	FBGN0038918, FBGN0038919, FBGN0051413, FBGN0037498	113	42	8531	7.190054782975137	0.5224777679336762	0.059736740913446607	15.030301032440452
GOTERM_MF_FAT	GO:0005549~odorant binding	6	2.586206896551724	0.017743072854724384	FBGN0043530, FBGN0043532, FBGN0043533, FBGN0034471, FBGN0034768, FBGN0043539	122	112	8946	3.92827868852459	0.9648363662209962	0.08225853866161037	19.9017742743279
GOTERM_MF_ALL	GO:0005549~odorant binding	6	2.586206896551724	0.018007240880868615	FBGN0043530, FBGN0043532, FBGN0043533, FBGN0034471, FBGN0034768, FBGN0043539	127	112	9284	3.9161979752530933	0.9716061718212988	0.08320179382243231	20.308350104636762
GOTERM_MF_DIRECT	GO:0005549~odorant binding	6	2.586206896551724	0.018007240880868615	FBGN0043530, FBGN0043532, FBGN0043533, FBGN0034471, FBGN0034768, FBGN0043539	127	112	9284	3.9161979752530933	0.7904379928188315	0.10561949350873112	17.794435304051348
GOTERM_MF_FAT	GO:0016667~oxidoreductase activity, acting on a sulfur group of donors	4	1.7241379310344827	0.01888827945177483	FBGN0038918, FBGN0038919, FBGN0051413, FBGN0037498	122	42	8946	6.983606557377049	0.9717282461486694	0.08528917485240939	21.051720878363312
GOTERM_MF_ALL	GO:0016667~oxidoreductase activity, acting on a sulfur group of donors	4	1.7241379310344827	0.019069490909524874	FBGN0038918, FBGN0038919, FBGN0051413, FBGN0037498	127	42	9284	6.962129733783278	0.9770334647567936	0.08593208718628298	21.378593783091247
GOTERM_MF_ALL	GO:0016491~oxidoreductase activity	17	7.327586206896551	0.01954287233285379	FBGN0042182, FBGN0036795, FBGN0036793, FBGN0034415, FBGN0037498, FBGN0051524, FBGN0030589, FBGN0040528, FBGN0052201, FBGN0039783, FBGN0039782, FBGN0001112, FBGN0051016, FBGN0038918, FBGN0038919, FBGN0051413, FBGN0265268	127	673	9284	1.8465678417240938	0.9791066931394359	0.08603324335037121	21.851264725075904
GOTERM_MF_5	GO:0008376~acetylgalactosaminyltransferase activity	3	1.293103448275862	0.029835788251178073	FBGN0036527, FBGN0039596, FBGN0050463	87	21	6622	10.873563218390805	0.7591610373112997	0.14630453965700807	25.00134449463719
GOTERM_MF_FAT	GO:0008376~acetylgalactosaminyltransferase activity	3	1.293103448275862	0.032222216514931165	FBGN0036527, FBGN0039596, FBGN0050463	122	21	8946	10.475409836065573	0.9978120056297335	0.13876220959433427	33.36905904692227
GOTERM_MF_ALL	GO:0008376~acetylgalactosaminyltransferase activity	3	1.293103448275862	0.03243115029447864	FBGN0036527, FBGN0039596, FBGN0050463	127	21	9284	10.443194600674916	0.9984381184274448	0.13658562486670445	33.758375472745946
GOTERM_MF_3	GO:0016788~hydrolase activity, acting on ester bonds	13	5.603448275862069	0.03270312429878662	FBGN0265264, FBGN0265267, FBGN0033999, FBGN0250847, FBGN0051872, FBGN0030362, FBGN0016123, FBGN0038067, FBGN0038069, FBGN0010406, FBGN0043825, FBGN0030828, FBGN0085476	113	505	8531	1.943450451239814	0.752536602319354	0.10185388055882771	26.48836823292301
GOTERM_MF_DIRECT	GO:0016972~thiol oxidase activity	2	0.8620689655172413	0.04016940074327773	FBGN0038918, FBGN0051413	127	3	9284	48.73490813648294	0.9705737560389446	0.2094749152498625	35.73140528192089
GOTERM_MF_ALL	GO:0016788~hydrolase activity, acting on ester bonds	13	5.603448275862069	0.04117193819511922	FBGN0265264, FBGN0265267, FBGN0033999, FBGN0250847, FBGN0051872, FBGN0030362, FBGN0016123, FBGN0038067, FBGN0038069, FBGN0010406, FBGN0043825, FBGN0030828, FBGN0085476	127	505	9284	1.881842987448351	0.9997362549937244	0.16733413534810126	40.85796175148906
GOTERM_MF_DIRECT	GO:0016787~hydrolase activity	7	3.0172413793103448	0.049400151527840455	FBGN0083965, FBGN0031409, FBGN0052833, FBGN0039597, FBGN0250841, FBGN0052382, FBGN0040341	127	195	9284	2.624187361195235	0.9871824298532882	0.23838084806637216	42.09142513416617
GOTERM_MF_DIRECT	GO:0052689~carboxylic ester hydrolase activity	4	1.7241379310344827	0.06938525859280226	FBGN0265267, FBGN0250847, FBGN0030828, FBGN0085476	127	70	9284	4.177277840269966	0.997938355490267	0.3049555570439142	53.94926848031898
GOTERM_MF_DIRECT	GO:0004301~epoxide hydrolase activity	2	0.8620689655172413	0.07873751489767358	FBGN0030222, FBGN0036186	127	6	9284	24.36745406824147	0.9991350893550177	0.32417891742680893	58.701420677802815
GOTERM_MF_DIRECT	GO:0030414~peptidase inhibitor activity	2	0.8620689655172413	0.07873751489767358	FBGN0015586, FBGN0020509	127	6	9284	24.36745406824147	0.9991350893550177	0.32417891742680893	58.701420677802815
GOTERM_MF_5	GO:0004301~epoxide hydrolase activity	2	0.8620689655172413	0.08748095765150994	FBGN0030222, FBGN0036186	87	7	6622	21.74712643678161	0.9864677194312869	0.34966504241071894	58.084975010919685
GOTERM_MF_4	GO:0016803~ether hydrolase activity	2	0.8620689655172413	0.08832702462364951	FBGN0030222, FBGN0036186	107	7	8080	21.57543391188251	0.9857898802653695	0.24692219316366915	58.274007171276644
GOTERM_MF_FAT	GO:0016803~ether hydrolase activity	2	0.8620689655172413	0.09095212334456804	FBGN0030222, FBGN0036186	122	7	8946	20.95081967213115	0.9999999819812978	0.3459477191567888	69.33490014435937
GOTERM_MF_FAT	GO:0004301~epoxide hydrolase activity	2	0.8620689655172413	0.09095212334456804	FBGN0030222, FBGN0036186	122	7	8946	20.95081967213115	0.9999999819812978	0.3459477191567888	69.33490014435937
GOTERM_MF_ALL	GO:0004301~epoxide hydrolase activity	2	0.8620689655172413	0.09124873209130202	FBGN0030222, FBGN0036186	127	7	9284	20.886389201349832	0.9999999928348409	0.33481921975598417	69.73958620031611
GOTERM_MF_ALL	GO:0016803~ether hydrolase activity	2	0.8620689655172413	0.09124873209130202	FBGN0030222, FBGN0036186	127	7	9284	20.886389201349832	0.9999999928348409	0.33481921975598417	69.73958620031611
GOTERM_MF_5	GO:0015929~hexosaminidase activity	2	0.8620689655172413	0.0993443949364399	FBGN0041629, FBGN0032192	87	8	6622	19.028735632183906	0.992684204831385	0.360497925050445	62.98398031904888