Category	Term	Count	X.	PValue	Genes	List.Total	Pop.Hits	Pop.Total	Fold.Enrichment	Bonferroni	Benjamini	FDR
GOTERM_MF_ALL	GO:0004866~endopeptidase inhibitor activity	21	9.05172413793103	1.60609904023122e-18	FBGN0015586, FBGN0020509, FBGN0034195, FBGN0051902, FBGN0004629, FBGN0028988, FBGN0036970, FBGN0053121, FBGN0051515, FBGN0262621, FBGN0263082, FBGN0041180, FBGN0052203, FBGN0033115, FBGN0259956, FBGN0259955, FBGN0083141, FBGN0028986, FBGN0259957, FBGN0028987, FBGN0259949	127	99	9284	15.50656167979	3.14795411885319e-16	3.14795411885319e-16	2.00641795940683e-15
GOTERM_MF_ALL	GO:0061135~endopeptidase regulator activity	21	9.05172413793103	2.44588396181188e-18	FBGN0015586, FBGN0020509, FBGN0034195, FBGN0051902, FBGN0004629, FBGN0028988, FBGN0036970, FBGN0053121, FBGN0051515, FBGN0262621, FBGN0263082, FBGN0041180, FBGN0052203, FBGN0033115, FBGN0259956, FBGN0259955, FBGN0083141, FBGN0028986, FBGN0259957, FBGN0028987, FBGN0259949	127	101	9284	15.1995010524675	4.79393256515128e-16	2.39696628257564e-16	3.05551861042018e-15
GOTERM_MF_ALL	GO:0030414~peptidase inhibitor activity	21	9.05172413793103	3.00732191984243e-18	FBGN0015586, FBGN0020509, FBGN0034195, FBGN0051902, FBGN0004629, FBGN0028988, FBGN0036970, FBGN0053121, FBGN0051515, FBGN0262621, FBGN0263082, FBGN0041180, FBGN0052203, FBGN0033115, FBGN0259956, FBGN0259955, FBGN0083141, FBGN0028986, FBGN0259957, FBGN0028987, FBGN0259949	127	102	9284	15.0504863362668	5.89435096289117e-16	1.96478365429705e-16	3.75689453672858e-15
GOTERM_MF_ALL	GO:0061134~peptidase regulator activity	21	9.05172413793103	1.19895194864798e-17	FBGN0015586, FBGN0020509, FBGN0034195, FBGN0051902, FBGN0004629, FBGN0028988, FBGN0036970, FBGN0053121, FBGN0051515, FBGN0262621, FBGN0263082, FBGN0041180, FBGN0052203, FBGN0033115, FBGN0259956, FBGN0259955, FBGN0083141, FBGN0028986, FBGN0259957, FBGN0028987, FBGN0259949	127	109	9284	14.0839413421946	2.34994581935004e-15	5.87486454837509e-16	1.49778977633086e-14
GOTERM_MF_ALL	GO:0004867~serine-type endopeptidase inhibitor activity	19	8.18965517241379	1.50922246440199e-17	FBGN0015586, FBGN0020509, FBGN0034195, FBGN0051902, FBGN0028988, FBGN0036970, FBGN0053121, FBGN0051515, FBGN0262621, FBGN0263082, FBGN0052203, FBGN0033115, FBGN0259956, FBGN0259955, FBGN0083141, FBGN0028986, FBGN0259957, FBGN0028987, FBGN0259949	127	81	9284	17.1474676776514	2.95807603022789e-15	5.91615206045579e-16	1.88539497345098e-14
GOTERM_MF_ALL	GO:0004857~enzyme inhibitor activity	22	9.48275862068965	5.9798346476201e-17	FBGN0259964, FBGN0015586, FBGN0020509, FBGN0034195, FBGN0051902, FBGN0004629, FBGN0028988, FBGN0036970, FBGN0053121, FBGN0051515, FBGN0262621, FBGN0263082, FBGN0041180, FBGN0052203, FBGN0033115, FBGN0259956, FBGN0259955, FBGN0083141, FBGN0028986, FBGN0259957, FBGN0028987, FBGN0259949	127	135	9284	11.9129775444736	2.17603712826531e-14	3.66373598126302e-15	1.33226762955019e-13
GOTERM_MF_ALL	GO:0019798~procollagen-proline dioxygenase activity	10	4.31034482758621	3.01253778717721e-11	FBGN0042182, FBGN0052201, FBGN0039783, FBGN0036795, FBGN0039782, FBGN0036793, FBGN0051016, FBGN0265268, FBGN0051524, FBGN0040528	127	26	9284	28.1162931556632	5.9045679456915e-09	8.43509706527357e-10	3.76340625329874e-08
GOTERM_MF_ALL	GO:0004656~procollagen-proline 4-dioxygenase activity	10	4.31034482758621	3.01253778717721e-11	FBGN0042182, FBGN0052201, FBGN0039783, FBGN0036795, FBGN0039782, FBGN0036793, FBGN0051016, FBGN0265268, FBGN0051524, FBGN0040528	127	26	9284	28.1162931556632	5.9045679456915e-09	8.43509706527357e-10	3.76340625329874e-08
GOTERM_MF_ALL	GO:0031418~L-ascorbic acid binding	10	4.31034482758621	4.46752284237873e-11	FBGN0042182, FBGN0052201, FBGN0039783, FBGN0036795, FBGN0039782, FBGN0036793, FBGN0051016, FBGN0265268, FBGN0051524, FBGN0040528	127	27	9284	27.0749489647127	8.75635164376831e-09	1.09454389995989e-09	5.58105339720782e-08
GOTERM_MF_ALL	GO:0031545~peptidyl-proline 4-dioxygenase activity	10	4.31034482758621	4.46752284237873e-11	FBGN0042182, FBGN0052201, FBGN0039783, FBGN0036795, FBGN0039782, FBGN0036793, FBGN0051016, FBGN0265268, FBGN0051524, FBGN0040528	127	27	9284	27.0749489647127	8.75635164376831e-09	1.09454389995989e-09	5.58105339720782e-08
GOTERM_MF_ALL	GO:0031543~peptidyl-proline dioxygenase activity	10	4.31034482758621	6.50899577838371e-11	FBGN0042182, FBGN0052201, FBGN0039783, FBGN0036795, FBGN0039782, FBGN0036793, FBGN0051016, FBGN0265268, FBGN0051524, FBGN0040528	127	28	9284	26.1079865016873	1.2757626843829e-08	1.41751410609459e-09	8.13135447863544e-08
GOTERM_MF_ALL	GO:0016702~oxidoreductase activity, acting on single donors with incorporation of molecular oxygen, incorporation of two atoms of oxygen	10	4.31034482758621	3.43292595656477e-10	FBGN0042182, FBGN0052201, FBGN0039783, FBGN0036795, FBGN0039782, FBGN0036793, FBGN0051016, FBGN0265268, FBGN0051524, FBGN0040528	127	33	9284	22.1522309711286	6.72853506245019e-08	6.7285352844948e-09	4.28858026868539e-07
GOTERM_MF_ALL	GO:0016701~oxidoreductase activity, acting on single donors with incorporation of molecular oxygen	10	4.31034482758621	4.61580124823531e-10	FBGN0042182, FBGN0052201, FBGN0039783, FBGN0036795, FBGN0039782, FBGN0036793, FBGN0051016, FBGN0265268, FBGN0051524, FBGN0040528	127	34	9284	21.5006947660954	9.04696969561414e-08	8.22451828863535e-09	5.76628578219385e-07
GOTERM_MF_ALL	GO:0019842~vitamin binding	10	4.31034482758621	2.24706861184752e-09	FBGN0042182, FBGN0052201, FBGN0039783, FBGN0036795, FBGN0039782, FBGN0036793, FBGN0051016, FBGN0265268, FBGN0051524, FBGN0040528	127	40	9284	18.2755905511811	4.40425357406404e-07	3.67021205649465e-08	2.80714869127507e-06
GOTERM_MF_ALL	GO:0031406~carboxylic acid binding	10	4.31034482758621	2.84639250915205e-09	FBGN0042182, FBGN0052201, FBGN0039783, FBGN0036795, FBGN0039782, FBGN0036793, FBGN0051016, FBGN0265268, FBGN0051524, FBGN0040528	127	41	9284	17.8298444401767	5.57892766317458e-07	4.29148392377954e-08	3.55585346722975e-06
GOTERM_MF_ALL	GO:0030234~enzyme regulator activity	22	9.48275862068965	3.49068241917405e-09	FBGN0259964, FBGN0015586, FBGN0020509, FBGN0034195, FBGN0051902, FBGN0004629, FBGN0028988, FBGN0036970, FBGN0053121, FBGN0051515, FBGN0262621, FBGN0263082, FBGN0041180, FBGN0052203, FBGN0033115, FBGN0259956, FBGN0259955, FBGN0083141, FBGN0028986, FBGN0259957, FBGN0028987, FBGN0259949	127	334	9284	4.8151256542034	6.84173519505116e-07	4.88695526268401e-08	4.3607321642547e-06
GOTERM_MF_ALL	GO:0016706~oxidoreductase activity, acting on paired donors, with incorporation or reduction of molecular oxygen, 2-oxoglutarate as one donor, and incorporation of one atom each of oxygen into both donors	10	4.31034482758621	4.47825925152943e-09	FBGN0042182, FBGN0052201, FBGN0039783, FBGN0036795, FBGN0039782, FBGN0036793, FBGN0051016, FBGN0265268, FBGN0051524, FBGN0040528	127	43	9284	17.0005493499359	8.77738421500851e-07	5.85159187771467e-08	5.59446163839183e-06
GOTERM_MF_ALL	GO:0051213~dioxygenase activity	10	4.31034482758621	4.40338711253207e-08	FBGN0042182, FBGN0052201, FBGN0039783, FBGN0036795, FBGN0039782, FBGN0036793, FBGN0051016, FBGN0265268, FBGN0051524, FBGN0040528	127	55	9284	13.2913385826772	8.63060168276863e-06	5.39414787392722e-07	5.5009264832151e-05
GOTERM_MF_ALL	GO:0004252~serine-type endopeptidase activity	18	7.75862068965517	2.08578642232252e-07	FBGN0037036, FBGN0037039, FBGN0037038, FBGN0031409, FBGN0053462, FBGN0039598, FBGN0039597, FBGN0250841, FBGN0039568, FBGN0052382, FBGN0039599, FBGN0052383, FBGN0083966, FBGN0083965, FBGN0038014, FBGN0085324, FBGN0052833, FBGN0040341	127	280	9284	4.69943757030371	4.08805825100611e-05	2.4047864111143e-06	0.000260566392040751
GOTERM_MF_ALL	GO:0030246~carbohydrate binding	12	5.17241379310345	2.30967708205104e-07	FBGN0040098, FBGN0030050, FBGN0015583, FBGN0040107, FBGN0036527, FBGN0005585, FBGN0040093, FBGN0039596, FBGN0259958, FBGN0040092, FBGN0050463, FBGN0040097	127	109	9284	8.04796648125406	4.52686513751077e-05	2.51497883918539e-06	0.000288535844350513
GOTERM_MF_ALL	GO:0043168~anion binding	11	4.74137931034483	2.44929724725394e-07	FBGN0042182, FBGN0052201, FBGN0039783, FBGN0037433, FBGN0036795, FBGN0039782, FBGN0036793, FBGN0051016, FBGN0265268, FBGN0051524, FBGN0040528	127	87	9284	9.24282740519504	4.80050796443088e-05	2.52664059352536e-06	0.000305977834813564
GOTERM_MF_ALL	GO:0098772~molecular function regulator	22	9.48275862068965	2.78023328777361e-07	FBGN0259964, FBGN0015586, FBGN0020509, FBGN0034195, FBGN0051902, FBGN0004629, FBGN0028988, FBGN0036970, FBGN0053121, FBGN0051515, FBGN0262621, FBGN0263082, FBGN0041180, FBGN0052203, FBGN0033115, FBGN0259956, FBGN0259955, FBGN0083141, FBGN0028986, FBGN0259957, FBGN0028987, FBGN0259949	127	430	9284	3.7401208569859	5.44910953269584e-05	2.72462528927431e-06	0.000347319869375973
GOTERM_MF_ALL	GO:0008236~serine-type peptidase activity	18	7.75862068965517	6.38693666443882e-07	FBGN0037036, FBGN0037039, FBGN0037038, FBGN0031409, FBGN0053462, FBGN0039598, FBGN0039597, FBGN0250841, FBGN0039568, FBGN0052382, FBGN0039599, FBGN0052383, FBGN0083966, FBGN0083965, FBGN0038014, FBGN0085324, FBGN0052833, FBGN0040341	127	303	9284	4.34271458641927	0.000125176163401575	5.96112502249113e-06	0.000797884630754364
GOTERM_MF_ALL	GO:0017171~serine hydrolase activity	18	7.75862068965517	6.68879958307511e-07	FBGN0037036, FBGN0037039, FBGN0037038, FBGN0031409, FBGN0053462, FBGN0039598, FBGN0039597, FBGN0250841, FBGN0039568, FBGN0052382, FBGN0039599, FBGN0052383, FBGN0083966, FBGN0083965, FBGN0038014, FBGN0085324, FBGN0052833, FBGN0040341	127	304	9284	4.32842934106921	0.000131091922376925	5.95909659328875e-06	0.000835594548775909
GOTERM_MF_ALL	GO:0005534~galactose binding	6	2.58620689655172	1.1452767618576e-06	FBGN0040098, FBGN0015583, FBGN0040107, FBGN0040093, FBGN0040092, FBGN0040097	127	15	9284	29.2409448818898	0.000224449181382202	9.75970775940471e-06	0.00143072667587729
GOTERM_MF_ALL	GO:0004175~endopeptidase activity	21	9.05172413793103	1.48274694220413e-06	FBGN0037036, FBGN0036154, FBGN0037039, FBGN0037038, FBGN0031409, FBGN0053462, FBGN0039598, FBGN0039597, FBGN0250841, FBGN0039568, FBGN0028944, FBGN0052382, FBGN0039599, FBGN0052383, FBGN0083966, FBGN0083965, FBGN0038014, FBGN0085324, FBGN0052833, FBGN0034229, FBGN0040341	127	436	9284	3.52098533554865	0.000290576390634123	1.21090356905995e-05	0.00185230466613895
GOTERM_MF_ALL	GO:0070011~peptidase activity, acting on L-amino acid peptides	24	10.3448275862069	5.24034001897372e-06	FBGN0037036, FBGN0036154, FBGN0037039, FBGN0037038, FBGN0031409, FBGN0053462, FBGN0039598, FBGN0039597, FBGN0250841, FBGN0029804, FBGN0039568, FBGN0028944, FBGN0030222, FBGN0052382, FBGN0036186, FBGN0039599, FBGN0052383, FBGN0083966, FBGN0083965, FBGN0038014, FBGN0085324, FBGN0052833, FBGN0034229, FBGN0040341	127	603	9284	2.90954675441689	0.00102658203866446	4.10835294452072e-05	0.00654629350983482
GOTERM_MF_ALL	GO:0008233~peptidase activity	24	10.3448275862069	7.66653108014032e-06	FBGN0037036, FBGN0036154, FBGN0037039, FBGN0037038, FBGN0031409, FBGN0053462, FBGN0039598, FBGN0039597, FBGN0250841, FBGN0029804, FBGN0039568, FBGN0028944, FBGN0030222, FBGN0052382, FBGN0036186, FBGN0039599, FBGN0052383, FBGN0083966, FBGN0083965, FBGN0038014, FBGN0085324, FBGN0052833, FBGN0034229, FBGN0040341	127	617	9284	2.84352786533774	0.00150151744473637	5.77924011757602e-05	0.00957698599616252
GOTERM_MF_ALL	GO:0048029~monosaccharide binding	6	2.58620689655172	1.176203328938e-05	FBGN0040098, FBGN0015583, FBGN0040107, FBGN0040093, FBGN0040092, FBGN0040097	127	23	9284	19.0701814447107	0.0023027167533487	8.53805060870849e-05	0.0146927177400613
GOTERM_MF_ALL	GO:0016298~lipase activity	8	3.44827586206897	5.08548201342004e-05	FBGN0265264, FBGN0033999, FBGN0250847, FBGN0038067, FBGN0051872, FBGN0043825, FBGN0030828, FBGN0085476	127	72	9284	8.12248468941382	0.00991828435448305	0.000355929435075231	0.0635117821383258
GOTERM_MF_ALL	GO:0016864~intramolecular oxidoreductase activity, transposing S-S bonds	5	2.1551724137931	8.54150943818267e-05	FBGN0038918, FBGN0038919, FBGN0051413, FBGN0037498, FBGN0014002	127	18	9284	20.3062117235346	0.0166027038719128	0.000577146267049633	0.106652382529748
GOTERM_MF_ALL	GO:0003756~protein disulfide isomerase activity	5	2.1551724137931	8.54150943818267e-05	FBGN0038918, FBGN0038919, FBGN0051413, FBGN0037498, FBGN0014002	127	18	9284	20.3062117235346	0.0166027038719128	0.000577146267049633	0.106652382529748
GOTERM_MF_ALL	GO:0005506~iron ion binding	10	4.31034482758621	0.000249189747448822	FBGN0042182, FBGN0052201, FBGN0039783, FBGN0036795, FBGN0039782, FBGN0036793, FBGN0051016, FBGN0265268, FBGN0051524, FBGN0040528	127	155	9284	4.71628143256287	0.0476734391168826	0.00162691769468049	0.310854731394805
GOTERM_MF_ALL	GO:0016705~oxidoreductase activity, acting on paired donors, with incorporation or reduction of molecular oxygen	10	4.31034482758621	0.000378887298331955	FBGN0042182, FBGN0052201, FBGN0039783, FBGN0036795, FBGN0039782, FBGN0036793, FBGN0051016, FBGN0265268, FBGN0051524, FBGN0040528	127	164	9284	4.45746111004417	0.0715845679076919	0.00239313131915531	0.472295510195697
GOTERM_MF_ALL	GO:0005179~hormone activity	6	2.58620689655172	0.000663348509408378	FBGN0267327, FBGN0003034, FBGN0023415, FBGN0263597, FBGN0250832, FBGN0011559	127	52	9284	8.43488794669897	0.12195677028878	0.00405610948834578	0.825536157871964
