category	over_represented_pvalue
GO:0005576	1.88134040528841e-13
GO:0005788	3.35079039384245e-13
GO:0005615	1.84648727778856e-11
GO:0005783	2.44272567541104e-10
GO:0006457	8.8221151616485e-10
GO:0044421	5.54964426482293e-09
GO:0012505	2.06452436747839e-08
GO:0034976	6.22853370003061e-08
GO:0044432	3.46160620433107e-07
GO:0031974	3.98346355290229e-07
GO:0043233	3.98346355290229e-07
GO:0070013	3.98346355290229e-07
GO:0003756	2.33319132367312e-06
GO:0016864	2.33319132367312e-06
GO:0036503	2.03356360748855e-05
GO:0045454	2.81432992718279e-05
GO:0019725	5.32787239402151e-05
GO:0006508	8.12061065642812e-05
GO:0051082	0.000103537764481919
GO:0005793	0.000113478388881624
GO:0018196	0.000141979266147637
GO:0018279	0.000141979266147637
GO:0042157	0.000142715293874004
GO:0016860	0.000144235841949637
GO:0052689	0.000177944309480581
GO:0030433	0.000223032326140243
GO:0006986	0.000223436445637577
GO:0004866	0.000291315985820067
GO:0030414	0.000364361676482927
GO:0042600	0.000366354111323111
GO:0042470	0.000367019155692198
GO:0061135	0.00037517460678514
GO:0005791	0.000411347161239025
GO:0048770	0.000418425195892924
GO:0035966	0.000425078340726263
GO:0006950	0.000434486532958857
GO:0042221	0.000435785418422835
GO:0042592	0.000523467063356138
GO:0034663	0.00067526832679385
GO:0061134	0.000727767276150442
GO:0045780	0.000745540408934624
GO:0046852	0.000745540408934624
GO:0033116	0.000969730129371806
GO:0004867	0.000971379215312402
GO:0004857	0.000973257290363262
GO:0010243	0.00103692223039817
GO:0045672	0.0010373081788599
GO:0008768	0.00114449628303763
GO:0016787	0.00128010226013729
GO:0050746	0.00130817127609808
GO:0002763	0.00138369859032904
GO:0034105	0.00139004301460655
GO:1901698	0.00157615418593373
GO:0009986	0.00161802425086378
GO:0045124	0.00177966037330798
GO:0016853	0.00187787024741113
GO:0010033	0.00188591306580895
GO:0007310	0.00220379031101926
GO:0015037	0.00234354879258756
GO:0030970	0.00234422406187351
GO:1903513	0.00234422406187351
GO:0070011	0.00240565198606775
GO:0050750	0.00241300719966081
GO:0070325	0.00241300719966081
GO:0045639	0.00260459859573126
GO:0033554	0.00299439015140606
GO:0019538	0.00300877344692925
GO:0006487	0.00310736786893593
GO:0046850	0.00320471874934502
GO:0045670	0.00343396856002119
GO:0008233	0.00348940037185771
GO:0008253	0.00362074185222336
GO:0032527	0.0036638222885916
GO:0032504	0.00406359685631932
GO:0034975	0.00422123690316637
GO:0031667	0.00453508472662442
GO:0008252	0.00478196363647467
GO:0004465	0.00478751910788541
GO:0010982	0.00478751910788541
GO:0010983	0.00478751910788541
GO:0010986	0.00478751910788541
GO:0005797	0.00482346276167585
GO:0000302	0.00498654854000384
GO:0042277	0.00504214184585312
GO:0034103	0.00505719318767097
GO:0051246	0.00506704944658497
GO:0002761	0.00511757828119266
GO:0050896	0.00519075185710618
GO:0009991	0.00522081584260161
GO:0019471	0.00553921345076555
GO:0036296	0.00586362842569479
GO:0039020	0.00595798693721318
GO:2000611	0.00595798693721318
GO:0051716	0.00600374241377245
GO:0030163	0.00613004024636137
GO:0044712	0.00639645432538478
GO:0016788	0.00650606743303131
GO:0007309	0.00658634760151185
GO:0004853	0.00723677294685799
GO:0060187	0.00723728795937088
GO:0032847	0.00726015593481703
GO:0032849	0.00726015593481703
GO:0090088	0.00726015593481703
GO:0090089	0.00726015593481703
GO:2000878	0.00726015593481703
GO:2000880	0.00726015593481703
GO:2001148	0.00726015593481703
GO:2001150	0.00726015593481703
GO:0036494	0.00728682560023046
GO:0036477	0.00728683131818765
GO:0061771	0.00728683131818765
GO:0061889	0.00728683131818765
GO:0097443	0.00728683131818765
GO:1903978	0.00728683131818765
GO:1903979	0.00728683131818765
GO:1990666	0.00728683131818765
GO:0003980	0.00728683131828906
GO:0097466	0.00728683131828906
GO:0000003	0.00737029585750994
GO:0004806	0.00766646381643293
GO:0031967	0.00772527333898421
GO:0031975	0.00772527333898421
GO:0005794	0.00830330008866511
GO:0008237	0.00874990972893928
GO:0090087	0.00906696271131998
GO:0005789	0.00934640708330668
GO:0034362	0.00961481378473794
GO:0001843	0.00981354903683087
GO:0060606	0.00981354903683087
GO:0051787	0.0103633564925857
GO:0030312	0.010718033526079
GO:0008236	0.0108614192206071
GO:0070613	0.0110216482740236
GO:1903317	0.0110216482740236
GO:0033218	0.0110814142412305
GO:0010459	0.0111334020875241
GO:0045822	0.0111334020875241
GO:0001540	0.0114564119067589
GO:1904587	0.0116413905560304
GO:1903108	0.0117515080487234
GO:0051604	0.0119439670642811
GO:0060672	0.012029887404612
GO:0032370	0.0120642211511876
GO:0002072	0.0131862034173852
GO:0003339	0.0131862034173852
GO:0003406	0.0131862034173852
GO:0021603	0.0131862034173852
GO:0021604	0.0131862034173852
GO:0021633	0.0131862034173852
GO:0021650	0.0131862034173852
GO:0035564	0.0131862034173852
GO:0035566	0.0131862034173852
GO:0039003	0.0131862034173852
GO:0039017	0.0131862034173852
GO:0045918	0.0131862034173852
GO:0061360	0.0131862034173852
GO:0072004	0.0131862034173852
GO:0072025	0.0131862034173852
GO:0072039	0.0131862034173852
GO:0072040	0.0131862034173852
GO:0072074	0.0131862034173852
GO:0072075	0.0131862034173852
GO:0072108	0.0131862034173852
GO:0072161	0.0131862034173852
GO:0072162	0.0131862034173852
GO:0072170	0.0131862034173852
GO:0072174	0.0131862034173852
GO:0072179	0.0131862034173852
GO:0072189	0.0131862034173852
GO:0072207	0.0131862034173852
GO:0072221	0.0131862034173852
GO:0072234	0.0131862034173852
GO:0072243	0.0131862034173852
GO:0072289	0.0131862034173852
GO:0072304	0.0131862034173852
GO:0072305	0.0131862034173852
GO:0072307	0.0131862034173852
GO:1900211	0.0131862034173852
GO:1900212	0.0131862034173852
GO:1900214	0.0131862034173852
GO:1900215	0.0131862034173852
GO:1900217	0.0131862034173852
GO:1900218	0.0131862034173852
GO:1902338	0.0131862034173852
GO:1904673	0.0131862034173852
GO:1904746	0.0131862034173852
GO:2000592	0.0131862034173852
GO:2000594	0.0131862034173852
GO:2000595	0.0131862034173852
GO:2000597	0.0131862034173852
GO:2001012	0.0131862034173852
GO:2000609	0.0131996343115147
GO:0017171	0.0132162545362666
GO:0042542	0.0134064786001191
GO:0016015	0.0135667350412571
GO:0006890	0.013689910900905
GO:1904154	0.0138335755639828
GO:0070513	0.0138644867469326
GO:0002810	0.0139547647678437
GO:0006967	0.0139547647678437
GO:0031247	0.0140922190072149
GO:0004994	0.0142720465112557
GO:1902107	0.0142750837894423
GO:0070093	0.014323627893664
GO:1990680	0.014323627893664
GO:0038166	0.0143558190741614
GO:0004064	0.0144271210732758
GO:2001225	0.0144944809137024
GO:0036509	0.0145209633703612
GO:0009792	0.014891746858219
GO:0009790	0.015177615084748
GO:0043031	0.0156427897423475
GO:0009719	0.0157297022057288
GO:0032096	0.0157974408267676
GO:0032099	0.0157974408267676
GO:0032105	0.0157974408267676
GO:0032108	0.0157974408267676
GO:0042923	0.015971324683494
GO:0070482	0.0160321495053754
GO:0008045	0.0165035440722371
GO:0080030	0.0165065903111807
GO:1905897	0.016909981634385
GO:0032058	0.0169217139812206
GO:0036491	0.0169217139812206
GO:0070417	0.0169217139812206
GO:0045637	0.0177081981947509
GO:0071318	0.0178982337056838
GO:0004222	0.0180738737549189
GO:0004181	0.018235512481335
GO:0004175	0.0183718871029734
GO:0032501	0.0186472957040623
GO:0009166	0.0188919955740675
GO:0021554	0.0190565427035439
GO:0010172	0.0192678162547327
GO:0016298	0.0197153501519721
GO:1904672	0.0197658018157389
GO:0005775	0.0199713691088105
GO:0001655	0.0203052565341433
GO:0072182	0.0203052565341433
GO:2000696	0.0203052565341433
GO:2000698	0.0203052565341433
GO:0021631	0.020332953787592
GO:0009950	0.0206030579212805
GO:0016338	0.0206715070537501
GO:0008191	0.0206750418803687
GO:0017134	0.0207590046555389
GO:0006486	0.0209707928138337
GO:0043413	0.0209707928138337
GO:0044752	0.0211252364552298
GO:1901292	0.0213681341282513
GO:0070732	0.0214420811456563
GO:2000843	0.0215068662088694
GO:2000845	0.0215068662088694
GO:0090118	0.0216041248845801
GO:0036493	0.0216238835713729
GO:1905907	0.0217027744003406
GO:0005121	0.0227098756774175
GO:0071396	0.0227666296716024
GO:0070085	0.0228772971511279
GO:0035799	0.0230126088591226
GO:0072216	0.0230126088591226
GO:0072298	0.0230126088591226
GO:0072300	0.0230126088591226
GO:0090193	0.0230126088591226
GO:1904352	0.0234482502576287
GO:1905167	0.0234482502576287
GO:1903708	0.0236571400015399
GO:0090103	0.023699154325594
GO:0048532	0.0237891813539744
GO:0015669	0.0238739566125413
GO:0015670	0.0238739566125413
GO:0019755	0.0238739566125413
GO:0022417	0.0240064164156832
GO:0007501	0.024126155004829
GO:0032230	0.0241283415089579
GO:0034442	0.0241572947209846
GO:0034443	0.0241572947209846
GO:0050748	0.0241572947209846
GO:0060587	0.0241572947209846
GO:0060588	0.0241572947209846
GO:2000097	0.0241572947209846
GO:2000098	0.0241572947209846
GO:2000405	0.0241572947209846
GO:1903523	0.0241796272373207
GO:0034597	0.0243843259430577
GO:0001822	0.0247114174851736
GO:0004252	0.0250113119049411
GO:1905937	0.0251013978145517
GO:2000254	0.0251013978145517
GO:2000255	0.0251013978145517
GO:0001963	0.0251249718968202
GO:0016544	0.0251859770292048
GO:0072009	0.0252602421698628
GO:0072080	0.0252602421698628
GO:0072079	0.0254041232276
GO:0060457	0.0254225213679264
GO:1904152	0.0254502743529199
GO:0010984	0.0257353147635469
GO:0007548	0.0257664345248837
GO:0002816	0.0258546779726299
GO:0006965	0.0258546779726299
GO:0030198	0.0259790226600201
GO:0006979	0.0266117993256976
GO:0042166	0.0269433745154407
GO:0001823	0.0270373484733665
GO:0061004	0.0270373484733665
GO:0072217	0.0270373484733665
GO:1902455	0.0271779209408849
GO:0044699	0.0272629189181375
GO:0061213	0.0274452305493778
GO:0090190	0.0274452305493778
GO:0042268	0.0275171186891327
GO:0018208	0.0275402674530324
GO:2000402	0.027777830387611
GO:0045932	0.0279057060901867
GO:0045986	0.0279057060901867
GO:1905906	0.0283785070799622
GO:1903912	0.0285254464170191
GO:0006869	0.0285764448904939
GO:0021556	0.0287888686297281
GO:0021517	0.028832639958395
GO:0030229	0.028832639958395
GO:0034361	0.028832639958395
GO:0034385	0.028832639958395
GO:0044322	0.0288326399586277
GO:1904380	0.0288326399586277
GO:0031012	0.0289455668770308
GO:0042026	0.0293599889157806
GO:0048793	0.0295378852171804
GO:0048799	0.0296254050059509
GO:0060465	0.0299534440675978
GO:0015991	0.0301835255901548
GO:0009611	0.0304249315739882
GO:1904350	0.0305654908648785
GO:1905165	0.0305654908648785
GO:0150094	0.0305654908648785
GO:0050727	0.0305845758101867
GO:0005604	0.0306120204271068
GO:0005635	0.0306197211324656
GO:2001053	0.0308145800699366
GO:2001054	0.0308145800699366
GO:0032056	0.0311206623832792
GO:0032682	0.0312694065919663
GO:0071637	0.0312694065919663
GO:0071638	0.0312694065919663
GO:0015036	0.0314577262231867
GO:0042159	0.0317074628847717
GO:0030021	0.032077445255564
GO:1905936	0.0322066811452382
GO:0016543	0.0322092629154024
GO:0016545	0.0322092629154024
GO:0097242	0.0322563674806559
GO:0035977	0.0322930146315716
GO:1904382	0.0322930146315716
GO:0015988	0.0324347083776681
GO:0045169	0.0329941921320472
GO:0003337	0.0331132980429109
GO:0010171	0.0335110759819049
GO:0031209	0.0335358303026842
GO:0090185	0.0338057602821479
GO:0009951	0.0339633571350227
GO:0070092	0.0340355378693651
GO:0072205	0.0341286277434191
GO:0044707	0.0341581666481863
GO:0002686	0.0343903974478403
GO:0030299	0.0346570087059908
GO:0098856	0.0346570087059908
GO:0001818	0.0346669638228181
GO:0048065	0.034822320823711
GO:1903012	0.034993604163779
GO:2001204	0.034993604163779
GO:2001206	0.034993604163779
GO:0043558	0.0350380533742065
GO:0019898	0.0351373780591451
GO:1901564	0.0356074642843627
GO:0071498	0.0357546207333414
GO:0030301	0.0360131894073778
GO:0032368	0.0360527251261722
GO:0015918	0.036419954169385
GO:0072215	0.0367268594936817
GO:0090192	0.0367268594936817
GO:0007275	0.0368104552535534
GO:0014012	0.0374625594366024
GO:0050729	0.0375441787955903
GO:0005509	0.0376775403512489
GO:0051603	0.0380152047583827
GO:2000404	0.0381416134315837
GO:0036490	0.0381823333871132
GO:0008379	0.0382566819900202
GO:0031985	0.038446931674589
GO:0090662	0.0384751008844466
GO:0099131	0.0384751008844466
GO:0099132	0.0384751008844466
GO:0010898	0.0388683652236597
GO:0043062	0.0389617941075187
GO:1901142	0.0391415050882858
GO:0031640	0.0392260237730933
GO:0044364	0.0392260237730933
GO:0031581	0.0392339167705595
GO:1902337	0.0394170781975832
GO:0034358	0.0400615553935401
GO:1990777	0.0400615553935401
GO:0072202	0.040160626459131
GO:0031103	0.04046063007834
GO:0009056	0.0404895620401534
GO:0042165	0.040833042691571
GO:0061217	0.0410977248490831
GO:0090189	0.0410977248490831
GO:1905954	0.0412996211238819
GO:0004576	0.0413004814596685
GO:0004579	0.0413004814596685
GO:0061668	0.0414255543190882
GO:0060279	0.0416999579064649
GO:0036295	0.041736380120042
GO:0016485	0.0418464914379367
GO:0008970	0.0418826786539459
GO:1903010	0.0419865611115389
GO:0060231	0.0421540095174139
GO:0030641	0.0422452023821436
GO:0048878	0.0423056638440599
GO:0007561	0.0423138795379068
GO:0004571	0.0425631774184355
GO:0055098	0.0428192163807105
GO:0071404	0.0428192163807105
GO:1900016	0.0429544543022961
GO:0035850	0.0437780994765694
GO:0009605	0.0440572032246368
GO:0030216	0.0444335694022372
GO:0006885	0.0450389803388834
GO:0046661	0.0453899587466997
GO:0043951	0.0454320475737062
GO:0034250	0.0456690387300886
GO:0051087	0.0458159238566515
GO:0007218	0.0460870605100446
GO:0043030	0.0461354571692923
GO:0036507	0.0463485163194744
GO:0036508	0.0463485163194744
GO:0010608	0.0463990503221953
GO:0044420	0.0467105608354997
GO:1901700	0.0468363220923273
GO:0004180	0.0468453724645811
GO:0007313	0.0471747703613001
GO:0034698	0.0473094023414471
GO:0031102	0.0474538578910578
GO:0042632	0.04769513719583
GO:0065001	0.0479434637748263
GO:0034248	0.0482173966386291
GO:0043161	0.0482563046710547
GO:0009746	0.0482563439687452
GO:0009749	0.0482563439687452
GO:0034284	0.0482563439687452
GO:0061077	0.0483524145958446
GO:0016791	0.0484349999353868
GO:0048644	0.0486479095691811
GO:0070863	0.0486647359121977
GO:0060278	0.0486842030573452
GO:0005164	0.0487392349723649
GO:0051920	0.0488383047543401
GO:0021545	0.0489713942454748
GO:0030431	0.0489955511496309
GO:0048280	0.0490871766525578
GO:0065008	0.0492143494711057
GO:0010955	0.0495263035542371
GO:1903318	0.0495263035542371
GO:0034405	0.0497172984066143
GO:0016667	0.0499553396594741
