	Dbuz_prot	Dmel_selected_pps	Dmoj_selected_pps	Dvir_selected_pps
Dbuz_prot	9516	8666	8708	8560
Dmel_selected_pps	8666	10930	10366	10325
Dmoj_selected_pps	8708	10366	11104	10582
Dvir_selected_pps	8560	10325	10582	11003
