	Dbuz_prot	Dmel_selected_pps	Dmoj_selected_pps	Dvir_selected_pps
Dbuz_prot	0.0	357.0	186.0	195.0
Dmel_selected_pps	1377.0	0.0	333.0	310.0
Dmoj_selected_pps	1388.0	483.0	0.0	243.0
Dvir_selected_pps	1357.0	478.0	252.0	0.0
