category	over_represented_pvalue	under_represented_pvalue	numDEInCat	numInCat	term	ontology	over_represented_FDR	go_term	gene_ids
GO:0004867	2.14696522514652e-15	1	14	66	serine-type endopeptidase inhibitor activity	MF	1.08314395608642e-11	MF serine-type endopeptidase inhibitor activity	14657, 14662, 14665, 15125, 25138, 28364, 29908, 29919, 29931, 29932, 29936, 29937, 33193, 777
GO:0004866	9.60395724015531e-13	1	14	96	endopeptidase inhibitor activity	MF	2.90711785659501e-09	MF endopeptidase inhibitor activity	14657, 14662, 14665, 15125, 25138, 28364, 29908, 29919, 29931, 29932, 29936, 29937, 33193, 777
GO:0030414	1.41342353518181e-12	1	14	98	peptidase inhibitor activity	MF	3.56536086749612e-09	MF peptidase inhibitor activity	14657, 14662, 14665, 15125, 25138, 28364, 29908, 29919, 29931, 29932, 29936, 29937, 33193, 777
GO:0061135	1.65049110378594e-12	1	14	99	endopeptidase regulator activity	MF	3.56859755082861e-09	MF endopeptidase regulator activity	14657, 14662, 14665, 15125, 25138, 28364, 29908, 29919, 29931, 29932, 29936, 29937, 33193, 777
GO:0061134	1.21146830809075e-11	1	14	111	peptidase regulator activity	MF	2.29194660536918e-08	MF peptidase regulator activity	14657, 14662, 14665, 15125, 25138, 28364, 29908, 29919, 29931, 29932, 29936, 29937, 33193, 777
GO:0004857	5.97404155221908e-10	0.999999999945231	15	164	enzyme inhibitor activity	MF	1.00463465436484e-06	MF enzyme inhibitor activity	14657, 14662, 14665, 15125, 2488, 25138, 28364, 29908, 29919, 29931, 29932, 29936, 29937, 33193, 777
GO:0004806	4.7899912984103e-07	0.999999991564748	5	13	triglyceride lipase activity	MF	0.000381560622639157	MF triglyceride lipase activity	14294, 14403, 33758, 33759, 4064
GO:0004656	9.84470654960869e-07	0.999999978802659	5	15	procollagen-proline 4-dioxygenase activity	MF	0.000677271061946944	MF procollagen-proline 4-dioxygenase activity	1241, 1243, 5316, 8926, 8929
GO:0019798	9.84470654960869e-07	0.999999978802659	5	15	procollagen-proline dioxygenase activity	MF	0.000677271061946944	MF procollagen-proline dioxygenase activity	1241, 1243, 5316, 8926, 8929
GO:0003756	1.24658450303688e-06	0.999999971251738	5	16	protein disulfide isomerase activity	MF	0.000786127352227633	MF protein disulfide isomerase activity	16635, 2307, 25349, 28027, 30956
GO:0016864	1.24658450303688e-06	0.999999971251738	5	16	intramolecular oxidoreductase activity, transposing S-S bonds	MF	0.000786127352227633	MF intramolecular oxidoreductase activity, transposing S-S bonds	16635, 2307, 25349, 28027, 30956
GO:0031545	1.44117118848905e-06	0.999999965753457	5	16	peptidyl-proline 4-dioxygenase activity	MF	0.000838927920683915	MF peptidyl-proline 4-dioxygenase activity	1241, 1243, 5316, 8926, 8929
GO:0031543	2.84546113821452e-06	0.999999919666198	5	18	peptidyl-proline dioxygenase activity	MF	0.00153807336881703	MF peptidyl-proline dioxygenase activity	1241, 1243, 5316, 8926, 8929
GO:0031418	3.82657445160355e-06	0.999999883646854	5	19	L-ascorbic acid binding	MF	0.00199707601120758	MF L-ascorbic acid binding	1241, 1243, 5316, 8926, 8929
GO:0016702	1.77446986566078e-05	0.99999921297037	5	26	oxidoreductase activity, acting on single donors with incorporation of molecular oxygen, incorporation of two atoms of oxygen	MF	0.00654727741532538	MF oxidoreductase activity, acting on single donors with incorporation of molecular oxygen, incorporation of two atoms of oxygen	1241, 1243, 5316, 8926, 8929
GO:0048029	3.08403906579139e-05	0.999997699039763	6	48	monosaccharide binding	MF	0.0103726513912784	MF monosaccharide binding	1241, 1243, 27780, 5316, 8926, 8929
GO:0016701	3.985196892549e-05	0.999997854864085	5	31	oxidoreductase activity, acting on single donors with incorporation of molecular oxygen	MF	0.0125658239518186	MF oxidoreductase activity, acting on single donors with incorporation of molecular oxygen	1241, 1243, 5316, 8926, 8929
GO:0030246	5.48642674910442e-05	0.999991580060966	9	132	carbohydrate binding	MF	0.0166074137695391	MF carbohydrate binding	1241, 1243, 15703, 22725, 27780, 5316, 8926, 8929, 9741
GO:0030234	9.2493362958815e-05	0.999974983739993	15	382	enzyme regulator activity	MF	0.0245594219014327	MF enzyme regulator activity	14657, 14662, 14665, 15125, 2488, 25138, 28364, 29908, 29919, 29931, 29932, 29936, 29937, 33193, 777
GO:0016860	9.63762767542671e-05	0.99999362226825	5	37	intramolecular oxidoreductase activity	MF	0.0249243717382756	MF intramolecular oxidoreductase activity	16635, 2307, 25349, 28027, 30956
GO:0016706	9.71614094851839e-05	0.999993575506699	5	36	oxidoreductase activity, acting on paired donors, with incorporation or reduction of molecular oxygen, 2-oxoglutarate as one donor, and incorporation of one atom each of oxygen into both donors	MF	0.0249243717382756	MF oxidoreductase activity, acting on paired donors, with incorporation or reduction of molecular oxygen, 2-oxoglutarate as one donor, and incorporation of one atom each of oxygen into both donors	1241, 1243, 5316, 8926, 8929
GO:0098772	0.000580904652882577	0.999804704318099	16	497	molecular function regulator	MF	0.135261414175043	MF molecular function regulator	14657, 14662, 14665, 15125, 2488, 25138, 28364, 29908, 29919, 29931, 29932, 29936, 29937, 33193, 777, 9110
GO:0051213	0.000810371398693127	0.999911964200944	5	57	dioxygenase activity	MF	0.180367222341478	MF dioxygenase activity	1241, 1243, 5316, 8926, 8929
GO:0016298	0.000876746446553144	0.999903063113945	5	57	lipase activity	MF	0.189565106694026	MF lipase activity	14294, 14403, 33758, 33759, 4064
GO:0031406	0.000942686719055426	0.999862450401408	6	88	carboxylic acid binding	MF	0.195446075245259	MF carboxylic acid binding	1241, 1243, 5316, 6555, 8926, 8929
GO:0043177	0.000942686719055426	0.999862450401408	6	88	organic acid binding	MF	0.195446075245259	MF organic acid binding	1241, 1243, 5316, 6555, 8926, 8929
