term_ID,description,frequency,plot_X,plot_Y,plot_size,log10 p-value,uniqueness,dispensability,representative,eliminated
GO:0005576,"extracellular region",10.049%,-0.148, 7.293,3.046,-7.8270,0.932,0.000,5576,0
GO:0005615,"extracellular space",4.599%,-3.089, 4.536,2.707,-5.9934,0.876,0.000,5615,0
GO:0044421,"extracellular region part",6.645%,null,null,2.866,-3.7141,0.877,0.714,5615,1
GO:0005783,"endoplasmic reticulum",4.228%, 5.815, 0.371,2.670,-15.1417,0.511,0.000,5783,0
GO:0044432,"endoplasmic reticulum part",2.806%,null,null,2.493,-10.5490,0.420,0.617,5783,1
GO:0005794,"Golgi apparatus",2.653%,null,null,2.468,-1.4306,0.525,0.612,5783,1
GO:0005789,"endoplasmic reticulum membrane",2.490%,null,null,2.441,-3.0766,0.386,0.834,5783,1
GO:0031974,"membrane-enclosed lumen",9.171%,-4.130,-1.920,3.006,-6.0033,0.931,0.000,31974,0
GO:0033010,"paranodal junction",0.196%,-4.282, 1.321,1.342,-1.5905,0.925,0.000,33010,0
GO:0044224,"juxtaparanode region of axon",0.120%, 0.829,-7.655,1.146,-1.8707,0.795,0.031,44224,0
GO:0030673,"axolemma",0.009%,null,null,0.301,-1.8707,0.788,1.075,44224,1
GO:0012505,"endomembrane system",9.949%,-2.664,-5.060,3.041,-2.2058,0.878,0.056,12505,0
GO:0033116,"endoplasmic reticulum-Golgi intermediate compartment membrane",0.009%, 1.882,-3.399,0.301,-1.7834,0.746,0.166,33116,0
GO:0005793,"endoplasmic reticulum-Golgi intermediate compartment",0.045%, 1.784, 2.525,0.778,-4.6346,0.743,0.191,5793,0
GO:0030134,"ER to Golgi transport vesicle",0.136%, 6.411, 2.292,1.204,-2.2968,0.567,0.426,30134,0
GO:0005788,"endoplasmic reticulum lumen",0.145%, 6.272,-1.508,1.230,-15.8783,0.458,0.428,5788,0
GO:0008250,"oligosaccharyltransferase complex",0.072%,null,null,0.954,-2.1341,0.498,0.505,5788,1
GO:0017177,"glucosidase II complex",0.126%,null,null,1.146,-1.4230,0.491,0.526,5788,1
GO:0034663,"endoplasmic reticulum chaperone complex",0.126%,null,null,1.146,-5.6223,0.491,0.526,5788,1
GO:0000839,"Hrd1p ubiquitin ligase ERAD-L complex",0.009%, 7.546,-1.661,0.301,-1.4018,0.512,0.438,839,0
GO:0000836,"Hrd1p ubiquitin ligase complex",0.009%,null,null,0.301,-1.4018,0.512,1.000,839,1
GO:0044322,"endoplasmic reticulum quality control compartment",0.009%, 7.940,-0.785,0.301,-2.7563,0.553,0.438,44322,0
GO:0042470,"melanosome",0.018%, 5.345, 5.096,0.477,-1.3944,0.715,0.445,42470,0
GO:0048770,"pigment granule",0.027%, 6.076, 4.743,0.602,-1.3944,0.710,0.458,48770,0
GO:0070013,"intracellular organelle lumen",9.171%, 5.844,-4.979,3.006,-6.0033,0.642,0.486,70013,0
GO:0043233,"organelle lumen",9.171%,null,null,3.006,-6.0033,0.651,0.908,70013,1
GO:0036513,"Derlin-1 retrotranslocation complex",0.054%, 6.818,-0.753,0.845,-1.5726,0.505,0.494,36513,0
