term_ID,description,frequency,plot_X,plot_Y,plot_size,log10 p-value,uniqueness,dispensability,representative,eliminated
GO:0004857,"enzyme inhibitor activity",1.215%, 4.666, 0.498,2.134,-5.0419,0.755,0.000,4857,0
GO:0030234,"enzyme regulator activity",3.086%,null,null,2.537,-2.3521,0.749,0.791,4857,1
GO:0030414,"peptidase inhibitor activity",0.918%,null,null,2.013,-5.0960,0.733,0.969,4857,1
GO:0004866,"endopeptidase inhibitor activity",0.891%,null,null,2.000,-5.1974,0.733,0.738,4857,1
GO:0004867,"serine-type endopeptidase inhibitor activity",0.738%,null,null,1.919,-4.6102,0.736,0.965,4857,1
GO:0061134,"peptidase regulator activity",0.999%,null,null,2.049,-4.8134,0.758,0.748,4857,1
GO:0061135,"endopeptidase regulator activity",0.918%,null,null,2.013,-5.0891,0.733,0.972,4857,1
GO:0004994,"somatostatin receptor activity",0.018%, 2.187, 4.446,0.477,-1.9613,0.911,0.000,4994,0
GO:0008528,"G-protein coupled peptide receptor activity",0.423%,null,null,1.681,-1.5939,0.906,0.770,4994,1
GO:0005243,"gap junction channel activity",0.054%,-2.199, 2.670,0.845,-1.3192,0.960,0.000,5243,0
GO:0015036,"disulfide oxidoreductase activity",0.270%, 2.752,-7.462,1.491,-3.3895,0.748,0.000,15036,0
GO:0015037,"peptide disulfide oxidoreductase activity",0.054%,null,null,0.845,-1.3269,0.768,0.834,15036,1
GO:0051787,"misfolded protein binding",0.356%,-3.653,-4.339,1.602,-3.8515,0.845,0.000,51787,0
GO:0098772,"molecular function regulator",3.887%, 5.361, 2.852,2.636,-2.1690,0.961,0.000,98772,0
GO:0042923,"neuropeptide binding",0.018%, 1.289, 0.482,0.477,-1.7347,0.926,0.051,42923,0
GO:0048029,"monosaccharide binding",0.423%,-6.570, 2.418,1.681,-2.5595,0.870,0.065,48029,0
GO:0031418,"L-ascorbic acid binding",0.234%,null,null,1.431,-2.5142,0.867,0.763,48029,1
GO:0005537,"mannose binding",0.009%,null,null,0.301,-1.4408,0.880,0.595,48029,1
GO:0030246,"carbohydrate binding",1.170%,-4.562, 4.204,2.117,-1.4667,0.914,0.073,30246,0
GO:0008489,"UDP-galactose:glucosylceramide beta-1,4-galactosyltransferase activity",0.012%,-1.642, 5.385,0.301,-2.0707,0.844,0.081,8489,0
GO:0003851,"2-hydroxyacylsphingosine 1-beta-galactosyltransferase activity",0.018%,null,null,0.477,-2.0707,0.842,0.898,8489,1
GO:0047263,"N-acylsphingosine galactosyltransferase activity",0.012%,null,null,0.301,-2.0707,0.844,0.878,8489,1
GO:0003756,"protein disulfide isomerase activity",0.153%, 6.933,-0.743,1.255,-2.8074,0.842,0.098,3756,0
GO:0016864,"intramolecular oxidoreductase activity, transposing S-S bonds",0.153%,null,null,1.255,-2.8074,0.842,0.886,3756,1
GO:0016860,"intramolecular oxidoreductase activity",0.315%,null,null,1.556,-2.0226,0.844,0.736,3756,1
GO:0016853,"isomerase activity",1.053%, 6.083,-3.368,2.072,-1.8025,0.886,0.116,16853,0
GO:0050431,"transforming growth factor beta binding",0.009%,-5.991,-1.724,0.301,-1.3040,0.870,0.170,50431,0
GO:0031072,"heat shock protein binding",0.117%,-3.873,-6.783,1.146,-1.4770,0.854,0.205,31072,0
GO:0044183,"protein binding involved in protein folding",0.135%,-5.819,-5.665,1.204,-2.4833,0.853,0.208,44183,0
GO:0051087,"chaperone binding",0.180%,-6.265,-3.765,1.322,-1.5615,0.851,0.213,51087,0
GO:0001664,"G-protein coupled receptor binding",0.468%,-4.716,-3.379,1.724,-2.1747,0.759,0.231,1664,0
GO:0071855,"neuropeptide receptor binding",0.135%,null,null,1.204,-1.3395,0.758,0.776,1664,1
GO:0032813,"tumor necrosis factor receptor superfamily binding",0.009%,null,null,0.301,-1.4841,0.789,0.742,1664,1
GO:0048019,"receptor antagonist activity",0.018%,null,null,0.477,-1.5015,0.651,0.546,1664,1
GO:0030547,"receptor inhibitor activity",0.018%,null,null,0.477,-1.4526,0.801,0.802,1664,1
GO:0031883,"taste receptor binding",0.078%,null,null,0.954,-1.8955,0.765,0.610,1664,1
GO:0005164,"tumor necrosis factor receptor binding",0.009%,null,null,0.301,-1.5381,0.789,0.520,1664,1
GO:0031685,"adenosine receptor binding",0.078%,null,null,0.954,-1.5667,0.765,0.746,1664,1
GO:0051082,"unfolded protein binding",0.648%,-4.476,-5.664,1.863,-2.0886,0.840,0.245,51082,0
GO:0005102,"receptor binding",2.034%,-4.992,-4.597,2.356,-2.0853,0.830,0.285,5102,0
GO:0004656,"procollagen-proline 4-dioxygenase activity",0.225%, 2.861,-6.820,1.415,-2.7147,0.681,0.448,4656,0
GO:0019798,"procollagen-proline dioxygenase activity",0.225%,null,null,1.415,-2.7147,0.681,0.979,4656,1
GO:0016706,"oxidoreductase activity, acting on paired donors, with incorporation or reduction of molecular oxygen, 2-oxoglutarate as one donor, and incorporation of one atom each of oxygen into both donors",0.378%,null,null,1.633,-1.9274,0.679,0.938,4656,1
GO:0016702,"oxidoreductase activity, acting on single donors with incorporation of molecular oxygen, incorporation of two atoms of oxygen",0.288%,null,null,1.519,-2.2908,0.684,0.897,4656,1
GO:0031543,"peptidyl-proline dioxygenase activity",0.252%,null,null,1.462,-2.5600,0.683,0.920,4656,1
GO:0031545,"peptidyl-proline 4-dioxygenase activity",0.243%,null,null,1.447,-2.6084,0.679,0.985,4656,1
GO:0001653,"peptide receptor activity",0.432%, 1.720, 4.608,1.690,-1.4512,0.918,0.464,1653,0
GO:0016667,"oxidoreductase activity, acting on a sulfur group of donors",0.360%, 3.686,-6.734,1.613,-2.9007,0.760,0.466,16667,0
GO:0016701,"oxidoreductase activity, acting on single donors with incorporation of molecular oxygen",0.297%, 3.322,-7.216,1.531,-2.0576,0.762,0.470,16701,0
GO:0051213,"dioxygenase activity",0.459%, 3.564,-6.282,1.716,-1.5789,0.756,0.488,51213,0
