OG0000053	Dant_asmbl_22668	Dbuz_asmbl_18698
OG0000053	Dant_asmbl_22668	Dkoe_asmbl_45982
OG0000053	Dant_asmbl_22668	Dmoj_YOtrMO016356, Dmoj_YOtrMO033263, Dmoj_YOtrMO022463
OG0000166	Dant_asmbl_6881, Dant_asmbl_8648	Dbor_asmbl_9167
OG0000166	Dant_asmbl_8648	Dbuz_asmbl_8993
OG0000166	Dant_asmbl_6881, Dant_asmbl_8648	Dkoe_TRINITY_DN6314_c5_g6_i1
OG0000166	Dant_asmbl_6881, Dant_asmbl_8648	Dmoj_YOtrMO027262
OG0000199	Dant_TRINITY_DN9985_c0_g1_i1	Dbor_asmbl_8594
OG0000199	Dant_TRINITY_DN9985_c0_g1_i1	Dbuz_asmbl_23941
OG0000199	Dant_TRINITY_DN9985_c0_g1_i1	Dkoe_TRINITY_DN4393_c0_g1_i1
OG0000199	Dant_TRINITY_DN9985_c0_g1_i1	Dmoj_YOtrMO000021
OG0000236	Dant_TRINITY_DN8035_c1_g1_i16, Dant_asmbl_5763	Dbor_asmbl_6136
OG0000236	Dant_TRINITY_DN8035_c1_g1_i16	Dbuz_asmbl_1564
OG0000236	Dant_asmbl_5763	Dbuz_TRINITY_DN6553_c2_g1_i14
OG0000236	Dant_TRINITY_DN8035_c1_g1_i16, Dant_asmbl_5763	Dkoe_asmbl_11438
OG0000236	Dant_TRINITY_DN8035_c1_g1_i16, Dant_asmbl_5763	Dmoj_YOtrMO022074
